Model,Level,Test,Test_acc,Test_loss
cats_vs_dogs-10-A1Q9.h5,1.0,A1Q9,0.575419,0.8969194951810335
cats_vs_dogs-100-A1Q9.h5,1.0,A1Q9,0.6291362,0.7107362370741995
cats_vs_dogs-30-A1Q9.h5,1.0,A1Q9,0.61237645,0.7873297992505526
cats_vs_dogs-70-A1Q9.h5,1.0,A1Q9,0.61452514,0.7098630949070579
cats_vs_dogs-10-A2Q9.h5,1.0,A2Q9,0.5560808,0.9221902834741693
cats_vs_dogs-100-A2Q9.h5,1.0,A2Q9,0.63944995,0.6562335679405614
cats_vs_dogs-30-A2Q9.h5,1.0,A2Q9,0.58831114,0.673750711114783
cats_vs_dogs-70-A2Q9.h5,1.0,A2Q9,0.61839277,0.6650165099846689
cats_vs_dogs-10-A3Q9.h5,1.0,A3Q9,0.53373444,7.064951444927015
cats_vs_dogs-100-A3Q9.h5,1.0,A3Q9,0.69531584,0.7298908108159116
cats_vs_dogs-30-A3Q9.h5,1.0,A3Q9,0.539321,3.1282288777200797
cats_vs_dogs-70-A3Q9.h5,1.0,A3Q9,0.68285346,0.7633968591690063
cats_vs_dogs-10-A1Q9.h5,0.7,A1Q9,0.6029222,0.8049486561825401
cats_vs_dogs-100-A1Q9.h5,0.7,A1Q9,0.60550064,0.8168639007367586
cats_vs_dogs-30-A1Q9.h5,0.7,A1Q9,0.6312849,0.7456407201917548
cats_vs_dogs-70-A1Q9.h5,0.7,A1Q9,0.645896,0.6620960894383883
cats_vs_dogs-10-A2Q9.h5,0.7,A2Q9,0.5728406,0.7940775689325834
cats_vs_dogs-100-A2Q9.h5,0.7,A2Q9,0.6029222,0.7207543285269487
cats_vs_dogs-30-A2Q9.h5,0.7,A2Q9,0.60249245,0.6638505207864862
cats_vs_dogs-70-A2Q9.h5,0.7,A2Q9,0.6149549,0.6543706153568468
cats_vs_dogs-10-A3Q9.h5,0.7,A3Q9,0.60034376,3.340311840960854
cats_vs_dogs-100-A3Q9.h5,0.7,A3Q9,0.6785561,0.7752994800868788
cats_vs_dogs-30-A3Q9.h5,0.7,A3Q9,0.6209712,1.22445001100239
cats_vs_dogs-70-A3Q9.h5,0.7,A3Q9,0.70219165,0.7451434543258265
cats_vs_dogs-10-A1Q9.h5,0.3,A1Q9,0.6209712,0.7249922156333923
cats_vs_dogs-100-A1Q9.h5,0.3,A1Q9,0.58616245,0.9968371203071192
cats_vs_dogs-30-A1Q9.h5,0.3,A1Q9,0.63987964,0.7189332403634724
cats_vs_dogs-70-A1Q9.h5,0.3,A1Q9,0.63859046,0.6545126783220392
cats_vs_dogs-10-A2Q9.h5,0.3,A2Q9,0.5745595,0.768768825029072
cats_vs_dogs-100-A2Q9.h5,0.3,A2Q9,0.565535,0.8561187135545831
cats_vs_dogs-30-A2Q9.h5,0.3,A2Q9,0.5969059,0.6604093909263611
cats_vs_dogs-70-A2Q9.h5,0.3,A2Q9,0.61366564,0.658392209755747
cats_vs_dogs-10-A3Q9.h5,0.3,A3Q9,0.7026214,1.5047974523745085
cats_vs_dogs-100-A3Q9.h5,0.3,A3Q9,0.66566396,0.8448378067267569
cats_vs_dogs-30-A3Q9.h5,0.3,A3Q9,0.7129351,0.7240567081852963
cats_vs_dogs-70-A3Q9.h5,0.3,A3Q9,0.68500215,0.8099854902217263
cats_vs_dogs-10-A1Q9.h5,0.1,A1Q9,0.6308552,0.7052732486473886
cats_vs_dogs-100-A1Q9.h5,0.1,A1Q9,0.5724108,1.0972246496300948
cats_vs_dogs-30-A1Q9.h5,0.1,A1Q9,0.63944995,0.7071859742465773
cats_vs_dogs-70-A1Q9.h5,0.1,A1Q9,0.62956595,0.6628305943388688
cats_vs_dogs-10-A2Q9.h5,0.1,A2Q9,0.60421145,0.770009624330621
cats_vs_dogs-100-A2Q9.h5,0.1,A2Q9,0.5633863,0.9095815608375951
cats_vs_dogs-30-A2Q9.h5,0.1,A2Q9,0.6072196,0.6584183667835436
cats_vs_dogs-70-A2Q9.h5,0.1,A2Q9,0.6085088,0.6619780314596075
cats_vs_dogs-10-A3Q9.h5,0.1,A3Q9,0.7146541,1.3349861690872593
cats_vs_dogs-100-A3Q9.h5,0.1,A3Q9,0.64675546,0.8918329069488927
cats_vs_dogs-30-A3Q9.h5,0.1,A3Q9,0.69531584,0.7466089662752653
cats_vs_dogs-70-A3Q9.h5,0.1,A3Q9,0.6652342,0.8534870900605854
