accuracy,loss,val_accuracy,val_loss
0.2617619037628174,2.1685538999466667,0.3404444456100464,1.9891955165863038
0.36304762959480286,1.9321809498923166,0.39311110973358154,1.8392178413603042
0.40792858600616455,1.8052005530766078,0.4327777922153473,1.7367139340506659
0.4407857060432434,1.718594189598447,0.4534444510936737,1.6758249069849651
0.4668809473514557,1.6508353425888789,0.4828888773918152,1.6020846081839668
0.4904285669326782,1.5874217277254377,0.49988889694213867,1.5482704106436835
0.5084999799728394,1.5327899364289783,0.515999972820282,1.508812517589993
0.5282142758369446,1.4789672514597574,0.5178889036178589,1.484439772076077
0.5446904897689819,1.4356957119987124,0.5438888669013977,1.4313484066857232
0.5551190376281738,1.3995110053561983,0.5509999990463257,1.4011655510796441
0.5685476064682007,1.3606175467173258,0.5551111102104187,1.3893229914771186
0.579285740852356,1.329381247747512,0.5648888945579529,1.3614300785064697
0.5911666750907898,1.301085256576538,0.5778889060020447,1.3304922544691298
0.5996904969215393,1.2726936763127645,0.5737777948379517,1.323734781689114
0.6054762005805969,1.2501362497693016,0.5856666564941406,1.3079941839641995
0.616357147693634,1.2263264510290963,0.5878888964653015,1.2870070144865249
0.6223571300506592,1.2010297569547381,0.5924444198608398,1.2740650193956162
0.6302857398986816,1.1796991464524043,0.6024444699287415,1.2636196684307521
0.639380931854248,1.1605918066842216,0.60188889503479,1.2619833779864842
0.6445714235305786,1.1394223747253418,0.5985555648803711,1.2705035146077475
0.6504047513008118,1.12134703540802,0.6062222123146057,1.2532624376085069
0.6576666831970215,1.1042519527162824,0.6081110835075378,1.2425922252866957
0.6655238270759583,1.083890344574338,0.6047777533531189,1.2565092282825046
0.6709761619567871,1.0669041832969302,0.6057778000831604,1.2714836503134834
0.6762857437133789,1.0488754599662053,0.612666666507721,1.2326345767974853
0.6828333139419556,1.0327601521809895,0.616777777671814,1.2251924132241143
0.6866666674613953,1.0183885837736584,0.613777756690979,1.238687191857232
0.6951666474342346,1.0018719714028494,0.612666666507721,1.2326476021872625
0.6996904611587524,0.9851831920714605,0.617222249507904,1.2266810930040148
0.7055714130401611,0.9668215530486334,0.6266666650772095,1.21181990814209
0.7110000252723694,0.9524109685080392,0.6241111159324646,1.2275501115587022
0.7159523963928223,0.9396081324531919,0.6295555830001831,1.2267485069698758
0.7231666445732117,0.9264878668330965,0.6228888630867004,1.2374344845877754
0.7250952124595642,0.9132738811402094,0.6125555634498596,1.2563362237082587
0.7282618880271912,0.9020860919044131,0.6203333139419556,1.227066681014167
0.7328095436096191,0.8911307487714858,0.6258888840675354,1.2263991724650065
0.7369762063026428,0.878088324160803,0.6259999871253967,1.2336889645258586
0.7430952191352844,0.8628573618162246,0.6317777633666992,1.2285077871746488
0.745119035243988,0.8508423717135475,0.6114444732666016,1.2935580138100518
0.7500237822532654,0.8405792224520728,0.6251111030578613,1.2392073165045845
0.753761887550354,0.8276766079493931,0.6215555667877197,1.2558401444753011
0.7613571286201477,0.8129545188858396,0.6266666650772095,1.2496442362467448
0.7625952363014221,0.8043084047181266,0.6206666827201843,1.2743851623535156
0.7683571577072144,0.7906600284576416,0.6184444427490234,1.3013488877614339
0.7685714364051819,0.7844526991617112,0.6128888726234436,1.3104773858388266
0.773809552192688,0.7738366071383158,0.6155555844306946,1.2996440099080404
0.7780238389968872,0.7627685552778698,0.6285555362701416,1.272972791671753
0.7809285521507263,0.7522006618863061,0.617222249507904,1.3102914396921794
0.7832618951797485,0.7444798584892637,0.6024444699287415,1.3428004308276706
0.784928560256958,0.7356567379860651,0.6079999804496765,1.3517101927863227
0.7925952672958374,0.7230782478423345,0.6195555329322815,1.3133309644063313
0.7919762134552002,0.7185368774504889,0.6221110820770264,1.3023449355231391
0.7975952625274658,0.7019421485719227,0.6196666955947876,1.3234517470465765
0.8025000095367432,0.6947807249114627,0.613444447517395,1.3467074245876736
0.8025000095367432,0.6887785730589003,0.609000027179718,1.3668171645270453
0.8060476183891296,0.6807611111232212,0.6047777533531189,1.3933386107550727
0.8098095059394836,0.6696538100923811,0.6097777485847473,1.3804421852959528
0.8121428489685059,0.6654467192831494,0.6127777695655823,1.3791024674309624
0.8171428442001343,0.6486417417753311,0.6118888854980469,1.3946698048909505
0.8189047574996948,0.6440095813614981,0.6037777662277222,1.4088953215281168
0.8196190595626831,0.6425128444717044,0.6071110963821411,1.4032827659183078
0.824999988079071,0.6282859058834258,0.6108888983726501,1.4262172995673286
0.8283571600914001,0.6166992649577913,0.6066666841506958,1.4065097287495931
0.8291428685188293,0.6164122552871704,0.6125555634498596,1.398808113945855
0.8307856917381287,0.6056987876210894,0.6044444441795349,1.4542542623943753
0.8362857103347778,0.5936920505024138,0.6075555682182312,1.4990137019687229
0.8389762043952942,0.5901060145468939,0.6085555553436279,1.4632202598783706
0.8393095135688782,0.5860144960766747,0.6115555763244629,1.4624710164599948
0.8437380790710449,0.5735435665448506,0.5946666598320007,1.5431588584052192
0.8453571200370789,0.5698739802950904,0.6119999885559082,1.469132084528605
0.8476190567016602,0.5582707344236828,0.6016666889190674,1.5248879112667508
0.8507142663002014,0.5506286238488697,0.5867778062820435,1.5727559998830158
0.8527619242668152,0.5501142844245548,0.5972222089767456,1.5412267869313558
0.853690505027771,0.5435720298517318,0.6006666421890259,1.5054828287760416
0.8567143082618713,0.5365989096278236,0.5993333458900452,1.5846680617862277
0.8598095178604126,0.5293002341701871,0.5918889045715332,1.5918635450998941
0.8618571162223816,0.5208741037164416,0.6015555262565613,1.5482203939225938
0.8624761700630188,0.5176341766856966,0.6034444570541382,1.5681437774234348
0.864380955696106,0.5130673438367389,0.5927777886390686,1.580680547926161
0.86814284324646,0.5062725245839074,0.5972222089767456,1.623670611275567
0.870023787021637,0.4960534723145621,0.5987777709960938,1.572204034169515
0.8716428279876709,0.49163100790977476,0.6006666421890259,1.648359856499566
0.8728809356689453,0.48917950465565635,0.5734444260597229,1.7193938329484728
0.8742142915725708,0.4853374701227461,0.5902222394943237,1.6317961129082574
0.8792380690574646,0.47678171102205913,0.6027777791023254,1.6196447092692057
0.880214273929596,0.46991057248342605,0.5961111187934875,1.6506285814709134
0.8821666836738586,0.4625560779344468,0.5926666855812073,1.6271921956804063
0.8848094940185547,0.457758766798746,0.5902222394943237,1.6951974154578315
0.883738100528717,0.45795896586917695,0.5997777581214905,1.658605111228095
0.885952353477478,0.45242016983032224,0.5985555648803711,1.646510701921251
0.890999972820282,0.4413231826509748,0.5924444198608398,1.6828108897738987
0.8896428346633911,0.4419270430292402,0.5918889045715332,1.7584586067199708
0.8912857174873352,0.43780204234804426,0.5978888869285583,1.6823801015218098
0.8894761800765991,0.43845498547099887,0.5873333215713501,1.7319475729200575
0.8928571343421936,0.4322526944137755,0.6016666889190674,1.7181998649173313
0.8965952396392822,0.42705118130502245,0.5958889126777649,1.7231685106489394
0.895880937576294,0.42245354800564905,0.5743333101272583,1.8761577184465197
0.8990238308906555,0.41666727884610494,0.5947777628898621,1.7657396297454835
0.9003809690475464,0.4133053571156093,0.5976666808128357,1.76990199025472
0.9019285440444946,0.4076735012304215,0.5933333039283752,1.7763398793538412
