accuracy,loss,val_accuracy,val_loss
0.27923810482025146,2.165741277694702,0.3392222225666046,1.9784046840667724
0.37416666746139526,1.8794503330049062,0.4036666750907898,1.8024592662387424
0.4188571572303772,1.758812901269822,0.4355555474758148,1.6989944811926947
0.4541190564632416,1.673733681724185,0.46044445037841797,1.6290214746263292
0.47538095712661743,1.6081233854747954,0.4748888909816742,1.5835164773729113
0.49440476298332214,1.557125237601144,0.5051110982894897,1.5273610826068453
0.5109285712242126,1.5095159744989304,0.5168889164924622,1.485023144086202
0.5255476236343384,1.4716553650810604,0.5266666412353516,1.4524187586042616
0.5393571257591248,1.4306259037199474,0.5193333625793457,1.4612615431679619
0.5517619252204895,1.398495125134786,0.5327777862548828,1.4348286441167195
0.5629761815071106,1.3699960867563883,0.5421110987663269,1.4079655428992377
0.5729761719703674,1.3375796997887748,0.5587777495384216,1.3620904514524672
0.5804047584533691,1.3138165546598888,0.5704444646835327,1.333562935617235
0.590666651725769,1.2885713524591356,0.5706666707992554,1.3239948447545369
0.6019523739814758,1.262938609804426,0.5747777819633484,1.3234703556696574
0.6077142953872681,1.2432376673562187,0.5866666436195374,1.3082749183442857
0.6168095469474792,1.2215287573224023,0.586555540561676,1.2821837044821844
0.6240714192390442,1.2007139619191487,0.5947777628898621,1.2684858336978488
0.630047619342804,1.1839744080588932,0.56977778673172,1.3287142604192097
0.6333333253860474,1.167236820175534,0.5928888916969299,1.276869968838162
0.6404047608375549,1.1470997667766754,0.6005555391311646,1.2548150277667576
0.6458333134651184,1.1337220208304268,0.6076666712760925,1.2439309057659573
0.6508333086967468,1.1157483230318341,0.609333336353302,1.2332525185479057
0.6573809385299683,1.1042984467915127,0.609000027179718,1.2428881675932142
0.6631190180778503,1.0861500723702566,0.6043333411216736,1.2540453893873427
0.6702619194984436,1.0693304635683696,0.6047777533531189,1.247068751864963
0.6733333468437195,1.0615715689886185,0.6106666922569275,1.232978949016995
0.6783571243286133,1.0439751366660708,0.5943333506584167,1.2714347597757976
0.6824047565460205,1.0305016173862276,0.6062222123146057,1.2494990531073675
0.6862618923187256,1.0182413132077173,0.6101111173629761,1.2251517604192097
0.6925952434539795,1.00589797160739,0.6148889064788818,1.2371605717341105
0.6973571181297302,0.9902734831855411,0.6133333444595337,1.2252786633173625
0.7005714178085327,0.979001517363957,0.6091111302375793,1.2588671403461031
0.7056428790092468,0.9687545670100621,0.6094444394111633,1.236215896712409
0.7086190581321716,0.9595152461642311,0.6193333268165588,1.2261731695599025
0.7111428380012512,0.9446774826958066,0.5996666550636292,1.2881624627643162
0.7157857418060303,0.9346825813793,0.6135555505752563,1.2337073402404786
0.7219761610031128,0.9197002048946562,0.6156666874885559,1.2562072488996718
0.7230476140975952,0.9120212710244315,0.6156666874885559,1.241529362572564
0.729119062423706,0.9032426338422866,0.621999979019165,1.239492400487264
0.7308571338653564,0.892214336236318,0.6223333477973938,1.2299287042617797
0.7352142930030823,0.879163142090752,0.6108888983726501,1.2661757606930202
0.7388095259666443,0.8745217498370579,0.6143333315849304,1.253272974756029
0.7412381172180176,0.8587327249617803,0.6067777872085571,1.2825898614459568
0.7463571429252625,0.852707377910614,0.6161110997200012,1.2711031475067138
0.7476190328598022,0.8418079895519075,0.6181111335754395,1.2574960985183716
0.7528095245361328,0.8310430514471872,0.6142222285270691,1.2766315610673693
0.755214273929596,0.8228765413647606,0.6043333411216736,1.3342209174897937
0.7585238218307495,0.8129139568238031,0.6217777729034424,1.2833101394441393
0.7594285607337952,0.8099424770900181,0.6041111350059509,1.320843745973375
0.7648095488548279,0.7983776168596177,0.605555534362793,1.3191711555057102
0.7665238380432129,0.7871476900918143,0.6005555391311646,1.344128206676907
0.7729762196540833,0.7761806665602184,0.6201111078262329,1.2709602615568374
0.7758333086967468,0.7682015136991228,0.6173333525657654,1.289620457649231
0.7765476107597351,0.7625776557922364,0.6262221932411194,1.2801553707122804
0.7806904911994934,0.7523350264458429,0.6079999804496765,1.3469161655637953
0.7833333611488342,0.7427859879448301,0.605555534362793,1.3236635110643176
0.7848333120346069,0.7398573351133437,0.6000000238418579,1.3769366623560588
0.7909285426139832,0.7258565097082229,0.608222246170044,1.344691372235616
0.7894047498703003,0.7247229337011065,0.6032222509384155,1.3506927801767985
0.7951666712760925,0.7114484462056841,0.6140000224113464,1.3268951120376586
0.7975237965583801,0.7049853078524272,0.6081110835075378,1.3645749634636772
0.7966904640197754,0.7002333421934218,0.6095555424690247,1.3516860273149278
0.8050476312637329,0.685831706001645,0.6177777647972107,1.3483793641196358
0.8049523830413818,0.6827287939048948,0.6108888983726501,1.362642555978563
0.8080714344978333,0.6775662305468605,0.6198889017105103,1.3440111561881172
0.8091904520988464,0.6686479935418992,0.6084444522857666,1.3711588558620877
0.8114761710166931,0.6624566001437959,0.6097777485847473,1.386057491514418
0.8134047389030457,0.6576258725211734,0.6113333106040955,1.3572581159803603
0.817547619342804,0.649649473076775,0.6086666584014893,1.394302617179023
0.8206666707992554,0.6418600926172165,0.602222204208374,1.411917376200358
0.8199285864830017,0.6397065711929685,0.6025555729866028,1.4325429343117608
0.8270000219345093,0.6255163035846892,0.6028888821601868,1.454677186012268
0.8268095254898071,0.6256164119357155,0.6008889079093933,1.4539326958126493
0.829714298248291,0.617356916927156,0.6084444522857666,1.4382196175257365
0.8309524059295654,0.6110489409083412,0.6041111350059509,1.4401361601087783
0.8307856917381287,0.6065327416601635,0.5954444408416748,1.4984367521074082
0.8358571529388428,0.595841242267972,0.5884444713592529,1.515784324222141
0.837071418762207,0.5910636445908319,0.6039999723434448,1.4623280560175578
0.8380237817764282,0.5846848433131263,0.6021111011505127,1.4838810365464952
0.8435952663421631,0.5783680432183402,0.6016666889190674,1.4645511524412367
0.8428809642791748,0.5757568390937079,0.612666666507721,1.4329335687425402
0.8460952639579773,0.5692649264903296,0.5976666808128357,1.494460810131497
0.8453094959259033,0.5674148635637193,0.5920000076293945,1.5133219403160942
0.8502380847930908,0.5555727311315991,0.6094444394111633,1.4519810744391548
0.8532618880271912,0.5516931585357303,0.5983333587646484,1.5163681672414144
0.8534761667251587,0.5464449117864881,0.6041111350059509,1.4992601295047336
0.8565238118171692,0.5403146119117737,0.5889999866485596,1.5829468646579319
0.8590475916862488,0.535018155290967,0.6053333282470703,1.5158424939049615
0.858047604560852,0.5351543139389583,0.5864444375038147,1.5881508274078369
0.8595476150512695,0.5269281734739031,0.5988888740539551,1.536526188108656
0.8601666688919067,0.5262586193311782,0.6015555262565613,1.5257227300008138
0.8632143139839172,0.5188867454415276,0.6037777662277222,1.5218007493548924
0.8640714287757874,0.5113270651272365,0.5992222428321838,1.5298588583204482
0.8680238127708435,0.5073060358819508,0.6054444313049316,1.5337752425935534
0.8708333373069763,0.5007120757216499,0.6084444522857666,1.5276150599585638
0.8672142624855042,0.5056185782750447,0.6024444699287415,1.5755678034888374
0.8734047412872314,0.4941790330296471,0.6075555682182312,1.5433095211452907
0.8722618818283081,0.4928353280794053,0.5997777581214905,1.6183455532921684
0.8765952587127686,0.4802410555339995,0.6008889079093933,1.5895223774380154
