accuracy,loss,val_accuracy,val_loss
0.3100714385509491,1.927706679843721,0.38466668128967285,1.7636902729670207
0.4172857105731964,1.6510888363066174,0.425555557012558,1.6432404908074274
0.46909523010253906,1.5200976731890723,0.45500001311302185,1.5590956531100804
0.5014285445213318,1.434974959282648,0.4717777669429779,1.5167556003994411
0.5265238285064697,1.3670915167672293,0.4838888943195343,1.472578053686354
0.5505714416503906,1.3038174170539492,0.4883333444595337,1.4680243552525838
0.5721428394317627,1.2433632580893381,0.48622220754623413,1.4638096191618177
0.5967381000518799,1.1800321373712448,0.48100000619888306,1.4963191854688855
0.6190952658653259,1.120653475398109,0.4965555667877197,1.4579398656421239
0.6390714049339294,1.0646906335921515,0.5055555701255798,1.432166170226203
0.6592381000518799,0.9996806555702573,0.5083333253860474,1.45682506497701
0.6827619075775146,0.94131843151365,0.5130000114440918,1.4440176599290635
0.7057142853736877,0.8769046148118519,0.5046666860580444,1.4776048517227174
0.7304523587226868,0.8105568531354268,0.5070000290870667,1.5149364087846544
0.756928563117981,0.7476585290545509,0.49900001287460327,1.5543853322135077
0.7791666388511658,0.6809314389228821,0.5099999904632568,1.5714006096522013
0.8052142858505249,0.6169909145150866,0.4978888928890228,1.6070490129258899
0.8275238275527954,0.5523386751243047,0.4991111159324646,1.6730254338582358
0.8483809232711792,0.4928861231576829,0.5031111240386963,1.6982908791436089
0.8728809356689453,0.4294308301494235,0.4864444434642792,1.8558522843254937
0.8937143087387085,0.37047803864024936,0.4932222366333008,1.8710434341430664
0.9134523868560791,0.3146552759919848,0.492333322763443,1.9929848982493084
0.9304285645484924,0.26371771416209994,0.49433332681655884,2.0582990372975667
0.9481666684150696,0.21504999671379726,0.48944443464279175,2.1999894004397924
0.9589285850524902,0.17741910867463975,0.4911110997200012,2.2922396454281277
0.9691428542137146,0.1440501934233166,0.48911112546920776,2.386722855461968
0.9793809652328491,0.11047000638360069,0.4914444386959076,2.541795804977417
0.9858571290969849,0.08649730761136327,0.4873333275318146,2.6407238913642037
0.9897381067276001,0.06680793939105102,0.4744444489479065,2.8781517317030163
0.9920238256454468,0.05754281862718719,0.480777770280838,3.019474513159858
0.9940476417541504,0.04615101634675548,0.487888902425766,3.089262155108982
0.994357168674469,0.04070879691945655,0.48455554246902466,3.1997096676296657
0.9943333268165588,0.035919331947252865,0.4723333418369293,3.3683245366414387
0.9959523677825928,0.02973833382644114,0.48277777433395386,3.3690233976576063
0.9935476183891296,0.03109396263229705,0.47688889503479004,3.5041402901543512
0.9969523549079895,0.023170227010423938,0.47788888216018677,3.7204050704108345
0.9925476312637329,0.031012826811522246,0.4816666543483734,3.510801387786865
0.9986428618431091,0.014005331215759118,0.4886666536331177,3.6806283039516874
0.9922142624855042,0.02739288750007039,0.4757777750492096,3.7373751487731934
0.9967142939567566,0.01984726316676963,0.47999998927116394,3.8206034694247775
0.9937142729759216,0.023226886770466255,0.4821110963821411,3.712281174553765
0.9974285960197449,0.015108875095045993,0.4775555431842804,3.93765530649821
0.9997380971908569,0.005441592979444457,0.483777791261673,4.1343013526068795
1.0,0.001993592949828044,0.4886666536331177,4.233026936001248
0.9883809685707092,0.03640728916110293,0.47833332419395447,3.9358506262037487
0.9963095188140869,0.01804944923387042,0.47466665506362915,4.133377596113417
0.9993571639060974,0.00614625876139672,0.4888888895511627,4.201621570163303
0.9902619123458862,0.029927672476097497,0.476666659116745,4.039197988298204
0.9960238337516785,0.017822405221650288,0.4781111180782318,4.153995963626437
0.9999762177467346,0.0025193580016493796,0.4875555634498596,4.31192301135593
1.0,0.0011636552686049115,0.4873333275318146,4.43448353237576
1.0,0.0007891919033025347,0.4873333275318146,4.5756174697875975
0.9879523515701294,0.041375135517435234,0.48144444823265076,4.008058183458116
0.9970238208770752,0.013131260897875542,0.47966668009757996,4.465585028330485
0.9976904988288879,0.00851178050534578,0.46133333444595337,4.29938577524821
0.9935476183891296,0.023402151118210028,0.48133334517478943,4.380261673821344
0.9991666674613953,0.006255530553537288,0.48633334040641785,4.534145724826389
0.9977856874465942,0.007699778957336786,0.4543333351612091,4.877571885850695
0.9917380809783936,0.027872444272263066,0.4816666543483734,4.490478430006239
0.999833345413208,0.0022037748635990455,0.48577776551246643,4.599620765686035
1.0,0.0007136788446555979,0.4875555634498596,4.716044538285997
1.0,0.0004612635253440766,0.48622220754623413,4.832896862453884
1.0,0.000338207133341625,0.4887777864933014,4.941263296763102
0.989047646522522,0.037896072487266445,0.4723333418369293,4.553057512495253
0.9983809590339661,0.008164557127481592,0.480777770280838,4.8182968953450525
1.0,0.0011214514795380335,0.4861111044883728,4.869888638814291
1.0,0.0004313634137118546,0.4880000054836273,4.969530891842313
1.0,0.0002826825700800068,0.4886666536331177,5.067913850148519
1.0,0.00020738027882873125,0.48944443464279175,5.175894705030653
1.0,0.00015756266476542113,0.4909999966621399,5.266819119347466
0.9898809790611267,0.037554368723042506,0.47999998927116394,4.991811339484321
0.9953333139419556,0.01708197637966701,0.48399999737739563,4.7558519083658854
0.9964523911476135,0.012361416635707775,0.4658888876438141,5.020408019595676
0.9959762096405029,0.01411331294923799,0.47777777910232544,4.925936145358615
0.99871426820755,0.005450708108011722,0.47466665506362915,5.12105655585395
0.9949285984039307,0.01844701185182757,0.4811111092567444,5.052353466457791
0.9969047904014587,0.011441666833136141,0.4790000021457672,5.01574687745836
0.9958809614181519,0.013460450075899385,0.4593333303928375,4.965833580017089
0.9970238208770752,0.011614015638795015,0.47555556893348694,4.933726053025987
0.999666690826416,0.0030531633497504073,0.4794444441795349,5.267276353624132
0.9953095316886902,0.016056957439364243,0.48133334517478943,5.053510106404622
0.9953809380531311,0.013903182681683186,0.4721111059188843,4.868797444237603
0.9971428513526917,0.010480871626170396,0.47477778792381287,4.984469273037381
0.9997618794441223,0.002261307974778382,0.48133334517478943,5.227339699639215
1.0,0.0003245090838962434,0.4842222332954407,5.340934287177192
1.0,0.00019074188894730815,0.483777791261673,5.452423496246338
1.0,0.0001334809534905833,0.48222222924232483,5.549290520562066
1.0,9.37441566534939e-05,0.48322221636772156,5.657109288109673
1.0,6.603069598523212e-05,0.48355555534362793,5.80981404876709
0.9919285774230957,0.02879660273598295,0.4781111180782318,5.254499992370605
0.998119056224823,0.007281096894061193,0.47866666316986084,5.308339541541206
0.9998571276664734,0.0014254216640810704,0.4828888773918152,5.438301295810276
0.9941904544830322,0.01796919873486539,0.4732222259044647,5.320959940592448
0.9999762177467346,0.0010242224370207017,0.4815555512905121,5.455168729994032
1.0,0.00021778390941645264,0.48311111330986023,5.576406269497341
1.0,0.00012487161207744586,0.48500001430511475,5.6503078469170465
1.0,8.744814753368874e-05,0.4860000014305115,5.769529249403212
1.0,6.154832606123472e-05,0.4868888854980469,5.882411637200249
1.0,4.2447802412512136e-05,0.4868888854980469,5.986322252061632
0.9939047694206238,0.023367404416824035,0.46344444155693054,5.430536545647515
