accuracy,loss,val_accuracy,val_loss
0.2958333194255829,2.0979338120505924,0.36988890171051025,1.9217321954303317
0.3876190483570099,1.8431607740038918,0.42544445395469666,1.727388527976142
0.44152382016181946,1.695141492026193,0.4655555486679077,1.6174052968555026
0.4751666784286499,1.6032552230471657,0.4911110997200012,1.5473342234293619
0.49657142162323,1.539321418853033,0.511222243309021,1.4977624473571778
0.5138571262359619,1.4874503269649688,0.5226666927337646,1.4551883284250895
0.5295476317405701,1.44714640830812,0.5323333144187927,1.4203573491838244
0.5456904768943787,1.4057122237795876,0.5386666655540466,1.4070036159091526
0.5565476417541504,1.3741035725729807,0.5461111068725586,1.3879081988864475
0.5664047598838806,1.3445864963985625,0.5554444193840027,1.3656648320092095
0.5770952105522156,1.3187048711322602,0.5644444227218628,1.34567050298055
0.5853095054626465,1.2912279941922142,0.5752221941947937,1.3165759400261774
0.5955238342285156,1.2673843006860641,0.5774444341659546,1.3084500885009767
0.6009761691093445,1.2473824738093784,0.5721111297607422,1.314822063446045
0.6100952625274658,1.2218917383466448,0.5960000157356262,1.2730161479314168
0.6171904802322388,1.2031703889029366,0.5978888869285583,1.258122511651781
0.6244523525238037,1.18465504242125,0.5921111106872559,1.276014086617364
0.6309047341346741,1.161664297194708,0.5967777967453003,1.26232418706682
0.6380000114440918,1.1449057395117623,0.5975555777549744,1.2528400632010566
0.6450476050376892,1.1293584051132202,0.5994444489479065,1.252634014553494
0.6500952243804932,1.1136336045946393,0.6050000190734863,1.2475582269032797
0.6553094983100891,1.0973044888632637,0.608222246170044,1.2353585017522175
0.6593809723854065,1.0813787834984916,0.6102222204208374,1.2281961491902669
0.6664761900901794,1.0660928012757074,0.6067777872085571,1.2341293656031291
0.6738571524620056,1.0504890734354655,0.6151111125946045,1.2266192902459039
0.6780952215194702,1.0343665539877755,0.6113333106040955,1.2407748563554553
0.6800000071525574,1.021410885674613,0.5851110816001892,1.3163809176550971
0.686904788017273,1.012719796861921,0.6062222123146057,1.2449722144868638
0.6919999718666077,0.9913180894397554,0.6044444441795349,1.2510865113470289
0.6976666450500488,0.9823984638849894,0.6116666793823242,1.240620808177524
0.7005237936973572,0.9689281382787795,0.6077777743339539,1.2417728071212768
0.7074999809265137,0.9559981630416143,0.5962222218513489,1.2830893633100722
0.7108095288276672,0.9450322074663071,0.6114444732666016,1.2489596667819554
0.7113333344459534,0.9396636499223255,0.6086666584014893,1.2584315361446805
0.7183571457862854,0.9206144201641991,0.6133333444595337,1.2437017004224988
0.7215714454650879,0.9136995683397565,0.6032222509384155,1.2836890202628242
0.725523829460144,0.8980339028040568,0.6062222123146057,1.2755577782524956
0.7292380928993225,0.8894507107507614,0.6151111125946045,1.2628137545055813
0.7334047555923462,0.8818562173162188,0.6003333330154419,1.2863100355996027
0.7365238070487976,0.8707711713427589,0.613777756690979,1.257818256802029
0.739476203918457,0.8587290417353313,0.6119999885559082,1.2770081544452243
0.7437857389450073,0.8512852636745998,0.6067777872085571,1.300662861029307
0.7466428279876709,0.8385142730304173,0.6143333315849304,1.2846916649076674
0.7499285936355591,0.8289756666138058,0.6112222075462341,1.2813038073645697
0.7553809285163879,0.8206188196227664,0.6168888807296753,1.2680526395903693
0.7551666498184204,0.8130973824773516,0.6097777485847473,1.2964059725867378
0.7604285478591919,0.8015647676785786,0.6112222075462341,1.3161820387310452
0.7638571262359619,0.7908911634172712,0.6095555424690247,1.3037940630382963
0.7681190371513367,0.7807338138080778,0.6036666631698608,1.3230034209357369
0.7685238122940063,0.7739477141471136,0.6041111350059509,1.3240539731449552
0.7721428275108337,0.7677955428986323,0.6132222414016724,1.2948748644722832
0.7767142653465271,0.755972860517956,0.5983333587646484,1.3808075544569227
0.779452383518219,0.7492006021681286,0.6176666617393494,1.3081732296413846
0.7807618975639343,0.7373375813847496,0.613777756690979,1.3161198779212104
0.7867618799209595,0.7322053895450774,0.6115555763244629,1.3169682895872328
0.7866904735565186,0.7278722564833505,0.6152222156524658,1.3275844412909614
0.7914761900901794,0.7155999771981012,0.6157777905464172,1.3362413722144233
0.7915475964546204,0.7149446496282305,0.598111093044281,1.386028347015381
0.7963333129882812,0.700122358685448,0.5965555310249329,1.3745466306474474
0.7991190552711487,0.6947960748218355,0.6121110916137695,1.3666337169011433
0.7991666793823242,0.6891389858382089,0.6103333234786987,1.3902688224580553
0.8046904802322388,0.6758960013730185,0.6083333492279053,1.3677533355289035
0.8069999814033508,0.6720536068507603,0.6162222027778625,1.3506121260854933
0.8089761734008789,0.6658072192555382,0.6179999709129333,1.3915597711139256
0.8098571300506592,0.6589871575264704,0.605222225189209,1.4160577267540826
0.8125237822532654,0.6509573791594733,0.608222246170044,1.3842716236644321
0.8151666522026062,0.6518416834104629,0.6118888854980469,1.4231119215223524
0.8184285759925842,0.6380864782106309,0.6098889112472534,1.4059624577098422
0.8206190466880798,0.6322591757320223,0.6053333282470703,1.4394776095814175
0.8212618827819824,0.6267104924292791,0.6069999933242798,1.423455674595303
0.823452353477478,0.6210004554021926,0.5941110849380493,1.5050094944636028
0.8261428475379944,0.6153520983968462,0.6017777919769287,1.469525805897183
0.8293095231056213,0.6065486673286983,0.6024444699287415,1.4551222356160483
0.8314999938011169,0.6019929763703119,0.5931110978126526,1.5169626172383626
0.8332381248474121,0.5971652803193955,0.6051111221313477,1.4666870641708374
0.8329523801803589,0.5949453765891847,0.6144444346427917,1.4423908285564846
0.8359047770500183,0.587275216011774,0.596666693687439,1.5147131169637045
0.8379523754119873,0.5864677518435887,0.5899999737739563,1.5487310231526692
0.838785707950592,0.5788140954063052,0.612666666507721,1.4516209752824571
0.8396190404891968,0.5783975036598388,0.5983333587646484,1.5581654488245646
0.845880925655365,0.564681568917774,0.6079999804496765,1.493295336458418
0.8444761633872986,0.5643442707515898,0.6051111221313477,1.5007729615105523
0.8464999794960022,0.5595943830240341,0.5982221961021423,1.5793669131596884
0.8502380847930908,0.5473906049955459,0.6061111092567444,1.5219524286588033
0.8499523997306824,0.5476041802451724,0.6047777533531189,1.5404980084101358
0.8534523844718933,0.5411310464314052,0.6025555729866028,1.5474343706766764
0.8540714383125305,0.538722192923228,0.5994444489479065,1.5701156770918105
0.854190468788147,0.5330576924937112,0.6072221994400024,1.5437701134151882
0.8577380776405334,0.5269141182899475,0.6044444441795349,1.5567607709036932
0.8584523797035217,0.5240643177940731,0.5935555696487427,1.628214140150282
0.8629047870635986,0.5135510722909655,0.6037777662277222,1.567841843340132
0.8635476231575012,0.5130210284392039,0.6028888821601868,1.5930788458718195
0.8671904802322388,0.5014984886873336,0.6023333072662354,1.5665131651560464
0.864309549331665,0.5085225923515502,0.5917778015136719,1.6444883999294704
0.8661666512489319,0.5059759944961184,0.5998888611793518,1.5644481387668185
0.8660714030265808,0.5008371894132523,0.5967777967453003,1.6049982129202949
0.871999979019165,0.491489505756469,0.5876666903495789,1.6913250319163005
0.8698095083236694,0.4916450060889834,0.6069999933242798,1.566211645020379
0.8715952634811401,0.4882922148590996,0.5915555357933044,1.6438192425833809
0.8744523525238037,0.4784650968597049,0.5944444537162781,1.6777410954369438
