accuracy,loss,val_accuracy,val_loss
0.10949999839067459,2.3064947734106154,0.09577777981758118,2.296161396874322
0.12440475821495056,2.2850623715718585,0.11544444411993027,2.2876008593241375
0.15323808789253235,2.226422695159912,0.16744443774223328,2.188006152258979
0.1694047600030899,2.196122010912214,0.16855555772781372,2.184649849573771
0.1817142814397812,2.1778823746272495,0.19255556166172028,2.1577821871439617
0.19195237755775452,2.1611504254114062,0.218666672706604,2.1388233229319256
0.20804761350154877,2.139320468266805,0.2167777717113495,2.119089437484741
0.22045238316059113,2.119491572516305,0.20011110603809357,2.140477071126302
0.2321428507566452,2.1013438467298236,0.2513333261013031,2.0754944592581857
0.2398095279932022,2.081638245809646,0.2365555614233017,2.1020644109514026
0.24116666615009308,2.0695723092669533,0.25466665625572205,2.0551944410536023
0.24899999797344208,2.058088399705433,0.24844443798065186,2.0638934129079183
0.2534523904323578,2.0512714093980335,0.26688888669013977,2.043080201466878
0.2558809518814087,2.0413617952437626,0.2606666684150696,2.0389812021255493
0.25983333587646484,2.0340220476786297,0.27088889479637146,2.019986848301358
0.2657380998134613,2.0258615957895914,0.2746666669845581,2.0153030308617486
0.27057144045829773,2.0150879553840273,0.27033331990242004,2.019052007039388
0.2746904790401459,2.0078036147526332,0.2844444513320923,2.0005149313608803
0.277571439743042,1.9985419801076254,0.2736666798591614,2.00585636138916
0.28066667914390564,1.993085885365804,0.2912222146987915,1.9815708824793499
0.2863571345806122,1.983628163019816,0.29055556654930115,1.9812058998743693
0.2885476052761078,1.979724104472569,0.2879999876022339,1.9869093601438734
0.29397618770599365,1.97136559291113,0.29422223567962646,1.975760890536838
0.2969761788845062,1.9629976509639195,0.29777777194976807,1.9638917403750948
0.29892855882644653,1.9571563661666143,0.30088889598846436,1.9623580555386013
0.30304762721061707,1.9495311757950555,0.30344444513320923,1.9491746326022679
0.30628570914268494,1.9431294541586013,0.30977776646614075,1.9489932827419705
0.3085952401161194,1.9356772199358259,0.3051111102104187,1.9512038830651177
0.31247618794441223,1.9292724762871152,0.31122222542762756,1.9344375582800972
0.3150952458381653,1.9222818185261317,0.3054444491863251,1.9391868108113606
0.31826189160346985,1.9160871594746907,0.31111112236976624,1.9338353898790148
0.31816667318344116,1.909113759994507,0.3222222328186035,1.9089590067333646
0.3224285840988159,1.9013322200775147,0.32911109924316406,1.9027213554382325
0.32969048619270325,1.8956513842173985,0.3306666612625122,1.895882115258111
0.3287142813205719,1.8894167673928397,0.3243333399295807,1.8987708645926582
0.33064284920692444,1.8828670031683785,0.33033332228660583,1.9023164276546902
0.33547618985176086,1.8749345856621151,0.3378888964653015,1.8786724155214098
0.33799999952316284,1.8693784625643775,0.34200000762939453,1.8766410132514106
0.3401666581630707,1.8624016053336008,0.33977776765823364,1.8692046627468533
0.3398571312427521,1.8581352073124477,0.34111112356185913,1.864886988957723
0.3437618911266327,1.8495050389426095,0.34255555272102356,1.8669244357215034
0.3483095169067383,1.8421594930830456,0.34155556559562683,1.8591406328413222
0.34990477561950684,1.8356205577850342,0.3462222218513489,1.845615833706326
0.3526666760444641,1.8305343460809618,0.34522223472595215,1.843980707804362
0.3555237948894501,1.821994192759196,0.35055556893348694,1.8384239880243938
0.35904762148857117,1.8152584770747593,0.3472222089767456,1.8445478040907117
0.35992857813835144,1.8107793227604458,0.35055556893348694,1.8298989899953206
0.3636190593242645,1.8025853533971878,0.36122220754623413,1.8129817824893528
0.3651904761791229,1.7951941186814082,0.3647777736186981,1.8067454028659398
0.3681904673576355,1.7894349449702671,0.36399999260902405,1.803472634739346
0.3711428642272949,1.7820140089307512,0.36811110377311707,1.794043862660726
0.3723571300506592,1.7766427412487211,0.3659999966621399,1.7982760360505845
0.3709999918937683,1.7735918923786709,0.3717777729034424,1.7890257504781086
0.3764761984348297,1.7658654840560186,0.3661110997200012,1.7939904448191324
0.376880943775177,1.7619932723272413,0.3597777783870697,1.7996662928263347
0.3802618980407715,1.7568643762951806,0.3655555546283722,1.7945498839484322
0.38226190209388733,1.754030059678214,0.3682222366333008,1.7853172211117214
0.38230952620506287,1.7473047184717088,0.36844444274902344,1.7769833833906385
0.3843095302581787,1.7446036681674775,0.3804444372653961,1.7651628444459704
0.3836904764175415,1.7402485269364856,0.38011109828948975,1.7635932581159803
0.3875952363014221,1.735364841097877,0.38066667318344116,1.7545210703743828
0.38757142424583435,1.7320316232953752,0.37611111998558044,1.761403652826945
0.3892380893230438,1.7274737527938115,0.38011109828948975,1.763180267545912
0.39085713028907776,1.7251654400598435,0.38377776741981506,1.744086793475681
0.3897142708301544,1.72148241401854,0.38466668128967285,1.7479480351342096
0.3945237994194031,1.719427730015346,0.3795555531978607,1.7531096992492676
0.3937857151031494,1.7137850484848023,0.371444433927536,1.7738752088546752
0.39690476655960083,1.711808036577134,0.3757777810096741,1.7584082888497246
0.3969285786151886,1.70797306623913,0.38511112332344055,1.7493086297776963
0.3968571424484253,1.704791626430693,0.3852222263813019,1.74835573387146
0.39947620034217834,1.7024609087081182,0.3838889002799988,1.739558435651991
0.4000000059604645,1.6974358764375959,0.39144444465637207,1.7283572775522869
0.4028095304965973,1.6950093965530395,0.38511112332344055,1.7383099070654975
0.40221428871154785,1.6913521416073753,0.38499999046325684,1.736637142499288
0.40426191687583923,1.6893232201167516,0.3916666805744171,1.727181357489692
0.4047619104385376,1.6859604690188452,0.38677778840065,1.7285934749179417
0.40464285016059875,1.6825796012878418,0.3894444406032562,1.7238423375023735
0.4072619080543518,1.6797547987075079,0.39500001072883606,1.730665420744154
0.40721428394317627,1.677056418282645,0.3907777667045593,1.742118769115872
0.4086190462112427,1.6731874451410202,0.3902222216129303,1.7221466303931343
0.40888094902038574,1.671754361288888,0.39355555176734924,1.7189877802530924
0.4122619032859802,1.668936093057905,0.4018888771533966,1.7009963020748562
0.41114285588264465,1.6666900270552862,0.3925555646419525,1.7196269594828288
0.4138571321964264,1.6616744527362641,0.39944443106651306,1.7067335645887587
0.41514286398887634,1.6611170523507255,0.3987777829170227,1.7070267883936565
0.4185476303100586,1.6579470063164121,0.39677777886390686,1.7097100077735052
0.41504761576652527,1.6547916050411406,0.39800000190734863,1.712718225479126
0.4181666672229767,1.652830798330761,0.39800000190734863,1.703782886505127
0.4179047644138336,1.6503840061369397,0.40522223711013794,1.6941042154100205
0.42085713148117065,1.646476282165164,0.40566667914390564,1.6895407432980007
0.41911906003952026,1.64460082644508,0.4000000059604645,1.696210940361023
0.4206428527832031,1.643903042021252,0.4046666622161865,1.693178745481703
0.42335712909698486,1.6402861437570482,0.3995555639266968,1.7040517591900295
0.4221666753292084,1.636192103885469,0.4055555462837219,1.6788283856709798
0.4247142970561981,1.634851406642369,0.4091111123561859,1.6811536897023518
0.4254523813724518,1.6328071781340099,0.4055555462837219,1.676389931678772
0.4255714416503906,1.6296649300711497,0.4081111252307892,1.6822564317915174
0.4259999990463257,1.6275012639363606,0.40877777338027954,1.6757444383833144
0.42640477418899536,1.6260066622779483,0.4108888804912567,1.676088333023919
0.4271666705608368,1.6224336928413028,0.4090000092983246,1.67494978290134
