accuracy,loss,val_accuracy,val_loss
0.24361905455589294,2.046825673421224,0.3067777752876282,1.953092200279236
0.37552380561828613,1.7586707388105847,0.3982222080230713,1.6926167952219646
0.43354761600494385,1.6157352471124558,0.44155555963516235,1.5899360105726454
0.46111905574798584,1.5383411331176757,0.44466665387153625,1.559828808784485
0.4800476133823395,1.4817615230196999,0.4596666693687439,1.5260233946906197
0.5015000104904175,1.4269213655562627,0.47777777910232544,1.4897695426940918
0.5166190266609192,1.3785368140538534,0.47833332419395447,1.4619989600711398
0.5348333120346069,1.3317942534401304,0.48500001430511475,1.4773421157201132
0.5503095388412476,1.2858991882687523,0.4933333396911621,1.42268742412991
0.5654761791229248,1.2472359329405285,0.5046666860580444,1.3981004935370551
0.580047607421875,1.208668459937686,0.5063333511352539,1.4086148340437148
0.5933571457862854,1.172655038833618,0.5124444365501404,1.3847362613677978
0.6039524078369141,1.140458632628123,0.5206666588783264,1.353651669184367
0.6141190528869629,1.1084851643244424,0.5302222371101379,1.3567399876912436
0.6294999718666077,1.076712933449518,0.5210000276565552,1.3916662576463488
0.6406190395355225,1.0447353883357275,0.5301111340522766,1.3613650224473741
0.6504523754119873,1.0119484347842989,0.5394444465637207,1.3466093520058526
0.6626428365707397,0.9842538682392665,0.539555549621582,1.3542387952804567
0.6729999780654907,0.9511380461511157,0.5294444561004639,1.3793224278555976
0.6850000023841858,0.9195468180293128,0.5398889183998108,1.3555243666966756
0.6980476379394531,0.8892991003081913,0.5366666913032532,1.37324862353007
0.7092857360839844,0.8542638592038836,0.5364444255828857,1.4007406921386718
0.7211428284645081,0.8189459124292646,0.5374444723129272,1.4267611490885417
0.7352856993675232,0.7878710876192365,0.5383333563804626,1.4261699854532877
0.7456666827201843,0.7576109930674235,0.5352222323417664,1.4388399897681343
0.756761908531189,0.7250304917607988,0.5355555415153503,1.4638450960583158
0.7724523544311523,0.6890874446233114,0.5382221937179565,1.4688869161605835
0.7840238213539124,0.6574192602520897,0.531333327293396,1.505632745107015
0.7950476408004761,0.6235405731655302,0.5220000147819519,1.6029720306396484
0.8047142624855042,0.5932201384476253,0.5350000262260437,1.5424007902145385
0.8171190619468689,0.5608585568042028,0.532444417476654,1.5890371225145128
0.8327857255935669,0.523700416848773,0.5181111097335815,1.6729654848310682
0.8450475931167603,0.489598605121885,0.5253333449363708,1.6820330973731148
0.8563095331192017,0.4571598386537461,0.5286666750907898,1.7085995688968234
0.8677380681037903,0.42736250687780836,0.5304444432258606,1.74449228837755
0.8806904554367065,0.39361247063818433,0.5266666412353516,1.831498650656806
0.8902381062507629,0.3650395093418303,0.5271111130714417,1.8747800127665202
0.90240478515625,0.33090895135629744,0.5237777829170227,1.9153457317352296
0.9089047908782959,0.306646330061413,0.5255555510520935,1.987491860071818
0.9194285869598389,0.279986231920265,0.5113333463668823,2.1457000381681652
0.9295952320098877,0.2526413941383362,0.5222222208976746,2.138935373518202
0.9375476241111755,0.23028278773171562,0.5165555477142334,2.186108424080743
0.946309506893158,0.2027625108134179,0.5184444189071655,2.245992415746053
0.9526666402816772,0.18407271907726924,0.5163333415985107,2.3717277075449625
0.9617857336997986,0.15934463395958856,0.5108888745307922,2.438102066040039
0.9664999842643738,0.14374169981550602,0.504111111164093,2.607597949133979
0.9714523553848267,0.1273516933279378,0.5147777795791626,2.6221616679297552
0.9773571491241455,0.1073816699995881,0.5139999985694885,2.721366781870524
0.97945237159729,0.09735595322648684,0.5096666812896729,2.7547854936387806
0.9841428399085999,0.08334236055399691,0.5075555443763733,2.9881452895270453
0.9861428737640381,0.07434407643122333,0.5163333415985107,3.012859129163954
0.9879523515701294,0.06647786569240548,0.5088889002799988,3.029560768339369
0.989642858505249,0.05776713500207379,0.5125555396080017,3.1591428536309136
0.992809534072876,0.04757069510682708,0.5061110854148865,3.2924435823228624
0.9906904697418213,0.050189473816326685,0.5124444365501404,3.3587178024715847
0.9934285879135132,0.040402763345057054,0.5102221965789795,3.3497589893341067
0.9933809638023376,0.040738089547803,0.5063333511352539,3.517276617474026
0.9925952553749084,0.038353007606275025,0.5080000162124634,3.5279682949913873
0.9950000047683716,0.0305079812155593,0.5122222304344177,3.58012137942844
0.9908809661865234,0.03860723929816768,0.5121111273765564,3.581790995279948
0.9959999918937683,0.02499841849115633,0.5128889083862305,3.6932272618611655
0.991190493106842,0.035292004406274786,0.512333333492279,3.7202491573757595
0.9963809251785278,0.021494574944178262,0.5102221965789795,3.834594100104438
0.9915000200271606,0.034475437350925946,0.5108888745307922,3.90551939646403
0.9920952320098877,0.030729734015163213,0.5105555653572083,3.88798026614719
0.9962618947029114,0.020024255355731362,0.5022222399711609,4.010976443396674
0.9934999942779541,0.02713663445643726,0.5134444236755371,4.057979850769043
0.9922618865966797,0.02803566503507041,0.5067777633666992,4.0724483850267195
0.9942857027053833,0.024137004103688967,0.5011110901832581,4.033922259012858
0.9973333477973938,0.015955098369469244,0.5102221965789795,4.15992290157742
0.9932857155799866,0.026967184795953687,0.5133333206176758,4.19275145594279
0.9917142987251282,0.026809727514960937,0.4987777769565582,4.096080394744873
0.9993809461593628,0.008646539580697814,0.511888861656189,4.279599797566732
1.0,0.0029884999135420436,0.5108888745307922,4.398280668470594
0.9860237836837769,0.04897430128879136,0.5051110982894897,4.295318354712593
0.9998809695243835,0.004604709788846473,0.5098888874053955,4.421384037441678
0.9938571453094482,0.020076547241947126,0.5025555491447449,4.199213516659206
0.9927619099617004,0.026223690758326226,0.5083333253860474,4.418244618309869
0.9999762177467346,0.0028275486966595053,0.511222243309021,4.49698078113132
1.0,0.0018819289332521814,0.5103333592414856,4.594955051845974
0.9871904850006104,0.041053903693377615,0.5062222480773926,4.422896077050103
0.9959285855293274,0.018182393462973692,0.49533334374427795,4.595665303548177
0.9918333292007446,0.027790746226995473,0.5048888921737671,4.47339788945516
0.9980952143669128,0.009891947607132828,0.49355554580688477,4.456382124582927
0.9928809404373169,0.02516417472649898,0.5026666522026062,4.60282059902615
0.9946190714836121,0.01964931658792886,0.5093333125114441,4.600962876637777
0.9943809509277344,0.01868631993267419,0.4992222189903259,4.68869347720676
0.9980714321136475,0.010492347690010709,0.50855553150177,4.637549816131592
1.0,0.0016317281708498263,0.5122222304344177,4.793689193301731
1.0,0.0010895662382466808,0.5102221965789795,4.884315043979221
0.9897381067276001,0.033466167727041814,0.5062222480773926,4.72587780380249
0.9989285469055176,0.006137510113041139,0.5081111192703247,4.865997899373372
1.0,0.0013586090849823363,0.5137777924537659,4.896848638746474
0.9913095235824585,0.027908837947179563,0.5009999871253967,4.507838845147027
0.9955952167510986,0.016810881806759253,0.49388888478279114,4.898723361545139
0.9973333477973938,0.0111858606150906,0.4987777769565582,5.072699287414551
0.9975237846374512,0.010029130728804462,0.4806666672229767,5.511835639953613
0.9939285516738892,0.02014838390886074,0.5067777633666992,4.870404032813179
0.99314284324646,0.022255152456107593,0.5056666731834412,4.887193243662516
0.9950000047683716,0.017818024506204806,0.5019999742507935,4.7765438334147134
