accuracy,loss,val_accuracy,val_loss
0.3188571333885193,1.8921746045975458,0.38677778840065,1.7247347141901652
0.4339762032032013,1.6070290611812046,0.4481111168861389,1.577690881093343
0.4714285731315613,1.5051646111806234,0.4601111114025116,1.544084793302748
0.4991190433502197,1.4376311565580822,0.48144444823265076,1.475990449587504
0.5161904692649841,1.3838039038067773,0.48455554246902466,1.4687756102879843
0.5358809232711792,1.330593492916652,0.49122223258018494,1.4512012547387017
0.5539047718048096,1.2789895615804763,0.5067777633666992,1.4010406303405762
0.5760238170623779,1.2252549210502988,0.492000013589859,1.4606975127326118
0.5949285626411438,1.1728857186635335,0.5034444332122803,1.4148494525485569
0.6137619018554688,1.1204613681520734,0.5217777490615845,1.366085464477539
0.633809506893158,1.0674736975034078,0.5350000262260437,1.3347191897498236
0.651285707950592,1.0200805234909058,0.5422222018241882,1.3187575623194376
0.6690952181816101,0.9681047589892433,0.5338888764381409,1.353081693543328
0.6870952248573303,0.9201796489216032,0.554888904094696,1.3138362505171035
0.7050952315330505,0.8681996877534048,0.5503333210945129,1.3223463435702854
0.725261926651001,0.8189350958097549,0.5526666641235352,1.3296994915008544
0.7397142648696899,0.7725044574964615,0.5493333339691162,1.3439073452419705
0.7597380876541138,0.7222585099992298,0.5523333549499512,1.351022682401869
0.7746428847312927,0.6789284810338702,0.5509999990463257,1.3775346002578734
0.7941904664039612,0.6295507292520433,0.5450000166893005,1.4409865455627442
0.8127856850624084,0.578869864713578,0.5547778010368347,1.4035018646452162
0.8271190524101257,0.5352074673857008,0.5486666560173035,1.4343080988989936
0.8460952639579773,0.4886541049934569,0.5562222003936768,1.4722478833728367
0.8634047508239746,0.4430617287442798,0.5528888702392578,1.536929533428616
0.8776666522026062,0.40128205940836953,0.5514444708824158,1.5496009587181938
0.8923095464706421,0.36392018155256906,0.5477777719497681,1.638183865017361
0.9065238237380981,0.3200539757240386,0.550777792930603,1.6533642065260146
0.9234523773193359,0.27982370290302094,0.5376666784286499,1.7638527079688178
0.9351190328598022,0.24181991879145304,0.54666668176651,1.796985379430983
0.9444047808647156,0.21457916484560285,0.5398889183998108,1.9133334958818224
0.9572619199752808,0.17892081544228963,0.5405555367469788,1.9613531636132133
0.965071439743042,0.15323719307922182,0.5417777895927429,2.0478907699584963
0.9712857007980347,0.12997430835593315,0.5404444336891174,2.138387879477607
0.9777619242668152,0.11044969814731961,0.5472221970558167,2.2129515194363063
0.9848333597183228,0.08767282382647197,0.5377777814865112,2.3433001352945966
0.9867380857467651,0.07509923483928045,0.5331110954284668,2.452114668528239
0.989547610282898,0.06411690735249292,0.5365555286407471,2.5448512666490344
0.9927142858505249,0.052464378224242304,0.5367777943611145,2.6964048444959854
0.9919285774230957,0.04873051014613537,0.5332221984863281,2.7429533394707573
0.9948095083236694,0.03797268997984273,0.5378888845443726,2.790256836361355
0.991357147693634,0.04210007248641479,0.5321111083030701,2.8334044871860082
0.9977381229400635,0.024224453185463235,0.5350000262260437,3.0004381116231285
0.9921666383743286,0.03585269393700929,0.5355555415153503,2.9746506837209066
0.9937857389450073,0.03094186764707168,0.5291110873222351,3.046935434553358
0.9966190457344055,0.023446286139921065,0.5356666445732117,3.1524235379960803
0.9935476183891296,0.027043552800303412,0.5352222323417664,3.2175261103312174
0.9975476264953613,0.01795712463877031,0.5413333177566528,3.2775500988430446
0.9943809509277344,0.024716177116547312,0.5356666445732117,3.321633715523614
0.9927142858505249,0.029279951524078137,0.5400000214576721,3.2923805321587456
0.9990000128746033,0.011031247179334363,0.5394444465637207,3.468444190555149
0.9926905035972595,0.028623670386904408,0.5237777829170227,3.5256101902855765
0.9930952191352844,0.02492242605873339,0.5361111164093018,3.477514937294854
0.9995952248573303,0.00670147042446548,0.5345555543899536,3.568301201502482
0.9896666407585144,0.032872593651880465,0.5281111001968384,3.5753971705966525
0.9959523677825928,0.01840679252777426,0.5322222113609314,3.47748372247484
0.9942857027053833,0.02062986296273413,0.5320000052452087,3.496923625946045
0.9976904988288879,0.013357280073066552,0.5355555415153503,3.6310086525811087
0.9939285516738892,0.021150169255389345,0.5251111388206482,3.7701106016370987
0.9941428303718567,0.021958385857088224,0.5358889102935791,3.7215101335313583
0.9999523758888245,0.002791891328602408,0.5391111373901367,3.7688706567552352
1.0,0.0012899899349015738,0.5404444336891174,3.869688597785102
0.9900714159011841,0.03318716529120935,0.5337777733802795,3.61259092119005
0.9996190667152405,0.005671135926530475,0.5376666784286499,3.83895706515842
1.0,0.0014140442021501561,0.5403333306312561,3.9316607326931425
1.0,0.0008591193353114207,0.5376666784286499,4.052616202460395
0.996738076210022,0.011700607830392463,0.4677777886390686,4.221210995568169
0.9906428456306458,0.03303625503719031,0.5361111164093018,3.829406404707167
0.9994761943817139,0.003927533770246165,0.538777768611908,3.984964852227105
1.0,0.0009017364204018599,0.5415555834770203,4.099289247724745
1.0,0.0006051496390552659,0.5402222275733948,4.200870012071397
0.9922381043434143,0.028301161254401363,0.5344444513320923,3.7878240742153593
0.9966904520988464,0.012190445519174404,0.5370000004768372,4.0638612547980415
0.9931904673576355,0.021666724450171128,0.5405555367469788,3.941855978224013
0.9964761734008789,0.012332460229240713,0.5146666765213013,3.9835662983788382
0.99528568983078,0.017878621918659302,0.5385555624961853,4.057224369896783
0.9999285936355591,0.0022022415724128395,0.5385555624961853,4.154586061265734
1.0,0.000658733860251405,0.5411111116409302,4.225798908233642
1.0,0.00044508137535359267,0.5416666865348816,4.321292979770236
1.0,0.0003432736424784664,0.5421110987663269,4.407152969784207
0.9919285774230957,0.026828513200910363,0.5333333611488342,4.191097617255317
0.9990000128746033,0.00545297900062897,0.528333306312561,4.490658321804471
0.9929285645484924,0.02360144129258004,0.5381110906600952,4.214546998341878
1.0,0.0010164370866703046,0.5393333435058594,4.344778502994114
1.0,0.00044388430609112783,0.5424444675445557,4.420567828708225
1.0,0.00031381728666296803,0.5437777638435364,4.498006988525391
1.0,0.00023203710446389214,0.5435555577278137,4.581571091969808
0.9904761910438538,0.03664962136397038,0.5318889021873474,4.116552493413289
0.9952619075775146,0.016100801455755053,0.5316666960716248,4.3386821314493815
0.9980238080024719,0.007525775722139293,0.532444417476654,4.403707880232069
0.995119035243988,0.01609043846251665,0.5312222242355347,4.259365386539035
0.9955714344978333,0.01477984850149646,0.5334444642066956,4.236685198677911
0.9989047646522522,0.004408956421924467,0.5117777585983276,4.500571928236219
0.9935238361358643,0.02035753470393164,0.5325555801391602,4.28015333726671
0.9975000023841858,0.00990457928685161,0.527222216129303,4.1943078727722165
0.9948333501815796,0.017162437478601487,0.5311111211776733,4.204552408430311
0.9955000281333923,0.015237233269649247,0.5312222242355347,4.292086054695977
0.9977381229400635,0.008187032230558717,0.5299999713897705,4.466092935562134
0.9970238208770752,0.011419942379308243,0.5258888602256775,4.598481771681044
0.9955475926399231,0.016344655128539585,0.5326666831970215,4.4535788078308105
0.996238112449646,0.012599814399267502,0.5336666703224182,4.389353461795383
