accuracy,loss,val_accuracy,val_loss
0.3230714201927185,1.883783541452317,0.3668888807296753,1.7445910570356582
0.41004762053489685,1.659953650974092,0.4358888864517212,1.6011856724421183
0.4486428499221802,1.5509582477751231,0.4467777907848358,1.5434569963879055
0.48054760694503784,1.473732064701262,0.45633333921432495,1.5301965825822619
0.49988093972206116,1.4127441349937802,0.4950000047683716,1.424128314230177
0.5185952186584473,1.3589698246093023,0.500333309173584,1.4133088963826497
0.5354285836219788,1.3125041494369507,0.512666642665863,1.3702627081341214
0.551809549331665,1.2708441207068306,0.5237777829170227,1.3424845442242093
0.5675238370895386,1.2330084460122244,0.5282222032546997,1.343238299369812
0.5805237889289856,1.1983024255207606,0.5426666736602783,1.3100679297977023
0.5910476446151733,1.1653655218850998,0.535111129283905,1.3121470111211142
0.6036428809165955,1.1314495795794897,0.5491111278533936,1.2706480182011923
0.6164523959159851,1.1000744014467512,0.5590000152587891,1.259586992263794
0.6276428699493408,1.0698306318010602,0.5527777671813965,1.2685980955229865
0.6377618908882141,1.040448005312965,0.5653333067893982,1.2457600931061639
0.6500952243804932,1.0103342613038562,0.5658888816833496,1.2490338421927558
0.6584047675132751,0.9822783688363574,0.5651111006736755,1.2368113114039103
0.6692619323730469,0.9547167029380799,0.5673333406448364,1.23809106265174
0.680571436882019,0.9230259080387297,0.5721111297607422,1.2427601226170857
0.6893571615219116,0.8954045973278227,0.566777765750885,1.2514921992090013
0.7030714154243469,0.8669552528063457,0.5635555386543274,1.2607065842416552
0.7119285464286804,0.8391151428222656,0.5665555596351624,1.276209760983785
0.7239047884941101,0.8120907697677612,0.5696666836738586,1.2463871216244167
0.7334761619567871,0.7843258410635449,0.5763333439826965,1.2569850763214958
0.7454524040222168,0.7547177005268279,0.5711110830307007,1.2709228116671245
0.7531904578208923,0.7285964378856478,0.5751110911369324,1.2681281411382888
0.7642381191253662,0.7006107461566017,0.5771111249923706,1.2708864232699075
0.7738571166992188,0.672069570972806,0.5770000219345093,1.2890248282220629
0.78509521484375,0.6446239525022961,0.5726666450500488,1.3056417047712539
0.7963333129882812,0.6155916245210739,0.5746666789054871,1.3291180920071073
0.8063333630561829,0.5882986799194699,0.5737777948379517,1.3407910389370388
0.8169999718666077,0.5627633818785349,0.5778889060020447,1.3452487256262038
0.8251428604125977,0.5371980893725441,0.5752221941947937,1.3577468247148725
0.8360952138900757,0.5092754267170315,0.5745555758476257,1.3894639269510904
0.8464047908782959,0.4822014420543398,0.5693333148956299,1.4182474791473814
0.8547857403755188,0.45964405249981655,0.5771111249923706,1.430055275413725
0.8639523983001709,0.43332998481250945,0.5741111040115356,1.4688930489752028
0.8725476264953613,0.4101512928122566,0.565666675567627,1.5114913783338335
0.8807142972946167,0.3851678365639278,0.5644444227218628,1.51121337779363
0.8895714282989502,0.3643501828965687,0.565666675567627,1.5463517370223998
0.8990476131439209,0.3397933394795372,0.5635555386543274,1.5799300117492676
0.9063095450401306,0.3186246107021968,0.5648888945579529,1.62386280825403
0.9160714149475098,0.29593598234653473,0.5529999732971191,1.7021938724517822
0.9227380752563477,0.27451705720027286,0.558222234249115,1.6977356748580932
0.9303571581840515,0.25580576649166287,0.5575555562973022,1.7623788431220584
0.9360952377319336,0.23601860737516767,0.5577777624130249,1.8226495744387308
0.9418095350265503,0.22028504246189481,0.5607777833938599,1.8484987284872267
0.9495000243186951,0.20155751019716261,0.5565555691719055,1.9205906698173947
0.9545000195503235,0.185199701380162,0.5505555272102356,1.9722944498591952
0.9606904983520508,0.16740929386729286,0.5495555400848389,2.010349706437853
0.9636190533638,0.15326560229630698,0.5484444499015808,2.0414883250395457
0.970214307308197,0.13796976524733362,0.5535555481910706,2.0951600240336523
0.9720714092254639,0.12835052408207032,0.5536666512489319,2.159156437953313
0.9749047756195068,0.11795069966429755,0.5514444708824158,2.2349605215390524
0.9788333177566528,0.10394295951298305,0.5495555400848389,2.291231831736035
0.9821666479110718,0.09387446570822171,0.5536666512489319,2.3374619336658053
0.9847857356071472,0.0844194746258713,0.5473333597183228,2.4270820755958558
0.9870714545249939,0.07780788342725663,0.5483333468437195,2.4811297269132404
0.9887381196022034,0.06982520193642094,0.5473333597183228,2.557233524825838
0.9888571500778198,0.06571056406412806,0.5411111116409302,2.6063665311601425
0.9922618865966797,0.055152162891768275,0.5522222518920898,2.6453643395106
0.9911428689956665,0.05444861167811212,0.5391111373901367,2.7325265780819787
0.993071436882019,0.046563967812628976,0.5414444208145142,2.8397285442617206
0.993571400642395,0.0438541409625184,0.5494444370269775,2.853071063624488
0.9942142963409424,0.040710588178464346,0.5426666736602783,2.8885914301342432
0.995023787021637,0.03524380350219352,0.5485555529594421,2.9337371716499328
0.994357168674469,0.036552614540216466,0.5450000166893005,2.999816701253255
0.9955238103866577,0.029811451544364292,0.5487777590751648,3.063969600889418
0.9971904754638672,0.025622068923498904,0.5463333129882812,3.144937282562256
0.9963809251785278,0.02639228957660851,0.5527777671813965,3.1982023181915284
0.9928809404373169,0.03363168793171644,0.550000011920929,3.2165961365699767
0.9982619285583496,0.017641611636039757,0.5532222390174866,3.255768539322747
0.993404746055603,0.02878671032553982,0.5429999828338623,3.3025486471123164
0.9980952143669128,0.017545633137314803,0.5471110939979553,3.3273382052845424
0.994857132434845,0.025365664126351474,0.5474444627761841,3.367494696299235
0.9964761734008789,0.02016827990345302,0.5458889007568359,3.3902256673177082
0.9980238080024719,0.014704043991420241,0.5415555834770203,3.478632997830709
0.993238091468811,0.029176248255407527,0.5509999990463257,3.445759981367323
0.9991904497146606,0.008733039290333788,0.5440000295639038,3.6168223446740044
0.9962857365608215,0.019490940086366166,0.5437777638435364,3.6036366617679594
0.9957143068313599,0.02147655192638437,0.5440000295639038,3.6110439242257013
0.9996428489685059,0.0076962861646454606,0.54666668176651,3.63481054019928
0.9922618865966797,0.028649956208210262,0.5486666560173035,3.5830562923219467
0.999833345413208,0.00639923573294211,0.5486666560173035,3.6923467627631292
0.9932619333267212,0.022863529413140245,0.5270000100135803,3.7549610330793595
0.996833324432373,0.016274482211674608,0.5492222309112549,3.7653986806869506
0.9950000047683716,0.020090421034333606,0.5461111068725586,3.728534045325385
0.9997380971908569,0.00599882118390607,0.5517777800559998,3.7950420469707913
0.9994285702705383,0.004746026126845252,0.527222216129303,4.123971439997355
0.9921428561210632,0.02885648051099408,0.5492222309112549,3.795061364809672
1.0,0.0028865675439703324,0.5474444627761841,3.874726910273234
0.9922142624855042,0.026848783265045355,0.5388888716697693,3.881345749060313
0.9983095526695251,0.010625156530933011,0.5438888669013977,3.929192915757497
0.9951905012130737,0.01644203295716129,0.5405555367469788,3.859658940103319
0.9989761710166931,0.008271187139054139,0.5445555448532104,3.982792134814792
1.0,0.0022618185225208956,0.5478888750076294,4.010192956182692
0.9906190633773804,0.03334984283648165,0.5443333387374878,3.8904400150511
0.9997380971908569,0.005236163538836298,0.5483333468437195,3.984578552511003
0.9999762177467346,0.0020279161549572435,0.5415555834770203,4.097011409123739
0.9925952553749084,0.026130825156612057,0.5457777976989746,4.043896807352702
