accuracy,loss,val_accuracy,val_loss
0.2519523799419403,2.044876610528855,0.2944444417953491,1.9347907189263238
0.3424285650253296,1.8484961892082579,0.35722222924232483,1.7990154894722832
0.37738096714019775,1.749876119931539,0.3872222304344177,1.7154686959584553
0.4043571352958679,1.6734097660609655,0.4036666750907898,1.6664946491453383
0.4247381091117859,1.619628125281561,0.4148888885974884,1.6407402267456055
0.4387618899345398,1.5759308887663341,0.43122223019599915,1.5899325128131443
0.44976189732551575,1.5424726618812197,0.4444444477558136,1.5690322085486519
0.46126189827919006,1.511294503166562,0.4624444544315338,1.5267735427220663
0.4736190438270569,1.4854725441705612,0.44999998807907104,1.56134209590488
0.4849523901939392,1.4523466263725644,0.46533334255218506,1.4991831393771702
0.49157142639160156,1.4261407943453108,0.4729999899864197,1.4867790881262886
0.5018333196640015,1.4004081470852807,0.4866666793823242,1.4499191238615248
0.5126428604125977,1.3730283846628097,0.49344444274902344,1.4214188377592298
0.5252618789672852,1.3444724573861986,0.4779999852180481,1.48286889245775
0.5308095216751099,1.3228690869921729,0.4781111180782318,1.4490798391766018
0.5396666526794434,1.2980193734850203,0.5083333253860474,1.3813071127997505
0.5471904873847961,1.2796555810655867,0.5036666393280029,1.3871511219872368
0.5581666827201843,1.253161988349188,0.5040000081062317,1.3703577229181925
0.5631666779518127,1.236991278330485,0.507777750492096,1.3709723837110732
0.5703809261322021,1.2177410677047003,0.503777801990509,1.4044707513385348
0.5768095254898071,1.1972120092482794,0.5221111178398132,1.3280072112613255
0.5832381248474121,1.1852876565115793,0.5244444608688354,1.3267135142220392
0.5911666750907898,1.1617074406941732,0.5205555558204651,1.3348724590407477
0.5967381000518799,1.1419196530523754,0.523888885974884,1.3402471800380282
0.6027143001556396,1.1264099751654126,0.5316666960716248,1.3146623417536418
0.6094762086868286,1.1126161687487648,0.5317777991294861,1.320746966044108
0.6156190633773804,1.0977895017351422,0.5327777862548828,1.3186355470021567
0.6214523911476135,1.0804195048468455,0.5305555462837219,1.316162879202101
0.6266904473304749,1.0646530596869332,0.5355555415153503,1.3178361607657538
0.6335952281951904,1.0446773687544324,0.5226666927337646,1.3517819437450833
0.6374523639678955,1.0327828675678798,0.5328888893127441,1.313872204568651
0.6423095464706421,1.0170771617208207,0.535444438457489,1.3171317863464356
0.6490238308906555,1.0017721201124645,0.5411111116409302,1.3079591552416483
0.6569761633872986,0.9836472671599615,0.5355555415153503,1.3461694948408338
0.6614999771118164,0.9724728161948067,0.5421110987663269,1.3078588393529256
0.6679999828338623,0.9540203138533093,0.5433333516120911,1.3062636381785075
0.6713809370994568,0.9392081378982181,0.5422222018241882,1.3183062555525038
0.6773809790611267,0.9203901853334336,0.534333348274231,1.3619086339738633
0.6848333477973938,0.9052689046405611,0.5444444417953491,1.332819241947598
0.687833309173584,0.8939005481175014,0.5490000247955322,1.3178077896965874
0.6947619318962097,0.8724670489629109,0.5485555529594421,1.3303936961491902
0.6989047527313232,0.8603490207990011,0.5400000214576721,1.3668289226426018
0.7067381143569946,0.8426670687085106,0.5394444465637207,1.3577282535764905
0.71147620677948,0.8287998011225746,0.5512222051620483,1.344565788798862
0.7183809280395508,0.8098011599268232,0.5519999861717224,1.344194611761305
0.7269999980926514,0.7936824731372651,0.5412222146987915,1.3900379153357612
0.7318809628486633,0.7774241902033487,0.551111102104187,1.360532040172153
0.7359762191772461,0.7626278898375375,0.5388888716697693,1.39902842564053
0.7415952086448669,0.7476164682933263,0.5468888878822327,1.4159203414916992
0.7491428852081299,0.7298227554957072,0.5463333129882812,1.4155517925686307
0.7578095197677612,0.7094818736939204,0.5504444241523743,1.4119717705514696
0.7618809342384338,0.6948534394218808,0.542555570602417,1.4423414262135823
0.7655476331710815,0.6798168646721613,0.5444444417953491,1.466311208989885
0.7731904983520508,0.662138704481579,0.5429999828338623,1.515625306924184
0.7807857394218445,0.6451903874987648,0.5452222228050232,1.4943404593997531
0.7844047546386719,0.6304553138869149,0.5490000247955322,1.5077563116285535
0.7909285426139832,0.6144486856119973,0.5375555753707886,1.5471138685014514
0.7976190447807312,0.5959611681756519,0.5441111326217651,1.5566456924014622
0.8030952215194702,0.5802738676525298,0.5485555529594421,1.535836345990499
0.812333345413208,0.5578379085631597,0.5401111245155334,1.6091426799562243
0.8156428337097168,0.546552872146879,0.5473333597183228,1.6042366948657565
0.8242142796516418,0.5270064230305808,0.5437777638435364,1.6387602973514133
0.8290952444076538,0.509692283709844,0.5365555286407471,1.703956118795607
0.8360952138900757,0.4960639037631807,0.5363333225250244,1.7310534616046482
0.8412619233131409,0.48018561854816616,0.5412222146987915,1.716041885693868
0.8471666574478149,0.4584156508786338,0.538777768611908,1.748144696765476
0.8541428446769714,0.44320974173999966,0.5296666622161865,1.8267532618840536
0.8571428656578064,0.43161969150815693,0.5376666784286499,1.8101955591837564
0.8666428327560425,0.4089841830276308,0.5352222323417664,1.8345747646755641
0.8710952401161194,0.3963649687994094,0.5294444561004639,1.8795909646352131
0.8771190643310547,0.3785009535380772,0.5265555381774902,1.9342057786517672
0.8831428289413452,0.36245710651079815,0.5293333530426025,1.9977414436340333
0.8874523639678955,0.3508623990671975,0.5293333530426025,2.0143809889687434
0.8956190347671509,0.3316038889203753,0.5258888602256775,2.0836055805418225
0.9008809328079224,0.3160155943461827,0.5332221984863281,2.0945578617519804
0.9026904702186584,0.3064630652552559,0.5331110954284668,2.137325484911601
0.9108571410179138,0.28911121719791777,0.5208888649940491,2.2554503909216987
0.9135476350784302,0.2790270091295242,0.5329999923706055,2.23014275042216
0.9176666736602783,0.26494564067182086,0.5255555510520935,2.2814807834625244
0.9226904511451721,0.25124403192599615,0.5249999761581421,2.3402320924335056
0.9252856969833374,0.24376942819356917,0.5274444222450256,2.362065254211426
0.9334999918937683,0.2233211989743369,0.5255555510520935,2.4454775322808158
0.9375237822532654,0.21167545285962877,0.5265555381774902,2.4656035891638863
0.9402142763137817,0.20257832316557567,0.5234444737434387,2.4906290861765545
0.944595217704773,0.1924778637658982,0.5252222418785095,2.5974738784366185
0.9502381086349487,0.17727188364664714,0.5262222290039062,2.6482345665825737
0.9506666660308838,0.1710298343953632,0.5243333578109741,2.69596404838562
0.9545238018035889,0.15911061604817708,0.5248888731002808,2.7290612689124214
0.9567142724990845,0.1507908524104527,0.5187777876853943,2.783627467473348
0.9581905007362366,0.14430178583094053,0.5210000276565552,2.84813051393297
0.963190495967865,0.13159336658318838,0.5206666588783264,2.921566699557834
0.9670476317405701,0.12587660189611571,0.5235555768013,3.041991801791721
0.9673571586608887,0.11869813751464799,0.5189999938011169,3.1128027415805395
0.9700238108634949,0.11320178429534038,0.5205555558204651,3.1483163948059083
0.970714271068573,0.10770985476601691,0.5230000019073486,3.1977182706197103
0.9728809595108032,0.10286470334586643,0.5151110887527466,3.269368778652615
0.9759761691093445,0.09400556000996203,0.5203333497047424,3.3562382644017537
0.9752143025398254,0.0914771150747935,0.5099999904632568,3.4479485727945964
0.9766666889190674,0.08627037590954985,0.518666684627533,3.4403002349005805
0.980904757976532,0.07774480591643425,0.5131111145019531,3.5839444048139786
