epoch,scaling,scale,wavelength,sigma
0.0,1.0,1.0,1.0,0.33000001311302185
1.0,1.0109037160873413,1.0159459114074707,1.010868787765503,0.3197288513183594
2.0,1.0107282400131226,1.014822006225586,1.0107064247131348,0.3179841935634613
3.0,1.0056077241897583,1.0099154710769653,1.0055824518203735,0.3236157298088074
4.0,1.0104037523269653,1.0139225721359253,1.0103824138641357,0.3183867931365967
5.0,1.007901906967163,1.0107345581054688,1.007886290550232,0.322858601808548
6.0,1.0078765153884888,1.0103716850280762,1.0078630447387695,0.3240264654159546
7.0,1.008547067642212,1.010583519935608,1.0085357427597046,0.3237403631210327
8.0,1.0123891830444336,1.0143259763717651,1.0123827457427979,0.3208303451538086
9.0,1.0128916501998901,1.0146222114562988,1.0128880739212036,0.31999731063842773
10.0,1.0105640888214111,1.0121077299118042,1.0105624198913574,0.3212957978248596
11.0,1.0145010948181152,1.0156689882278442,1.014503836631775,0.318384051322937
12.0,1.0138729810714722,1.0145409107208252,1.0138819217681885,0.3200821876525879
13.0,1.012892246246338,1.0130128860473633,1.0129098892211914,0.3205598294734955
14.0,1.013595461845398,1.0134700536727905,1.0136173963546753,0.31940972805023193
15.0,1.0132137537002563,1.0127286911010742,1.0132414102554321,0.31945106387138367
16.0,1.0141505002975464,1.0133568048477173,1.0141816139221191,0.3181320130825043
17.0,1.0125535726547241,1.0113286972045898,1.0125888586044312,0.31835320591926575
18.0,1.0138211250305176,1.012071132659912,1.013863205909729,0.3183012306690216
19.0,1.012648344039917,1.0104209184646606,1.0126965045928955,0.3185693919658661
20.0,1.012235164642334,1.0095255374908447,1.0122871398925781,0.3181471526622772
21.0,1.0104832649230957,1.0073745250701904,1.0105406045913696,0.31992265582084656
22.0,1.0123920440673828,1.0085856914520264,1.0124584436416626,0.3177741467952728
23.0,1.011297345161438,1.0072760581970215,1.0113654136657715,0.3180884122848511
24.0,1.0123252868652344,1.0080422163009644,1.0123982429504395,0.31836044788360596
25.0,1.0126489400863647,1.007971167564392,1.0127277374267578,0.3183123469352722
26.0,1.0106027126312256,1.0054404735565186,1.0106852054595947,0.3193345069885254
27.0,1.0128302574157715,1.0071148872375488,1.0129203796386719,0.31776490807533264
28.0,1.009678840637207,1.0036625862121582,1.0097718238830566,0.3184153139591217
29.0,1.0107927322387695,1.00403892993927,1.0108944177627563,0.3179895877838135
30.0,1.011389970779419,1.0040689706802368,1.0114964246749878,0.3173525631427765
31.0,1.0102890729904175,1.0025320053100586,1.010399580001831,0.31830424070358276
32.0,1.011605978012085,1.003229022026062,1.011722445487976,0.3163380026817322
33.0,1.0103845596313477,1.001437783241272,1.0105048418045044,0.31693533062934875
34.0,1.0106725692749023,1.0013347864151,1.010796070098877,0.3169308006763458
35.0,1.0078884363174438,0.9981130361557007,1.0080152750015259,0.31881678104400635
36.0,1.0091254711151123,0.9986284971237183,1.0092618465423584,0.31807345151901245
37.0,1.0088173151016235,0.9976991415023804,1.0089579820632935,0.31724247336387634
38.0,1.007912039756775,0.9961848855018616,1.0080578327178955,0.317690908908844
39.0,1.008427381515503,0.9958791136741638,1.0085806846618652,0.31786027550697327
40.0,1.0101145505905151,0.9964826703071594,1.0102773904800415,0.31709885597229004
41.0,1.0080004930496216,0.994091272354126,1.008164644241333,0.3186742067337036
42.0,1.0093872547149658,0.9949691295623779,1.0095572471618652,0.31796377897262573
43.0,1.0096156597137451,0.9946047067642212,1.009787678718567,0.3169187307357788
44.0,1.0078120231628418,0.9921585917472839,1.0079891681671143,0.31820759177207947
45.0,1.00759756565094,0.9911475777626038,1.0077786445617676,0.3171175718307495
46.0,1.005671501159668,0.988720715045929,1.0058534145355225,0.31756308674812317
47.0,1.0061829090118408,0.9884424209594727,1.006371021270752,0.3173963129520416
48.0,1.0072317123413086,0.9885314702987671,1.0074259042739868,0.3169153332710266
49.0,1.0068389177322388,0.9871665239334106,1.0070394277572632,0.31713050603866577
50.0,1.0075430870056152,0.9870487451553345,1.0077491998672485,0.31723925471305847
51.0,1.006973147392273,0.9855172634124756,1.007186770439148,0.31676971912384033
52.0,1.005517840385437,0.9832730889320374,1.0057348012924194,0.3184465765953064
53.0,1.0052080154418945,0.9820294380187988,1.0054305791854858,0.3170003294944763
54.0,1.0044817924499512,0.9801257848739624,1.0047107934951782,0.3190597593784332
55.0,1.0066453218460083,0.9814911484718323,1.0068804025650024,0.31762033700942993
56.0,1.0068564414978027,0.9809229969978333,1.007097840309143,0.31714779138565063
57.0,1.0075327157974243,0.9806927442550659,1.0077790021896362,0.3174971044063568
58.0,1.0073879957199097,0.9797718524932861,1.0076420307159424,0.31723088026046753
59.0,1.006745457649231,0.9785377979278564,1.0070048570632935,0.31629982590675354
60.0,1.0065419673919678,0.9774225950241089,1.0068072080612183,0.31713518500328064
61.0,1.0055146217346191,0.97560054063797,1.005783200263977,0.31670212745666504
62.0,1.0068084001541138,0.9758532047271729,1.0070830583572388,0.3169301152229309
63.0,1.0065743923187256,0.9745988845825195,1.0068556070327759,0.31753072142601013
64.0,1.004882574081421,0.9720896482467651,1.0051677227020264,0.31745022535324097
65.0,1.0053616762161255,0.9717174172401428,1.0056514739990234,0.3176572024822235
66.0,1.0055818557739258,0.9710967540740967,1.0058767795562744,0.31655558943748474
67.0,1.0050750970840454,0.9696893095970154,1.0053740739822388,0.316670686006546
68.0,1.0045462846755981,0.9682466387748718,1.0048497915267944,0.31769508123397827
69.0,1.006201148033142,0.9688085913658142,1.006510853767395,0.31622302532196045
70.0,1.0064640045166016,0.9679179787635803,1.0067802667617798,0.3158029615879059
71.0,1.0044734477996826,0.9648507237434387,1.004791498184204,0.3164345622062683
72.0,1.0058029890060425,0.9649045467376709,1.006128191947937,0.31626981496810913
73.0,1.00502347946167,0.9628361463546753,1.005355715751648,0.3171030879020691
74.0,1.0060205459594727,0.9628205895423889,1.006359338760376,0.3170490562915802
75.0,1.0060703754425049,0.961664617061615,1.0064133405685425,0.31640511751174927
76.0,1.0052597522735596,0.9604167342185974,1.0056034326553345,0.31728142499923706
77.0,1.0060397386550903,0.9603530764579773,1.0063879489898682,0.3167663514614105
78.0,1.0059069395065308,0.9590773582458496,1.006260871887207,0.31695234775543213
79.0,1.0064057111740112,0.9585440158843994,1.0067710876464844,0.3171045482158661
80.0,1.0060919523239136,0.9578661322593689,1.0064600706100464,0.3166608214378357
81.0,1.0076161623001099,0.9587641954421997,1.00798761844635,0.3170686662197113
82.0,1.0070815086364746,0.957427442073822,1.0074576139450073,0.3168897330760956
83.0,1.006542444229126,0.9561242461204529,1.0069212913513184,0.3160622715950012
84.0,1.006579041481018,0.9554523825645447,1.0069632530212402,0.3164661228656769
85.0,1.0057885646820068,0.9538946151733398,1.0061771869659424,0.3166993260383606
86.0,1.0058088302612305,0.952863872051239,1.006203293800354,0.31681546568870544
87.0,1.0068291425704956,0.9528846144676208,1.0072304010391235,0.31604495644569397
88.0,1.0060677528381348,0.9510459303855896,1.0064777135849,0.3158288896083832
89.0,1.00505793094635,0.9489392638206482,1.0054740905761719,0.3167322278022766
90.0,1.0052064657211304,0.9475389719009399,1.005629062652588,0.3164460062980652
91.0,1.005405068397522,0.9469789266586304,1.0058311223983765,0.3169415295124054
92.0,1.0040196180343628,0.9447808861732483,1.0044482946395874,0.316449373960495
93.0,1.004677176475525,0.9433262944221497,1.0051168203353882,0.3169310688972473
94.0,1.0034960508346558,0.9413945078849792,1.0039390325546265,0.3172166049480438
95.0,1.0047754049301147,0.9417480230331421,1.005224347114563,0.3173864483833313
96.0,1.0047297477722168,0.9407661557197571,1.0051850080490112,0.3172987699508667
97.0,1.0043771266937256,0.9395509362220764,1.0048346519470215,0.3166249096393585
98.0,1.004671335220337,0.9385965466499329,1.0051358938217163,0.3167795240879059
99.0,1.0048811435699463,0.9373728632926941,1.005355715751648,0.31701499223709106
100.0,1.0046507120132446,0.9361898899078369,1.0051298141479492,0.3163731098175049
