epoch,scaling,scale,wavelength,sigma
0.0,1.0,1.0,1.0,0.33000001311302185
1.0,1.0384900569915771,1.0512629747390747,1.0382535457611084,0.28866007924079895
2.0,1.0409700870513916,1.0535482168197632,1.040743350982666,0.2855871915817261
3.0,1.0415111780166626,1.054010272026062,1.0412871837615967,0.28561607003211975
4.0,1.0411062240600586,1.0534753799438477,1.0408869981765747,0.28481724858283997
5.0,1.0391061305999756,1.0513825416564941,1.038892149925232,0.28582045435905457
6.0,1.0413199663162231,1.0534371137619019,1.0411131381988525,0.2834537625312805
7.0,1.0418753623962402,1.0538798570632935,1.0416725873947144,0.28101518750190735
8.0,1.0393236875534058,1.0512030124664307,1.0391253232955933,0.2804417908191681
9.0,1.037671685218811,1.0495160818099976,1.037474274635315,0.28082752227783203
10.0,1.0377861261367798,1.04953134059906,1.0375951528549194,0.2796604335308075
11.0,1.0382012128829956,1.0498149394989014,1.0380146503448486,0.2791316509246826
12.0,1.0380651950836182,1.0495495796203613,1.0378825664520264,0.2792606055736542
13.0,1.0363818407058716,1.0477125644683838,1.03620445728302,0.2796386778354645
14.0,1.0353360176086426,1.0465291738510132,1.0351641178131104,0.28094419836997986
15.0,1.0347237586975098,1.0457797050476074,1.0345563888549805,0.28162240982055664
16.0,1.035423994064331,1.0463346242904663,1.0352603197097778,0.2795361578464508
17.0,1.0338592529296875,1.0446150302886963,1.033699631690979,0.2809712886810303
18.0,1.033822774887085,1.0444493293762207,1.0336672067642212,0.2801550328731537
19.0,1.0309436321258545,1.041439414024353,1.03079354763031,0.28002476692199707
20.0,1.0297807455062866,1.040222406387329,1.0296354293823242,0.2810324430465698
21.0,1.0327309370040894,1.04303777217865,1.032591462135315,0.2775222659111023
22.0,1.0292253494262695,1.039345383644104,1.0290902853012085,0.27914127707481384
23.0,1.0289212465286255,1.0389231443405151,1.0287898778915405,0.27956902980804443
24.0,1.0302120447158813,1.0400564670562744,1.030086636543274,0.2799091637134552
25.0,1.0302995443344116,1.0400054454803467,1.030177116394043,0.2794678509235382
26.0,1.028642177581787,1.038217544555664,1.0285239219665527,0.28022199869155884
27.0,1.029935359954834,1.0392711162567139,1.029826045036316,0.28023290634155273
28.0,1.0288457870483398,1.0379908084869385,1.0287407636642456,0.28004470467567444
29.0,1.0299999713897705,1.0390547513961792,1.0298981666564941,0.2796545624732971
30.0,1.0281471014022827,1.0370725393295288,1.028050422668457,0.2811947166919708
31.0,1.0320161581039429,1.0408331155776978,1.031923532485962,0.2788829207420349
32.0,1.0312525033950806,1.03995680809021,1.0311626195907593,0.2795562148094177
33.0,1.0287748575210571,1.0374077558517456,1.028688907623291,0.28120487928390503
34.0,1.029589056968689,1.0380147695541382,1.029509425163269,0.2797714173793793
35.0,1.0314527750015259,1.0398359298706055,1.0313735008239746,0.27890852093696594
36.0,1.0280201435089111,1.0362324714660645,1.0279459953308105,0.2824210822582245
37.0,1.0288670063018799,1.0370101928710938,1.0287938117980957,0.2809903621673584
38.0,1.0273553133010864,1.0354492664337158,1.0272821187973022,0.2817029356956482
39.0,1.0288019180297852,1.036766767501831,1.0287314653396606,0.2802712619304657
40.0,1.0287387371063232,1.0367045402526855,1.0286680459976196,0.280371755361557
41.0,1.0300002098083496,1.0379143953323364,1.0299314260482788,0.2807040810585022
42.0,1.0308359861373901,1.0386881828308105,1.0307703018188477,0.280583918094635
43.0,1.0300568342208862,1.0378719568252563,1.0299924612045288,0.2819378674030304
44.0,1.0313016176223755,1.0391603708267212,1.0312364101409912,0.2806180417537689
45.0,1.0313998460769653,1.0392613410949707,1.0313369035720825,0.2805556654930115
46.0,1.0319353342056274,1.0395804643630981,1.0318785905838013,0.2807505428791046
47.0,1.0327327251434326,1.0402288436889648,1.0326818227767944,0.280617892742157
48.0,1.0318372249603271,1.0393174886703491,1.0317862033843994,0.2813715934753418
49.0,1.0324010848999023,1.0398799180984497,1.0323503017425537,0.2808429002761841
50.0,1.032362461090088,1.0398393869400024,1.0323116779327393,0.2809008061885834
51.0,1.032448410987854,1.0399210453033447,1.032397747039795,0.28088897466659546
52.0,1.0340101718902588,1.041452407836914,1.033960223197937,0.278969407081604
53.0,1.029881477355957,1.0370442867279053,1.029840111732483,0.2797643840312958
54.0,1.029208779335022,1.0363353490829468,1.0291681289672852,0.28075823187828064
55.0,1.0298467874526978,1.0369778871536255,1.0298055410385132,0.28033995628356934
56.0,1.0297915935516357,1.036922574043274,1.0297505855560303,0.28035658597946167
57.0,1.0296498537063599,1.0367779731750488,1.0296086072921753,0.2805042266845703
58.0,1.0300848484039307,1.0372250080108643,1.030043601989746,0.2801399827003479
59.0,1.0297433137893677,1.0368688106536865,1.0297032594680786,0.2804824113845825
60.0,1.0292670726776123,1.0360310077667236,1.0292370319366455,0.2816797196865082
61.0,1.0313900709152222,1.0380476713180542,1.031363606452942,0.2801186442375183
62.0,1.030641794204712,1.0372815132141113,1.030616044998169,0.28054288029670715
63.0,1.0306882858276367,1.0373280048370361,1.0306626558303833,0.28047308325767517
64.0,1.0309756994247437,1.037614107131958,1.0309499502182007,0.28017330169677734
65.0,1.0309154987335205,1.0375531911849976,1.0308897495269775,0.2802346348762512
66.0,1.0308200120925903,1.0374559164047241,1.0307942628860474,0.2801963686943054
67.0,1.030550241470337,1.0371838808059692,1.0305243730545044,0.28040120005607605
68.0,1.0297240018844604,1.0359889268875122,1.0297088623046875,0.28228241205215454
69.0,1.0322505235671997,1.0383797883987427,1.0322388410568237,0.2801434099674225
70.0,1.031925082206726,1.0380175113677979,1.0319147109985352,0.2802126705646515
71.0,1.0319432020187378,1.0380353927612305,1.0319328308105469,0.28018245100975037
72.0,1.0318535566329956,1.03794527053833,1.0318435430526733,0.2802976369857788
73.0,1.031760573387146,1.0378501415252686,1.0317506790161133,0.2804175019264221
74.0,1.0324956178665161,1.0385910272598267,1.0324859619140625,0.27977630496025085
75.0,1.0320197343826294,1.038101315498352,1.032010793685913,0.2802319824695587
76.0,1.0319111347198486,1.0379904508590698,1.0319026708602905,0.28012803196907043
77.0,1.0328714847564697,1.038720965385437,1.0328710079193115,0.2799339294433594
78.0,1.0325602293014526,1.0383597612380981,1.0325616598129272,0.278962641954422
79.0,1.0330456495285034,1.0387639999389648,1.033050775527954,0.27839669585227966
80.0,1.028565764427185,1.0341429710388184,1.02857506275177,0.2806060314178467
81.0,1.0289347171783447,1.0344058275222778,1.0289474725723267,0.27903175354003906
82.0,1.0280348062515259,1.0334367752075195,1.0280481576919556,0.2818200886249542
83.0,1.0289946794509888,1.0342950820922852,1.0290131568908691,0.28010913729667664
84.0,1.0280473232269287,1.033179521560669,1.0280709266662598,0.2809197008609772
85.0,1.0301423072814941,1.0350208282470703,1.0301741361618042,0.2789018452167511
86.0,1.0311883687973022,1.036009669303894,1.031221628189087,0.27843719720840454
87.0,1.0299160480499268,1.0345126390457153,1.029953956604004,0.2808592915534973
88.0,1.0298314094543457,1.0343661308288574,1.0298714637756348,0.2817460000514984
89.0,1.0310404300689697,1.0355441570281982,1.031082034111023,0.27889737486839294
90.0,1.030738353729248,1.0350806713104248,1.0307836532592773,0.2792414128780365
91.0,1.0298209190368652,1.0340756177902222,1.029867172241211,0.27972304821014404
92.0,1.0294195413589478,1.0335370302200317,1.029470443725586,0.27845999598503113
93.0,1.0294463634490967,1.0335179567337036,1.0294986963272095,0.27936238050460815
94.0,1.0288573503494263,1.032874345779419,1.0289117097854614,0.27982404828071594
95.0,1.0254007577896118,1.0293558835983276,1.0254567861557007,0.2824721336364746
96.0,1.028470754623413,1.0322376489639282,1.0285333395004272,0.27952733635902405
97.0,1.0285271406173706,1.0322932004928589,1.0285899639129639,0.2795662581920624
98.0,1.0285223722457886,1.032288908958435,1.0285851955413818,0.2796327471733093
99.0,1.0285868644714355,1.032355546951294,1.0286494493484497,0.27962973713874817
100.0,1.0287878513336182,1.0325589179992676,1.0288501977920532,0.2794954180717468
