epoch,scaling,scale,wavelength,sigma
0.0,1.0,1.0,1.0,0.33000001311302185
1.0,1.0183570384979248,1.0235323905944824,1.018269419670105,0.317101389169693
2.0,1.0458619594573975,1.0589979887008667,1.0454891920089722,0.2957233786582947
3.0,1.053204894065857,1.066819429397583,1.0528041124343872,0.289669930934906
4.0,1.0587602853775024,1.072838306427002,1.0583363771438599,0.28472280502319336
5.0,1.0709514617919922,1.086798071861267,1.0704193115234375,0.27230948209762573
6.0,1.0802531242370605,1.0971168279647827,1.079643964767456,0.263138085603714
7.0,1.0768667459487915,1.093654751777649,1.076263427734375,0.26930660009384155
8.0,1.081682801246643,1.0985217094421387,1.0810736417770386,0.26747727394104004
9.0,1.081066370010376,1.0979443788528442,1.0804530382156372,0.2695131003856659
10.0,1.0830713510513306,1.0999079942703247,1.0824617147445679,0.26793429255485535
11.0,1.0830649137496948,1.0998908281326294,1.0824570655822754,0.26896029710769653
12.0,1.086883306503296,1.1037181615829468,1.0862741470336914,0.2642015516757965
13.0,1.0859180688858032,1.1027072668075562,1.0853134393692017,0.26645395159721375
14.0,1.0866777896881104,1.1034327745437622,1.0860759019851685,0.2665906846523285
15.0,1.0877994298934937,1.1045045852661133,1.0871996879577637,0.26616033911705017
16.0,1.0846339464187622,1.101306676864624,1.0840368270874023,0.26883095502853394
17.0,1.083091378211975,1.0997314453125,1.08249831199646,0.2710055708885193
18.0,1.0813608169555664,1.097986102104187,1.080769419670105,0.27211427688598633
19.0,1.0817856788635254,1.0983339548110962,1.0811995267868042,0.2718360722064972
20.0,1.0848201513290405,1.101342797279358,1.0842372179031372,0.2699892520904541
21.0,1.0786575078964233,1.095234990119934,1.078070044517517,0.27734988927841187
22.0,1.085339903831482,1.1018227338790894,1.0847584009170532,0.27069544792175293
23.0,1.08841872215271,1.1048921346664429,1.0878394842147827,0.26865479350090027
24.0,1.0881540775299072,1.1046150922775269,1.0875760316848755,0.2690868675708771
25.0,1.0853266716003418,1.1017308235168457,1.0847506523132324,0.2711487412452698
26.0,1.085400104522705,1.101773738861084,1.0848277807235718,0.26982930302619934
27.0,1.085248351097107,1.101582646369934,1.0846800804138184,0.27109113335609436
28.0,1.0859425067901611,1.102211356163025,1.0853770971298218,0.2682672441005707
29.0,1.0859652757644653,1.102190375328064,1.0854042768478394,0.26888251304626465
30.0,1.085252046585083,1.1014357805252075,1.0846928358078003,0.2700892686843872
31.0,1.0826637744903564,1.09882390499115,1.082107424736023,0.27234748005867004
32.0,1.0807154178619385,1.0968708992004395,1.0801607370376587,0.2744515836238861
33.0,1.0840173959732056,1.100096344947815,1.0834691524505615,0.27142417430877686
34.0,1.0880422592163086,1.1041278839111328,1.087494134902954,0.2661696970462799
35.0,1.0832512378692627,1.0992865562438965,1.0827078819274902,0.2709943950176239
36.0,1.084402084350586,1.1003841161727905,1.083864450454712,0.2691623270511627
37.0,1.0776463747024536,1.093787670135498,1.0770981311798096,0.27625247836112976
38.0,1.0743931531906128,1.0905841588974,1.0738404989242554,0.2803822159767151
39.0,1.079635739326477,1.095889925956726,1.0790783166885376,0.27528783679008484
40.0,1.0783483982086182,1.0945795774459839,1.0777947902679443,0.2772030234336853
41.0,1.082013726234436,1.0982658863067627,1.0814570188522339,0.2738739550113678
42.0,1.0843182802200317,1.100582242012024,1.083760142326355,0.2712887227535248
43.0,1.0832808017730713,1.0995380878448486,1.0827224254608154,0.27317169308662415
44.0,1.0788785219192505,1.0952340364456177,1.0783110857009888,0.2758108079433441
45.0,1.0745484828948975,1.0910106897354126,1.0739725828170776,0.2777283191680908
46.0,1.0740858316421509,1.090525507926941,1.07350754737854,0.2768164575099945
47.0,1.0754621028900146,1.091844081878662,1.074887990951538,0.27404138445854187
48.0,1.0715546607971191,1.0879442691802979,1.0709811449050903,0.2778128981590271
49.0,1.0729762315750122,1.0892783403396606,1.0724085569381714,0.27305474877357483
50.0,1.0708259344100952,1.0871186256408691,1.0702598094940186,0.2755438983440399
51.0,1.0710867643356323,1.0873044729232788,1.070525884628296,0.2760460674762726
52.0,1.0747158527374268,1.090920329093933,1.074152946472168,0.27272307872772217
53.0,1.0695600509643555,1.0856987237930298,1.0690032243728638,0.2777444124221802
54.0,1.0666453838348389,1.0827040672302246,1.0660945177078247,0.2788710296154022
55.0,1.0656026601791382,1.0816813707351685,1.065047025680542,0.2789337933063507
56.0,1.0664448738098145,1.082435965538025,1.065895915031433,0.27669501304626465
57.0,1.0672194957733154,1.0831331014633179,1.0666743516921997,0.2761721909046173
58.0,1.067748785018921,1.0835939645767212,1.0672080516815186,0.276191383600235
59.0,1.0672526359558105,1.0830234289169312,1.066717505455017,0.27640607953071594
60.0,1.0650168657302856,1.080741047859192,1.0644837617874146,0.2766311466693878
61.0,1.0656925439834595,1.0813026428222656,1.0651673078536987,0.2749857008457184
62.0,1.066710352897644,1.0822585821151733,1.0661888122558594,0.27381932735443115
63.0,1.061722993850708,1.077258586883545,1.0612009763717651,0.2770162522792816
64.0,1.0637847185134888,1.079227328300476,1.0632684230804443,0.2743510603904724
65.0,1.0631424188613892,1.0785088539123535,1.0626314878463745,0.2746939957141876
66.0,1.061248779296875,1.0765644311904907,1.0607421398162842,0.27458494901657104
67.0,1.0596996545791626,1.074962854385376,1.0591975450515747,0.2745939791202545
68.0,1.0596994161605835,1.0748658180236816,1.0592024326324463,0.27320119738578796
69.0,1.0564191341400146,1.0715841054916382,1.055920958518982,0.2751108407974243
70.0,1.056238055229187,1.0713434219360352,1.0557422637939453,0.2751316428184509
71.0,1.058406114578247,1.0734293460845947,1.0579150915145874,0.27281031012535095
72.0,1.0546371936798096,1.0696049928665161,1.0541493892669678,0.2768500745296478
73.0,1.051835536956787,1.0668129920959473,1.0513468980789185,0.27958986163139343
74.0,1.05372953414917,1.0686042308807373,1.0532444715499878,0.27691471576690674
75.0,1.0525176525115967,1.0673869848251343,1.0520316362380981,0.27742627263069153
76.0,1.0512275695800781,1.0660388469696045,1.0507434606552124,0.27850136160850525
77.0,1.052817463874817,1.06754732131958,1.0523384809494019,0.27653074264526367
78.0,1.0500273704528809,1.0647070407867432,1.049547553062439,0.27726009488105774
79.0,1.053429365158081,1.0680177211761475,1.0529550313949585,0.2719005048274994
80.0,1.050430417060852,1.0649607181549072,1.04995858669281,0.2757242023944855
81.0,1.0520169734954834,1.0665316581726074,1.051544427871704,0.27321940660476685
82.0,1.0493192672729492,1.0636998414993286,1.0488524436950684,0.2741624116897583
83.0,1.0465495586395264,1.0609408617019653,1.0460807085037231,0.2759919762611389
84.0,1.0462733507156372,1.060582160949707,1.045807957649231,0.2754015028476715
85.0,1.0433228015899658,1.0575637817382812,1.0428632497787476,0.2773118019104004
86.0,1.0452042818069458,1.0593650341033936,1.0447489023208618,0.27368780970573425
87.0,1.0412449836730957,1.0554088354110718,1.040788173675537,0.2772957384586334
88.0,1.0416430234909058,1.0556652545928955,1.0411930084228516,0.2744753658771515
89.0,1.0382808446884155,1.0522831678390503,1.0378291606903076,0.27442190051078796
90.0,1.0352383852005005,1.049343466758728,1.034781575202942,0.27440205216407776
91.0,1.0366517305374146,1.050544261932373,1.0361984968185425,0.2721763849258423
92.0,1.0333194732666016,1.0470696687698364,1.032870888710022,0.27572065591812134
93.0,1.0301799774169922,1.0440175533294678,1.0297276973724365,0.2772177755832672
94.0,1.0341535806655884,1.047739863395691,1.0337101221084595,0.27282121777534485
95.0,1.030372977256775,1.043874979019165,1.029929757118225,0.2770417034626007
96.0,1.0307438373565674,1.0440553426742554,1.0303066968917847,0.27612313628196716
97.0,1.0352743864059448,1.0484838485717773,1.03484308719635,0.2715234160423279
98.0,1.0307650566101074,1.0439367294311523,1.0303345918655396,0.27346140146255493
99.0,1.0315495729446411,1.0445826053619385,1.0311232805252075,0.27231913805007935
100.0,1.0321325063705444,1.0450397729873657,1.0317106246948242,0.27262377738952637
