epoch,scaling,scale,wavelength,sigma
0.0,1.0,1.0,1.0,0.33000001311302185
1.0,1.034457802772522,1.0421326160430908,1.0343302488327026,0.300234317779541
2.0,1.0453153848648071,1.0542351007461548,1.0451393127441406,0.28638628125190735
3.0,1.0493829250335693,1.0586339235305786,1.0491923093795776,0.27859199047088623
4.0,1.0521212816238403,1.0614433288574219,1.051926851272583,0.2761119306087494
5.0,1.0547232627868652,1.0641443729400635,1.0545239448547363,0.27191218733787537
6.0,1.051966905593872,1.0612818002700806,1.0517706871032715,0.2727556824684143
7.0,1.0517761707305908,1.0610679388046265,1.0515788793563843,0.27031800150871277
8.0,1.0495802164077759,1.0588113069534302,1.0493875741958618,0.27161476016044617
9.0,1.0508331060409546,1.0600632429122925,1.0506408214569092,0.27194949984550476
10.0,1.0486403703689575,1.0577774047851562,1.0484521389007568,0.2728891670703888
11.0,1.0457862615585327,1.054959774017334,1.0455975532531738,0.2740932106971741
12.0,1.0463711023330688,1.0554462671279907,1.0461868047714233,0.2707144320011139
13.0,1.047114610671997,1.0561645030975342,1.0469304323196411,0.26997116208076477
14.0,1.0448552370071411,1.0537980794906616,1.0446746349334717,0.2712029814720154
15.0,1.0422093868255615,1.051103115081787,1.042028546333313,0.27312949299812317
16.0,1.0413192510604858,1.0501461029052734,1.0411406755447388,0.2725974917411804
17.0,1.037568211555481,1.0464812517166138,1.0373879671096802,0.2730083167552948
18.0,1.039175271987915,1.047800064086914,1.0390084981918335,0.27214235067367554
19.0,1.0360517501831055,1.0446157455444336,1.0358872413635254,0.27400854229927063
20.0,1.0378669500350952,1.0463372468948364,1.0377073287963867,0.2720545828342438
21.0,1.037345290184021,1.045804500579834,1.037184715270996,0.27260178327560425
22.0,1.0388269424438477,1.0472400188446045,1.0386682748794556,0.2706022560596466
23.0,1.0380196571350098,1.0463578701019287,1.0378615856170654,0.2701386511325836
24.0,1.0371423959732056,1.045335292816162,1.0369881391525269,0.2689274251461029
25.0,1.0342438220977783,1.0423717498779297,1.034087896347046,0.27008289098739624
26.0,1.034335732460022,1.042346477508545,1.034183144569397,0.27020302414894104
27.0,1.035163164138794,1.0430198907852173,1.035014033317566,0.270638644695282
28.0,1.0329009294509888,1.0406509637832642,1.0327562093734741,0.2707374095916748
29.0,1.033315896987915,1.0409319400787354,1.0331759452819824,0.269055038690567
30.0,1.0336390733718872,1.0410963296890259,1.0335054397583008,0.2696954905986786
31.0,1.0330981016159058,1.0403835773468018,1.0329700708389282,0.2700018286705017
32.0,1.0331937074661255,1.0403854846954346,1.0330690145492554,0.26818031072616577
33.0,1.0314971208572388,1.0386359691619873,1.031373143196106,0.26881101727485657
34.0,1.0299314260482788,1.0369755029678345,1.029810905456543,0.2691594362258911
35.0,1.0313036441802979,1.0381850004196167,1.0311888456344604,0.26614731550216675
36.0,1.0282377004623413,1.0350126028060913,1.0281260013580322,0.26859045028686523
37.0,1.0289102792739868,1.0354350805282593,1.0288054943084717,0.26676109433174133
38.0,1.0266364812850952,1.0330497026443481,1.0265355110168457,0.268939346075058
39.0,1.0273059606552124,1.0335369110107422,1.0272080898284912,0.2676883339881897
40.0,1.0276650190353394,1.0336896181106567,1.0275729894638062,0.26655879616737366
41.0,1.0237212181091309,1.0297739505767822,1.0236281156539917,0.2687467038631439
42.0,1.0258253812789917,1.031582236289978,1.025740146636963,0.2670266330242157
43.0,1.027289628982544,1.032863736152649,1.0272072553634644,0.26703566312789917
44.0,1.0261709690093994,1.0315024852752686,1.0260950326919556,0.26725056767463684
45.0,1.0276925563812256,1.03290593624115,1.0276193618774414,0.2678895890712738
46.0,1.026556134223938,1.0315425395965576,1.026487112045288,0.26838046312332153
47.0,1.0259135961532593,1.030792474746704,1.0258492231369019,0.26805204153060913
48.0,1.0266770124435425,1.031337022781372,1.0266175270080566,0.2677605450153351
49.0,1.0266867876052856,1.0312259197235107,1.0266292095184326,0.2679066061973572
50.0,1.0265625715255737,1.0310351848602295,1.0265065431594849,0.2680690884590149
51.0,1.0231449604034424,1.0274522304534912,1.0230927467346191,0.2707948386669159
52.0,1.0264261960983276,1.0304933786392212,1.0263787508010864,0.2680564224720001
53.0,1.025556206703186,1.0295823812484741,1.0255091190338135,0.2685876786708832
54.0,1.0262534618377686,1.0300662517547607,1.026212453842163,0.26920920610427856
55.0,1.0265973806381226,1.0303552150726318,1.0265586376190186,0.26911965012550354
56.0,1.0237751007080078,1.0275588035583496,1.0237361192703247,0.2707325220108032
57.0,1.0255073308944702,1.0291173458099365,1.0254738330841064,0.269494891166687
58.0,1.0265510082244873,1.0299450159072876,1.0265254974365234,0.26759031414985657
59.0,1.0265661478042603,1.0297311544418335,1.0265474319458008,0.26858729124069214
60.0,1.0268884897232056,1.030048131942749,1.0268696546554565,0.2681539058685303
61.0,1.0269107818603516,1.0300685167312622,1.0268923044204712,0.26804816722869873
62.0,1.0246964693069458,1.0275590419769287,1.0246862173080444,0.2711105942726135
63.0,1.0264275074005127,1.0292813777923584,1.0264174938201904,0.26796358823776245
64.0,1.0260083675384521,1.0288394689559937,1.0259984731674194,0.26824304461479187
65.0,1.0249247550964355,1.0277382135391235,1.0249145030975342,0.26907074451446533
66.0,1.0230302810668945,1.0257799625396729,1.02302086353302,0.27023276686668396
67.0,1.0258204936981201,1.0282952785491943,1.0258171558380127,0.26845070719718933
68.0,1.0257391929626465,1.0281891822814941,1.0257370471954346,0.26817139983177185
69.0,1.025183081626892,1.0276097059249878,1.0251811742782593,0.26862069964408875
70.0,1.0251760482788086,1.0275864601135254,1.0251742601394653,0.26824918389320374
71.0,1.025085210800171,1.0273256301879883,1.0250885486602783,0.26908132433891296
72.0,1.0263158082962036,1.0283915996551514,1.0263245105743408,0.2690039873123169
73.0,1.0281354188919067,1.0299761295318604,1.0281504392623901,0.26725468039512634
74.0,1.026346206665039,1.0280956029891968,1.026363730430603,0.26900771260261536
75.0,1.0250372886657715,1.026673436164856,1.0250564813613892,0.2716214060783386
76.0,1.027017593383789,1.0285993814468384,1.0270392894744873,0.26983126997947693
77.0,1.0272666215896606,1.0288548469543457,1.0272878408432007,0.269552081823349
78.0,1.0274088382720947,1.0289968252182007,1.0274300575256348,0.2694583535194397
79.0,1.0278801918029785,1.029482364654541,1.0279005765914917,0.26904284954071045
80.0,1.0244284868240356,1.0256952047348022,1.024457335472107,0.2673638164997101
81.0,1.027141809463501,1.0283920764923096,1.0271708965301514,0.2691592872142792
82.0,1.0250039100646973,1.0260655879974365,1.025038480758667,0.2689903974533081
83.0,1.0247844457626343,1.0258437395095825,1.0248194932937622,0.26946184039115906
84.0,1.0250073671340942,1.0260632038116455,1.0250424146652222,0.2690153419971466
85.0,1.0252349376678467,1.0262901782989502,1.0252701044082642,0.26859962940216064
86.0,1.0254385471343994,1.0264934301376343,1.0254738330841064,0.2682207226753235
87.0,1.023194670677185,1.023990273475647,1.0232378244400024,0.27148059010505676
88.0,1.0253896713256836,1.0260062217712402,1.0254372358322144,0.2680729925632477
89.0,1.027003288269043,1.0275616645812988,1.0270514488220215,0.2671961486339569
90.0,1.0253545045852661,1.0256441831588745,1.0254089832305908,0.2690604031085968
91.0,1.0258281230926514,1.0258798599243164,1.025888442993164,0.26784440875053406
92.0,1.024400234222412,1.0243966579437256,1.0244624614715576,0.26947808265686035
93.0,1.0242186784744263,1.0239194631576538,1.0242857933044434,0.269582062959671
94.0,1.026290774345398,1.02590012550354,1.0263597965240479,0.2684563398361206
95.0,1.0251880884170532,1.024507999420166,1.0252629518508911,0.27143725752830505
96.0,1.0267575979232788,1.0258963108062744,1.0268360376358032,0.26877734065055847
97.0,1.0286009311676025,1.02781081199646,1.0286785364151,0.2674697935581207
98.0,1.0259859561920166,1.025070071220398,1.026064395904541,0.2698096036911011
99.0,1.0261155366897583,1.0249303579330444,1.0261987447738647,0.26934710144996643
100.0,1.029664158821106,1.0283712148666382,1.0297510623931885,0.2668856978416443
