epoch,scaling,scale,wavelength,sigma
0.0,1.0,1.0,1.0,0.33000001311302185
1.0,1.0142462253570557,1.0195318460464478,1.0141918659210205,0.3153630197048187
2.0,1.0193383693695068,1.0249842405319214,1.0192734003067017,0.3099845349788666
3.0,1.0208594799041748,1.0261609554290771,1.020801305770874,0.3083018660545349
4.0,1.0202661752700806,1.0253485441207886,1.0202149152755737,0.30773472785949707
5.0,1.0190954208374023,1.0239301919937134,1.0190470218658447,0.3075903654098511
6.0,1.0182557106018066,1.022748351097107,1.0182147026062012,0.3060203194618225
7.0,1.019026756286621,1.0232945680618286,1.0189900398254395,0.3036159873008728
8.0,1.0164170265197754,1.0203685760498047,1.0163843631744385,0.30556201934814453
9.0,1.0168131589889526,1.0205878019332886,1.0167820453643799,0.3048020303249359
10.0,1.0178000926971436,1.0213152170181274,1.0177741050720215,0.3031173646450043
11.0,1.0169200897216797,1.020386815071106,1.0168956518173218,0.30413007736206055
12.0,1.0162700414657593,1.019407033920288,1.0162512063980103,0.30475592613220215
13.0,1.0187143087387085,1.0214697122573853,1.0187017917633057,0.30085840821266174
14.0,1.0171589851379395,1.0197007656097412,1.0171475410461426,0.3024291694164276
15.0,1.0157012939453125,1.0179333686828613,1.0156956911087036,0.3040097653865814
16.0,1.017323613166809,1.0193425416946411,1.0173226594924927,0.30040788650512695
17.0,1.016029715538025,1.0176538228988647,1.016037940979004,0.3015371561050415
18.0,1.0139424800872803,1.015305519104004,1.013953447341919,0.3037053048610687
19.0,1.0150952339172363,1.016055941581726,1.015112280845642,0.3020161986351013
20.0,1.0150521993637085,1.0156264305114746,1.0150749683380127,0.30238428711891174
21.0,1.0103883743286133,1.0112292766571045,1.0104087591171265,0.30595171451568604
22.0,1.014660358428955,1.0147640705108643,1.0146909952163696,0.3008113503456116
23.0,1.0117738246917725,1.0116691589355469,1.0118072032928467,0.30324968695640564
24.0,1.0129389762878418,1.0123478174209595,1.012979507446289,0.3013242483139038
25.0,1.0133068561553955,1.0123100280761719,1.0133519172668457,0.30037423968315125
26.0,1.0098077058792114,1.0087727308273315,1.0098543167114258,0.30263441801071167
27.0,1.012316346168518,1.0106120109558105,1.0123716592788696,0.30165743827819824
28.0,1.013113260269165,1.0109437704086304,1.0131735801696777,0.30174633860588074
29.0,1.0142098665237427,1.0116127729415894,1.0142771005630493,0.3001340925693512
30.0,1.0137540102005005,1.0108287334442139,1.0138267278671265,0.3019644021987915
31.0,1.0133825540542603,1.010049819946289,1.013460397720337,0.30142509937286377
32.0,1.0130285024642944,1.0092614889144897,1.0131109952926636,0.302110880613327
33.0,1.013736367225647,1.0096523761749268,1.0138236284255981,0.30046266317367554
34.0,1.0128663778305054,1.0083237886428833,1.012959599494934,0.30148422718048096
35.0,1.0121090412139893,1.0070239305496216,1.0122085809707642,0.30144786834716797
36.0,1.0103389024734497,1.0047835111618042,1.0104447603225708,0.3020484745502472
37.0,1.01108980178833,1.005120038986206,1.0111987590789795,0.3007335066795349
38.0,1.0085773468017578,1.0022293329238892,1.0086878538131714,0.30175530910491943
39.0,1.0092816352844238,1.0021164417266846,1.0094020366668701,0.3000952899456024
40.0,1.0085879564285278,1.0009129047393799,1.0087149143218994,0.3006892204284668
41.0,1.0097720623016357,1.0015459060668945,1.0099031925201416,0.2993963062763214
42.0,1.0084450244903564,0.9992756247520447,1.0085853338241577,0.3005012273788452
43.0,1.0069468021392822,0.9973152875900269,1.0070908069610596,0.30069151520729065
44.0,1.0069166421890259,0.9963064193725586,1.0070693492889404,0.3004326820373535
45.0,1.0038032531738281,0.9928303360939026,1.0039548873901367,0.3013383746147156
46.0,1.005861520767212,0.993294358253479,1.006021499633789,0.29893043637275696
47.0,1.0048877000808716,0.9914258122444153,1.0050526857376099,0.29983407258987427
48.0,1.0042634010314941,0.9898957014083862,1.0044326782226562,0.29935652017593384
49.0,1.003433108329773,0.9876981973648071,1.0036076307296753,0.29916319251060486
50.0,1.0031015872955322,0.9860458374023438,1.0032798051834106,0.2990683615207672
51.0,1.003348469734192,0.9843900799751282,1.0035319328308105,0.29843977093696594
52.0,1.0040907859802246,0.9834920763969421,1.0042810440063477,0.2998179793357849
53.0,1.0027778148651123,0.9806731939315796,1.002973198890686,0.2990862727165222
54.0,1.000850796699524,0.9769461750984192,1.0010470151901245,0.2992737591266632
55.0,1.0014678239822388,0.9745991230010986,1.0016677379608154,0.29940080642700195
56.0,1.0005013942718506,0.9719549417495728,1.0007033348083496,0.30078771710395813
57.0,1.0024003982543945,0.9698914289474487,1.0026133060455322,0.2987423539161682
58.0,1.0027036666870117,0.966952919960022,1.0029267072677612,0.29850926995277405
59.0,1.002698302268982,0.9642347693443298,1.0029274225234985,0.29826584458351135
60.0,1.0021002292633057,0.9607676863670349,1.0023335218429565,0.29802680015563965
61.0,1.001405119895935,0.955437183380127,1.0016391277313232,0.2979225814342499
62.0,0.9988074898719788,0.9487711787223816,0.9990336298942566,0.2989840507507324
63.0,0.9986953139305115,0.9459348320960999,0.9989174604415894,0.29905715584754944
64.0,0.9992622137069702,0.9394822716712952,0.9994836449623108,0.299204558134079
65.0,0.9996140599250793,0.9339147210121155,0.9998354315757751,0.29847484827041626
66.0,1.0005786418914795,0.9291696548461914,1.0008057355880737,0.2995959520339966
67.0,1.001800537109375,0.9260665774345398,1.0020389556884766,0.2990536689758301
68.0,1.0020751953125,0.9210115671157837,1.002324104309082,0.30009058117866516
69.0,1.0028306245803833,0.9197947978973389,1.0030879974365234,0.299012154340744
70.0,1.0011632442474365,0.9156721830368042,1.0014230012893677,0.3001790940761566
71.0,1.004042625427246,0.9165268540382385,1.0043139457702637,0.29779404401779175
72.0,1.0015181303024292,0.9111547470092773,1.0017938613891602,0.29949405789375305
73.0,1.0017876625061035,0.9086835980415344,1.0020697116851807,0.2988743782043457
74.0,1.0003619194030762,0.9031763672828674,1.0006434917449951,0.2996771037578583
75.0,0.9996798038482666,0.897351086139679,0.999962329864502,0.2993421256542206
76.0,1.0017744302749634,0.8942422866821289,1.002071499824524,0.2984306812286377
77.0,0.9992662072181702,0.888710618019104,0.9995573163032532,0.29925060272216797
78.0,1.0000947713851929,0.8823450207710266,1.0003904104232788,0.29878905415534973
79.0,0.9993499517440796,0.8738821744918823,0.9996453523635864,0.2990292012691498
80.0,1.0006434917449951,0.8635215759277344,1.000950574874878,0.2984218895435333
81.0,1.001067876815796,0.8535212874412537,1.0013879537582397,0.2983590364456177
82.0,1.001202940940857,0.8499508500099182,1.001528024673462,0.29814767837524414
83.0,0.999793529510498,0.8437857627868652,1.0001132488250732,0.29967716336250305
84.0,1.0000089406967163,0.8358355760574341,1.000327467918396,0.2990127503871918
85.0,1.000140905380249,0.8253244757652283,1.0004574060440063,0.2985004484653473
86.0,1.000180959701538,0.8154046535491943,1.0004944801330566,0.2987186014652252
87.0,1.0008996725082397,0.806693971157074,1.001220941543579,0.298877090215683
88.0,1.0005422830581665,0.799614429473877,1.0008630752563477,0.2994421720504761
89.0,1.0028076171875,0.8005532622337341,1.0031521320343018,0.2993650436401367
90.0,1.0037729740142822,0.7998574376106262,1.0041276216506958,0.29845499992370605
91.0,1.003710389137268,0.7975455522537231,1.0040748119354248,0.2980755567550659
92.0,1.0022904872894287,0.793256402015686,1.0026576519012451,0.29825475811958313
93.0,1.0006814002990723,0.7875049114227295,1.0010600090026855,0.2993669807910919
94.0,1.000902771949768,0.7868589162826538,1.0012849569320679,0.2995956838130951
95.0,1.000109076499939,0.7826659083366394,1.0004982948303223,0.2992853820323944
96.0,0.999815821647644,0.7771803140640259,1.0002108812332153,0.2995077967643738
97.0,0.9992843866348267,0.7733632922172546,0.9996755719184875,0.3000551462173462
98.0,0.9992823004722595,0.7662954330444336,0.9996713995933533,0.2989164888858795
99.0,0.9990941882133484,0.760086715221405,0.9994735717773438,0.29917266964912415
100.0,1.0009528398513794,0.7523815035820007,1.0013453960418701,0.29832762479782104
