acc,loss,val_acc,val_loss
0.5726831555366516,1.3837059202507849,0.6323782205581665,0.6375874408653804
0.6678130626678467,0.6021201843119572,0.6518624424934387,0.6221067713839668
0.7322360873222351,0.5271313024417911,0.6575931310653687,0.6291984191962651
0.803230345249176,0.4304359664209702,0.6501432657241821,0.6870402715035847
0.8794448375701904,0.2921190624346822,0.6458452939987183,0.8620814212730953
0.9177055954933167,0.20691450143044537,0.6501432657241821,1.1610994104828154
0.8930786848068237,0.25654226460117807,0.6461318135261536,1.2326831434454237
0.9469999670982361,0.14430553658932255,0.6492836475372314,1.3741810279233115
0.9798563122749329,0.06391706658050926,0.6481375098228455,1.5610109269618988
0.9829884171485901,0.05419469018791816,0.638681948184967,1.635614084345954
0.970767080783844,0.08073054447194498,0.6246418356895447,1.5664058242525374
0.9638887047767639,0.09527020957459342,0.6303724646568298,1.3657579294272832
0.9697230458259583,0.08369019736346471,0.6169054508209229,2.389732471534184
0.9872259497642517,0.04035044319128757,0.6372492909431458,2.1650814754622325
0.9940428733825684,0.02217941819799877,0.6441260576248169,2.096410495894296
0.9976048469543457,0.01017096664562574,0.6424068808555603,2.1792549661227634
0.9990173578262329,0.004910719048140183,0.6381089091300964,2.409372172185353
0.9995086789131165,0.0033971336921594115,0.637535810470581,2.4744452195508138
0.9999386072158813,0.0012970381339709159,0.6438395380973816,2.808294415473938
1.0,0.0005623196437690684,0.6424068808555603,2.881928035191127
1.0,0.0003793605639760329,0.6429799199104309,2.955067609037672
1.0,0.00027924405684253176,0.6418337821960449,3.0277351481573924
1.0,0.00022186310889041767,0.640974223613739,3.090151846408844
1.0,0.00018243090726226174,0.6401146054267883,3.146849044731685
1.0,0.00015189449601527493,0.6418337821960449,3.20087046282632
1.0,0.00012862509781098134,0.6415472626686096,3.251326790877751
1.0,0.00011034972304594583,0.642120361328125,3.299542171614511
1.0,9.525951389537363e-05,0.6424068808555603,3.346923427922385
1.0,8.302535009691398e-05,0.642120361328125,3.3906121339116777
1.0,7.20959186779002e-05,0.642120361328125,3.433833113738469
1.0,6.328601776161858e-05,0.643266499042511,3.475040078163147
1.0,5.5715745613248136e-05,0.6441260576248169,3.5164586305618286
1.0,4.909502421361247e-05,0.6441260576248169,3.556677290371486
1.0,4.3345643578947736e-05,0.6441260576248169,3.5975480675697327
1.0,3.584570644158368e-05,0.6441260576248169,3.8794628296579634
1.0,1.8818237802554905e-05,0.6424068808555603,4.254918422017779
1.0,1.012645047205045e-05,0.6412607431411743,4.5155046411923
1.0,6.651900207772898e-06,0.639828085899353,4.700479779924665
1.0,4.857578602231489e-06,0.638681948184967,4.8533512353897095
1.0,3.752716285182318e-06,0.6378223299980164,4.981762903077262
1.0,2.9988355964798276e-06,0.6378223299980164,5.092318773269653
1.0,2.4732106108807292e-06,0.6372492909431458,5.190810697419303
1.0,2.0802312277613546e-06,0.6369627714157104,5.2784097364970615
1.0,1.7798447620823789e-06,0.6363896727561951,5.359508556979043
1.0,1.5387896539676494e-06,0.6372492909431458,5.428301802703312
1.0,1.3471748590364577e-06,0.6369627714157104,5.505929819175175
1.0,1.1848287322240496e-06,0.6366761922836304,5.574794718197414
1.0,1.0503914987986676e-06,0.6363896727561951,5.640477589198521
1.0,9.425388734803517e-07,0.6363896727561951,5.700239760535104
1.0,8.401163020209868e-07,0.6363896727561951,5.763099755559649
1.0,7.607660090430075e-07,0.6363896727561951,5.8194482156208585
1.0,6.87937412458104e-07,0.6369627714157104,5.874697216919491
1.0,6.238777703417281e-07,0.637535810470581,5.923026774610792
1.0,5.686167448556662e-07,0.637535810470581,5.983140093939645
1.0,5.176450046310763e-07,0.637535810470581,6.034760270799909
1.0,4.7340782375318984e-07,0.637535810470581,6.086095222405025
1.0,4.336431426969915e-07,0.6378223299980164,6.136197396687099
1.0,3.983950002370872e-07,0.6372492909431458,6.185156634875706
1.0,3.662432684184032e-07,0.6372492909431458,6.233557445662362
1.0,3.374735356150861e-07,0.6369627714157104,6.281556248664856
1.0,3.112731962109116e-07,0.6372492909431458,6.32197288104466
1.0,2.877374695757821e-07,0.637535810470581,6.37510439327785
1.0,2.654388076340285e-07,0.637535810470581,6.4213296856199
1.0,2.4539484353548565e-07,0.637535810470581,6.467011434691293
1.0,2.2717367687827177e-07,0.637535810470581,6.5120600291660855
1.0,2.1069477824055575e-07,0.637535810470581,6.556605424199786
1.0,1.955042771256096e-07,0.637535810470581,6.600899730409894
1.0,1.8155093977768832e-07,0.6372492909431458,6.644097873142788
1.0,1.6865907348395543e-07,0.637535810470581,6.687283788408552
1.0,1.5627230317957615e-07,0.6369627714157104,6.734054037502834
1.0,1.460232016531289e-07,0.6372492909431458,6.775003450257437
1.0,1.358033452994182e-07,0.6372492909431458,6.815763456480844
1.0,1.2660107281704955e-07,0.6369627714157104,6.851043156215122
1.0,1.1802837191209373e-07,0.6372492909431458,6.898873312132699
1.0,1.0946296995277109e-07,0.6372492909431458,6.944166898727417
1.0,1.0229584754181051e-07,0.6372492909431458,6.983099562781198
1.0,9.537761863269933e-08,0.6372492909431458,7.023700543812343
1.0,8.875953351614868e-08,0.6372492909431458,7.063752395766122
1.0,8.250016110708492e-08,0.6369627714157104,7.10598121370588
1.0,7.733160582960745e-08,0.6372492909431458,7.14503492627825
1.0,7.214107511610403e-08,0.6372492909431458,7.178125415529523
1.0,6.728729911842464e-08,0.6372492909431458,7.2230750152042935
1.0,6.264582506852625e-08,0.637535810470581,7.264786464827401
1.0,5.870716222599102e-08,0.637535810470581,7.302291376250131
1.0,5.470992199813386e-08,0.637535810470581,7.342492886951992
1.0,5.1173902274578674e-08,0.6372492909431458,7.380621876035418
1.0,4.779161874102156e-08,0.6372492909431458,7.419303059577942
1.0,4.4694849707508687e-08,0.6381089091300964,7.458122219358172
1.0,4.178842275764641e-08,0.6381089091300964,7.4948428358350485
1.0,3.8991807693736174e-08,0.6381089091300964,7.533452595983233
1.0,3.645142549834493e-08,0.6381089091300964,7.566574897084918
1.0,3.406478098883121e-08,0.6381089091300964,7.608620013509478
1.0,3.1758666755999186e-08,0.637535810470581,7.645689317158291
1.0,2.9752713018260237e-08,0.637535810470581,7.68264731339046
1.0,2.780532499292163e-08,0.637535810470581,7.71878867489951
1.0,2.5975072235065866e-08,0.637535810470581,7.754371268408639
1.0,2.434980757685534e-08,0.637535810470581,7.790496979440961
1.0,2.2944173679901573e-08,0.6378223299980164,7.8210031645638605
1.0,2.144336329521368e-08,0.6378223299980164,7.860994236809867
1.0,1.9920589177530993e-08,0.6378223299980164,7.8962419373648505
