acc,loss,val_acc,val_loss
0.5575754046440125,0.7159657641629406,0.5753581523895264,0.6634800029652459
0.6406681537628174,0.6229843325194113,0.6501432657241821,0.6205634559903827
0.7049683928489685,0.5537053893812091,0.6547278165817261,0.6270211211272648
0.7782964110374451,0.4583613512211538,0.6160458326339722,0.7208755037614277
0.817478358745575,0.3917069756336977,0.6590257883071899,0.730480243052755
0.8510716557502747,0.33674149588596936,0.6309455633163452,0.9002204303230558
0.8954737782478333,0.24708967014626954,0.612607479095459,1.2371635351862227
0.9114413857460022,0.21649392210310875,0.6475644707679749,1.121649214199611
0.9066510796546936,0.23188938179883223,0.6404011249542236,1.2022594788244791
0.9198550581932068,0.2000410184749205,0.6756446957588196,1.264451380286898
0.9410427808761597,0.15434683839987448,0.6673352718353271,1.3201576620340347
0.9724866151809692,0.08027883410344666,0.6332378387451172,1.6659338005951472
0.9804090261459351,0.05968469701028046,0.673925518989563,1.6227840100015913
0.9776453971862793,0.0674279908820239,0.6561604738235474,1.7051216917378562
0.9807161092758179,0.05210119242648388,0.65329509973526,2.1469099010740007
0.9873487949371338,0.03969762913076748,0.6707736253738403,2.232430781636919
0.9927532076835632,0.02689633609545449,0.675071656703949,2.176030618803842
0.9995086789131165,0.002971907572860734,0.6808022856712341,2.354175708123616
0.9998157620429993,0.0011980413919676393,0.6848137378692627,2.618294336966106
0.9999386072158813,0.0007029782372325866,0.6845272183418274,2.821493089199066
0.9999386072158813,0.000495417572758232,0.6825214624404907,2.935869472367423
0.9999386072158813,0.00034349151706986796,0.6822349429130554,3.033882737159729
1.0,0.00025543769964007023,0.6833810806274414,3.123611339500972
1.0,0.00018661776018684517,0.6825214624404907,3.2018747414861406
1.0,0.00013950833683041788,0.6816619038581848,3.287483956132616
1.0,0.00010238422038439698,0.6813753843307495,3.358467314924513
1.0,7.490337994889668e-05,0.6833810806274414,3.4252186162131175
1.0,5.3885693792385165e-05,0.6822349429130554,3.493271197591509
1.0,3.9595771560940385e-05,0.6828080415725708,3.5436856831823076
1.0,3.0431082806386125e-05,0.6828080415725708,3.594864555767604
1.0,2.31771426211708e-05,0.6833810806274414,3.63257702759334
1.0,1.8431228568484273e-05,0.6828080415725708,3.6742719326700484
1.0,1.4933706298923391e-05,0.6839541792869568,3.7058949981416975
1.0,1.2354523386138442e-05,0.6836676001548767,3.737313057695116
1.0,1.0343887272638837e-05,0.6833810806274414,3.765402146748134
1.0,8.923434288334397e-06,0.6842406988143921,3.7923000625201633
1.0,7.66259133531494e-06,0.6839541792869568,3.8189025606427873
1.0,6.6317755210672004e-06,0.6822349429130554,3.843517439705985
1.0,5.811201398742741e-06,0.6839541792869568,3.866754446710859
1.0,5.107028500071939e-06,0.6830945611000061,3.8881422196115767
1.0,4.516815561919817e-06,0.6842406988143921,3.9087564093726024
1.0,4.02974531279739e-06,0.6830945611000061,3.9287070546831404
1.0,3.589152589460724e-06,0.6836676001548767,3.9497315883636475
1.0,3.228889074515942e-06,0.6845272183418274,3.9684747202055797
1.0,2.9129319079875095e-06,0.6836676001548767,3.9881791387285506
1.0,2.621782025377987e-06,0.6839541792869568,4.006609244006021
1.0,2.3790783886408107e-06,0.6836676001548767,4.024950061525617
1.0,2.1685914025250446e-06,0.6842406988143921,4.042342262608664
1.0,1.9647772028357262e-06,0.6833810806274414,4.0647582922663
1.0,1.7677194981905854e-06,0.6842406988143921,4.086688484464373
1.0,1.5647134199797278e-06,0.6839541792869568,4.119395537035806
1.0,1.3508324999290707e-06,0.6833810806274414,4.1584911942481995
1.0,1.1372770503774714e-06,0.6830945611000061,4.211340657302311
1.0,9.42961574896975e-07,0.6828080415725708,4.26372264112745
1.0,7.788192806752831e-07,0.6828080415725708,4.324264585971832
1.0,6.454439391720402e-07,0.6828080415725708,4.385111238275256
1.0,5.371560033275915e-07,0.6833810806274414,4.44448630298887
1.0,4.5420393661750154e-07,0.6830945611000061,4.503373912402561
1.0,3.861351445098721e-07,0.6828080415725708,4.558152164731707
1.0,3.332199797792964e-07,0.6833810806274414,4.612558509622302
1.0,2.885847351153782e-07,0.6825214624404907,4.662457372461047
1.0,2.50816289171593e-07,0.6825214624404907,4.713085762092045
1.0,2.2135699648183872e-07,0.6825214624404907,4.7602527141571045
1.0,1.9629018495273374e-07,0.6822349429130554,4.80523897920336
1.0,1.7491307065402346e-07,0.6819484233856201,4.848391507353101
1.0,1.5656679763025134e-07,0.6819484233856201,4.890052965709141
1.0,1.408706886908141e-07,0.6819484233856201,4.929896644183567
1.0,1.2740013439998484e-07,0.6819484233856201,4.968156823090145
1.0,1.1549624980747895e-07,0.6819484233856201,5.005196852343423
1.0,1.0524689756674956e-07,0.6813753843307495,5.0406474981989176
1.0,9.618353390176575e-08,0.6819484233856201,5.075045704841614
1.0,8.810117148089504e-08,0.6822349429130554,5.108362793922424
1.0,8.067036928121025e-08,0.6819484233856201,5.14076565844672
1.0,7.439628476166992e-08,0.6819484233856201,5.172028737408774
1.0,6.872983894189758e-08,0.6816619038581848,5.202287869794028
1.0,6.345139869594256e-08,0.6819484233856201,5.2317429440362115
1.0,5.868542487998252e-08,0.6810888051986694,5.260572501591274
1.0,5.4519773310956805e-08,0.6813753843307495,5.288760074547359
1.0,5.0449289599121564e-08,0.6813753843307495,5.316275664738247
1.0,4.6854670831847604e-08,0.6813753843307495,5.3428835272789
1.0,4.3831093440822664e-08,0.6813753843307495,5.368838012218475
1.0,4.0924649009069415e-08,0.6816619038581848,5.3941330909729
1.0,3.830372354405293e-08,0.6816619038581848,5.41866134745734
1.0,3.602688720872037e-08,0.6816619038581848,5.44293749332428
1.0,3.348648858571024e-08,0.6813753843307495,5.466335415840149
1.0,3.1385353397390916e-08,0.6813753843307495,5.4893302236284525
1.0,2.94818856702135e-08,0.6813753843307495,5.511981461729322
1.0,2.7666268879603294e-08,0.6810888051986694,5.534132650920323
1.0,2.5945825301327243e-08,0.6808022856712341,5.555638977459499
1.0,2.453286655183637e-08,0.6808022856712341,5.577013535158975
1.0,2.3259006791913852e-08,0.6808022856712341,5.598068969590323
1.0,2.1853366685838555e-08,0.6808022856712341,5.618550419807434
1.0,2.0572183850717603e-08,0.6808022856712341,5.637959003448486
1.0,1.9400816599355686e-08,0.6808022856712341,5.657354371888297
1.0,1.8104990335046796e-08,0.6808022856712341,5.675713419914246
1.0,1.705075912441695e-08,0.6810888051986694,5.694948843547276
1.0,1.610634431443247e-08,0.6813753843307495,5.713649358068194
1.0,1.538888208808233e-08,0.6813753843307495,5.732127973011562
1.0,1.461285083509486e-08,0.6810888051986694,5.750099301338196
1.0,1.3800213869794246e-08,0.6808022856712341,5.767970885549273
