acc,loss,val_acc,val_loss
0.6748756170272827,0.7504774038617268,0.579656183719635,0.8618792401892799
0.7468525171279907,0.6549470970988354,0.6269341111183167,0.8950183242559433
0.7741202712059021,0.6021668136006366,0.6426934003829956,0.8497143749679837
0.7954922318458557,0.5625811244216912,0.748997151851654,0.6531973779201508
0.815881609916687,0.5231811521859805,0.7418338060379028,0.6447056766067233
0.8370693325996399,0.4819754301011837,0.736389696598053,0.7160562660012927
0.8550635576248169,0.44933350533860134,0.7332378029823303,0.7611876939024244
0.8769882917404175,0.4030453484547282,0.7272206544876099,0.8456526632819857
0.8923417329788208,0.36803852892446187,0.6805157661437988,1.1934999035937446
0.9094147086143494,0.34263628157787884,0.6372492909431458,1.4149673921721322
0.9255051016807556,0.30129017988872464,0.7031518816947937,0.9106318759066718
0.9352698922157288,0.2805993908406885,0.7206303477287292,1.0449557197945458
0.9342873096466064,0.2811918979894908,0.701146125793457,1.1549709822450365
0.9347171783447266,0.2722631163068305,0.6914039850234985,1.3477693966456823
0.9433150887489319,0.2525480511912124,0.7272206544876099,0.9927238694259098
0.9571946263313293,0.22716496419476137,0.719484269618988,1.0676212310791016
0.9645028710365295,0.20904248344666146,0.7401146292686462,1.0233818250043052
0.9697844386100769,0.19538916286641825,0.7174785137176514,1.6801893370492118
0.9684333205223083,0.1988121040610638,0.6888251900672913,1.919255439724241
0.9724252223968506,0.18725314758375294,0.6902579069137573,1.7140758548464095
0.9760486483573914,0.17907888550858808,0.6994269490242004,1.779780545404979
0.978566586971283,0.17308059964917666,0.6959885358810425,2.1882053911685944
0.9796720743179321,0.1692214557557963,0.7335243821144104,1.5967834336417062
0.9807775020599365,0.1648806316826909,0.7226361036300659,1.4313170867306846
0.9864275455474854,0.15023043016130214,0.6939827799797058,1.54683775135449
0.9925689101219177,0.13408185810862833,0.7378223538398743,1.2642373208488737
0.9960694909095764,0.12589269579426923,0.7289398312568665,1.2966142169066839
0.9772769212722778,0.1727725736847646,0.7085959911346436,1.4936028122901917
0.9950869083404541,0.12754376386549945,0.7226361036300659,1.376866681235177
0.9974820613861084,0.1198160175394457,0.7246418595314026,1.3370306832449776
0.9983418583869934,0.11509834345527827,0.7249283790588379,1.2252704777887888
0.9984646439552307,0.11452703650596723,0.7140401005744934,1.4223661848476954
0.9987103343009949,0.11213075416771748,0.7217764854431152,1.5216523494039262
0.9978505373001099,0.11162415978915201,0.7157593369483948,1.6542945206165314
0.996683657169342,0.1137931460091071,0.7103151679039001,1.6737544621740068
0.9922618865966797,0.12415290811917987,0.6842406988143921,1.858421197959355
0.9489037394523621,0.23591463645113808,0.6919770836830139,1.474557284797941
0.960572361946106,0.20583240756894156,0.7323782444000244,1.4140327061925615
0.9855063557624817,0.14372931642860845,0.7229226231575012,1.4870996049472265
0.9945955872535706,0.12176833037628572,0.732951283454895,1.3934519588947296
0.9985874891281128,0.11089086932507251,0.7303724884986877,1.5026481705052512
0.9997543692588806,0.10543629601767086,0.7398281097412109,1.3498990961483546
0.9998157620429993,0.10222107457351766,0.7338109016418457,1.522207694394248
1.0,0.09942455607936722,0.7366762161254883,1.4915565380028315
1.0,0.09728759041131879,0.7383953928947449,1.485678379024778
1.0,0.09556138533912405,0.7389684915542603,1.4822088479995728
1.0,0.09390412539066162,0.7398281097412109,1.4774114617279597
1.0,0.09224758646100611,0.7418338060379028,1.4754872449806757
0.9999386072158813,0.0910046204598795,0.7418338060379028,1.519841296332223
1.0,0.08906859191453612,0.7401146292686462,1.4682072741644723
1.0,0.0872194042498764,0.7401146292686462,1.4826557763985224
1.0,0.08543968875001633,0.737535834312439,1.480517919574465
1.0,0.08364465381914221,0.738681972026825,1.4730500067983354
1.0,0.08182526085653184,0.738681972026825,1.4602190256118774
1.0,0.0799818467864722,0.7392550110816956,1.4481448169265474
1.0,0.07811129380614416,0.7383953928947449,1.4353291711636953
1.0,0.07621629547362303,0.738681972026825,1.424447476863861
1.0,0.07429537000922176,0.7392550110816956,1.4159052244254522
1.0,0.07235187362610236,0.7395415306091309,1.4039253337042672
1.0,0.07038361019848577,0.7406876683235168,1.3936311538730348
1.0,0.06839236097199497,0.7398281097412109,1.3842556710754121
1.0,0.0663799257246742,0.7395415306091309,1.3753920836108071
1.0,0.06434620348635407,0.7412607669830322,1.3685386223452431
1.0,0.062293668385147355,0.7426934242248535,1.365160007561956
1.0,0.06022435672792135,0.7415472865104675,1.3580091489212853
1.0,0.05814099919799284,0.7404011487960815,1.367344155907631
1.0,0.05604469106045152,0.7366762161254883,1.376132641519819
1.0,0.05393819927689719,0.7349570393562317,1.388332330754825
1.0,0.0518254038333794,0.731805145740509,1.4128601338182176
1.0,0.04971104431518764,0.7303724884986877,1.4433617826019014
1.0,0.047596943541205444,0.7255014181137085,1.4785143307277135
1.0,0.04548724137234254,0.7229226231575012,1.5123647621699743
1.0,0.043387564590201586,0.7197707891464233,1.5510387888976507
1.0,0.04130204434496929,0.7148997187614441,1.601624995470047
1.0,0.03923609368409292,0.7137535810470581,1.6196517390864236
1.0,0.037193768259945706,0.7123209238052368,1.7141868599823542
1.0,0.0351812477647226,0.7114613056182861,1.7363281207425254
1.0,0.03320285278590212,0.7071633338928223,1.8465684056282043
1.0,0.03126449298829907,0.7020057439804077,1.9384406294141496
1.0,0.029371710572862357,0.7014326453208923,1.9126675512109483
1.0,0.027532013978182023,0.7065902352333069,1.8909189445631844
0.7459927797317505,0.6260755909189856,0.46532949805259705,1.7452202865055628
0.7652766704559326,0.5163159328692157,0.7446991205215454,0.5569926223584584
0.7853589653968811,0.48558782535154826,0.7452722191810608,0.5532642954162189
0.8040287494659424,0.45543938574118586,0.7449856996536255,0.5601769611239433
0.823681116104126,0.42463264957199387,0.765902578830719,0.5348978979246957
0.8404470682144165,0.3906356121690181,0.7484240531921387,0.5783690863421985
0.8585641384124756,0.35932549700092453,0.7406876683235168,0.6863640312637601
0.8752686977386475,0.33510746147824705,0.7042980194091797,0.9097146583454949
0.8750844597816467,0.33004144872061447,0.6796561479568481,1.1331099101475306
0.9020450711250305,0.27366783148016266,0.612607479095459,2.1912682056427
0.9060369729995728,0.268097500942237,0.6243553161621094,1.6438052228518896
0.9209604859352112,0.23036010466735193,0.7320916652679443,0.9081631260258811
0.9268562197685242,0.22173472088984977,0.7409741878509521,0.8592545092105865
0.9206534624099731,0.23503754482195782,0.6994269490242004,1.263601398893765
0.9196094274520874,0.24338601650396202,0.7292263507843018,1.1235953122377396
0.9300497174263,0.2157905780203123,0.7432664632797241,0.9305743191923413
0.9367438554763794,0.20103172167860187,0.7438395619392395,0.9968967608043126
0.954799473285675,0.15864831953577324,0.7538682222366333,1.0099112370184489
0.9551065564155579,0.1601293456226428,0.7326647639274597,1.0888696483203344
