acc,loss,val_acc,val_loss
0.5050666332244873,14.632760784824116,0.5005730390548706,6.682153071675982
0.5056807994842529,2.726234268422488,0.5005730390548706,0.7041881850787571
0.5202358365058899,0.7079321479413738,0.499426931142807,0.7259365831102643
0.5338696837425232,0.6992033789823061,0.499426931142807,0.7270989609616143
0.5387213826179504,0.6920876885444404,0.5564469695091248,0.6762190631457737
0.5247190594673157,0.7491244094630816,0.5008596181869507,0.706289312669209
0.5559172034263611,0.6812834250014032,0.6329512596130371,0.6699767623628888
0.5707179307937622,0.68214071089078,0.6280802488327026,0.6564573964902333
0.5777804851531982,0.6796974098002274,0.642120361328125,0.6477093611444745
0.5561014413833618,0.6791119794401045,0.5005730390548706,0.6791539064475468
0.5398882031440735,0.6825931712830381,0.499426931142807,0.6935105515377862
0.5032856464385986,0.6932593667996952,0.499426931142807,0.693330317735672
0.5032856464385986,0.6931847758384811,0.499426931142807,0.6932530041251864
0.5032856464385986,0.6931595713795164,0.499426931142807,0.6932184249162674
0.5032856464385986,0.6931514980524608,0.499426931142807,0.6932021698781422
0.5032856464385986,0.6931493653790163,0.499426931142807,0.6931944170168468
0.5032856464385986,0.6931493053277851,0.499426931142807,0.6931907598461423
0.5032856464385986,0.6931500193755428,0.499426931142807,0.6931891420057842
0.5032856464385986,0.6931510611005947,0.499426931142807,0.6931885949202946
0.5032856464385986,0.6931522305859678,0.499426931142807,0.6931884671960559
0.5032856464385986,0.6931534817820135,0.499426931142807,0.6931885246719632
0.5032856464385986,0.6931547562993877,0.499426931142807,0.69318873328822
0.5032856464385986,0.693156045166096,0.499426931142807,0.6931890036378588
0.5032856464385986,0.6931573562998959,0.499426931142807,0.6931892676012856
0.5032856464385986,0.6931586598124425,0.499426931142807,0.6931896167142051
0.5032856464385986,0.6931599582441534,0.499426931142807,0.6931898913213185
0.5032856464385986,0.6931612386733068,0.499426931142807,0.6931902340480259
0.5032856464385986,0.693162489953545,0.499426931142807,0.6931906299931663
0.5032856464385986,0.6931637102106694,0.499426931142807,0.6931908982140678
0.5032856464385986,0.6931648913072894,0.499426931142807,0.6931911877223423
0.5032856464385986,0.6931660389392124,0.499426931142807,0.6931915751525334
0.5032856464385986,0.6931671476083006,0.499426931142807,0.6931918540171215
0.5032856464385986,0.6931682112234081,0.499426931142807,0.6931922606059483
0.5032856464385986,0.6931692146664864,0.499426931142807,0.6931925139256886
0.5032856464385986,0.6931701621801065,0.499426931142807,0.6931927991764886
0.5032856464385986,0.6931710604484226,0.499426931142807,0.693193182349205
0.5032856464385986,0.6931719104561211,0.499426931142807,0.6931934526988438
0.5032856464385986,0.6931727037949315,0.499426931142807,0.6931936059679303
0.5032856464385986,0.6931734533865753,0.499426931142807,0.6931939486946378
0.5032856464385986,0.6931741468767155,0.499426931142807,0.6931941445384707
0.5032856464385986,0.693174780319285,0.499426931142807,0.6931944042444229
0.5032856464385986,0.6931753910994242,0.499426931142807,0.6931946511779513
0.5032856464385986,0.6931759496985025,0.499426931142807,0.6931948001895633
0.5032856464385986,0.6931764583860577,0.499426931142807,0.6931949406862259
0.5032856464385986,0.6931769437449633,0.499426931142807,0.6931951407875333
0.5032856464385986,0.6931773881680007,0.499426931142807,0.693195213164602
0.5032856464385986,0.6931777967360054,0.499426931142807,0.6931953600474766
0.5032856464385986,0.6931781659458366,0.499426931142807,0.693195498415402
0.5032856464385986,0.693178519719152,0.499426931142807,0.6931956900017602
0.5032856464385986,0.6931788441715065,0.499426931142807,0.6931957538638797
0.5032856464385986,0.693179138365801,0.499426931142807,0.6931958901030677
0.5032856464385986,0.6931794165561952,0.499426931142807,0.693195960351399
0.5032856464385986,0.6931796626143305,0.499426931142807,0.6931960518871035
0.5032856464385986,0.6931798904978628,0.499426931142807,0.6931961498090199
0.5032856464385986,0.6931800931053358,0.499426931142807,0.6931961753538677
0.5032856464385986,0.6931802822237028,0.499426931142807,0.6931962285723005
0.5032856464385986,0.6931804409851747,0.499426931142807,0.693196273275784
0.5032856464385986,0.6931805903024421,0.499426931142807,0.6931962881769452
0.5032856464385986,0.6931807166607749,0.499426931142807,0.6931963669402259
0.5032856464385986,0.6931808218611609,0.499426931142807,0.6931964052574975
0.5032856464385986,0.6931809189973677,0.499426931142807,0.6931964201586587
0.5032856464385986,0.6931809885147667,0.499426931142807,0.6931964457035065
0.5032856464385986,0.6931810478229075,0.499426931142807,0.6931964308023453
0.5032856464385986,0.6931810943813719,0.499426931142807,0.6931964159011841
0.5032856464385986,0.6931811253056511,0.499426931142807,0.6931964925357273
0.5032856464385986,0.6931811471554408,0.499426931142807,0.6931964308023453
0.5032856464385986,0.6931811496958585,0.499426931142807,0.6931964308023453
0.5032856464385986,0.6931811384762899,0.499426931142807,0.6931964244161334
0.5032856464385986,0.693181118822827,0.499426931142807,0.6931964201586587
0.5032856464385986,0.6931810914016887,0.499426931142807,0.6931964244161334
0.5032856464385986,0.6931810480498611,0.499426931142807,0.6931963584252766
0.5032856464385986,0.6931810042294839,0.499426931142807,0.6931963648114886
0.5032856464385986,0.6931809474873849,0.499426931142807,0.6931962924344199
0.5032856464385986,0.6931808801663125,0.499426931142807,0.6931962775332587
0.5032856464385986,0.6931808142508891,0.499426931142807,0.6931962157998767
0.5032856464385986,0.6931807294946436,0.499426931142807,0.6931961732251304
0.5032856464385986,0.6931806421247695,0.499426931142807,0.6931961604527065
0.5032856464385986,0.6931805621528555,0.499426931142807,0.6931961498090199
0.5032856464385986,0.693180465609657,0.499426931142807,0.6931960348572049
0.5032856464385986,0.6931803540728686,0.499426931142807,0.6931960220847811
0.5032856464385986,0.6931802535836031,0.499426931142807,0.6931959497077125
0.5032856464385986,0.6931801476694109,0.499426931142807,0.6931959007467542
0.5032856464385986,0.693180030608861,0.499426931142807,0.6931958943605423
0.5032856464385986,0.6931799069886154,0.499426931142807,0.6931957581213543
0.5032856464385986,0.6931797890898007,0.499426931142807,0.6931957517351423
0.5032856464385986,0.6931796576030452,0.499426931142807,0.693195749606405
0.5032856464385986,0.6931795366952631,0.499426931142807,0.6931956218821662
0.5032856464385986,0.6931794085871901,0.499426931142807,0.6931956154959542
0.5032856464385986,0.6931792701710239,0.499426931142807,0.6931955026728767
0.5032856464385986,0.6931791255648772,0.499426931142807,0.693195498415402
0.5032856464385986,0.6931789948431755,0.499426931142807,0.6931954004934856
0.5032856464385986,0.6931788423705187,0.499426931142807,0.6931953515325274
0.5032856464385986,0.6931786902675771,0.499426931142807,0.6931952834129333
0.5032856464385986,0.6931785420118676,0.499426931142807,0.6931952770267215
0.5032856464385986,0.6931783903774755,0.499426931142807,0.6931951514312199
0.5032856464385986,0.6931782309754082,0.499426931142807,0.6931950960840497
0.5032856464385986,0.693178071203626,0.499426931142807,0.6931950790541512
0.5032856464385986,0.6931779150814065,0.499426931142807,0.6931949555873871
0.5032856464385986,0.6931777527692065,0.499426931142807,0.693194934300014
0.5032856464385986,0.6931775778061648,0.499426931142807,0.6931948278631482
