acc,loss,val_acc,val_loss
0.5662961602210999,0.8430996011005297,0.498280793428421,0.8650662175246647
0.6073819398880005,0.7992568430682112,0.49369627237319946,0.8912719424281802
0.6465024948120117,0.755315417143927,0.5713467001914978,0.8061499893665314
0.6690413355827332,0.7232692047586636,0.5959885120391846,0.7687371458326068
0.6920100450515747,0.6945198007600134,0.6229226589202881,0.7536040714808873
0.715715765953064,0.657618856807822,0.6381089091300964,0.7317326239177159
0.7399128079414368,0.6257974331878089,0.6997134685516357,0.6786837513957705
0.7540993690490723,0.6058667026016787,0.6564469933509827,0.7270417128290448
0.7731990218162537,0.5753479703655922,0.644412636756897,0.7275124107088361
0.7911932468414307,0.5458007374724512,0.6610315442085266,0.6995457325662885
0.8032917976379395,0.5216842343193274,0.6813753843307495,0.7135246800524848
0.815881609916687,0.49953220002680354,0.6590257883071899,0.7841401717492512
0.8271816968917847,0.4819081192947698,0.6289398074150085,0.7708081943648202
0.8406927585601807,0.45864629565933696,0.6094555854797363,0.7667821092264993
0.8426579833030701,0.45300195819273825,0.6968481540679932,0.688132928950446
0.8417981863021851,0.45194683016821724,0.6446991562843323,0.7249864680426461
0.8513787388801575,0.4315074523825658,0.6802292466163635,0.7524251128946032
0.8556777238845825,0.41655427721998056,0.6982808113098145,0.8273923056466239
0.870601236820221,0.3959769352768121,0.730659008026123,0.7339371080909457
0.8788306713104248,0.3766912379238768,0.6925501227378845,0.8424259168761117
0.8939384818077087,0.3519361766507875,0.7014326453208923,0.7580408411366599
0.9045630693435669,0.3264328933776849,0.7280802130699158,0.7446150258183479
0.9075108766555786,0.31986610855611386,0.7226361036300659,0.7544162784303937
0.9224344491958618,0.29402677606564076,0.6647564172744751,0.8112874861274447
0.924583911895752,0.2891004151604447,0.6931232213973999,0.8931870205061776
0.928023099899292,0.28071003711568426,0.6435530185699463,0.9520264949117389
0.9158017635345459,0.30469134541838466,0.7146131992340088,0.9191878480570657
0.9139593243598938,0.312163643966778,0.6607449650764465,1.1098465898207255
0.931462287902832,0.26984282081320665,0.6919770836830139,1.0428624876907893
0.9530184864997864,0.22857152388073598,0.7123209238052368,1.0232471972703934
0.9677577614784241,0.19486380282402596,0.7166188955307007,1.0880761870316096
0.9755573272705078,0.17610614439506303,0.730659008026123,1.1177119250808443
0.9732236266136169,0.17946572457478233,0.7200573086738586,0.9957047147410256
0.969907283782959,0.18225139781154578,0.6853868365287781,1.184999087027141
0.9739605784416199,0.17588411311380533,0.6767908334732056,1.2056813410350256
0.9728551506996155,0.17449157885318964,0.706876814365387,1.2731802314519882
0.9707056283950806,0.17887522220366317,0.7197707891464233,1.1815148166247778
0.9725480675697327,0.17757315326282785,0.7300859689712524,1.0205985243831361
0.9643186330795288,0.19523927853401835,0.6859598755836487,1.4091317440782274
0.9666523337364197,0.1893549048017681,0.6810888051986694,1.3876629982675825
0.9677577614784241,0.18818692958253186,0.6590257883071899,1.5298740097454615
0.9629061222076416,0.1994233344974004,0.6610315442085266,1.5869142753737313
0.9619234800338745,0.20679978217977876,0.7071633338928223,1.3766300805977412
0.9571332335472107,0.21046387029958505,0.6968481540679932,1.6074912760938918
0.9627218842506409,0.2046571946192423,0.6822349429130554,1.5775381454399653
0.9673892855644226,0.1894390738652649,0.6111747622489929,1.6444098481110163
0.9729165434837341,0.17590817831342725,0.6813753843307495,1.160563581756183
0.9796720743179321,0.16314302346875215,0.7349570393562317,1.1849378837006432
0.9882699847221375,0.14472241319639562,0.7478510141372681,1.1098333575895853
0.9933059215545654,0.13277142981357512,0.7587392330169678,1.1578554340771265
0.9937357902526855,0.12787744026535713,0.7383953928947449,1.2362037003040314
0.99656081199646,0.12068090605608026,0.7312321066856384,1.2802459938185555
0.9958852529525757,0.11971680918914464,0.7220630645751953,1.3160074523517065
0.9945341944694519,0.12326264792853885,0.7444126009941101,1.2703441040856498
0.9936129450798035,0.12346443580203287,0.7507163286209106,1.280737510749272
0.9917091727256775,0.1289558923102447,0.7424069046974182,1.425046946321215
0.9891911745071411,0.13337970162220614,0.7421203255653381,1.51792231627873
0.9842780828475952,0.14287711939102,0.7091690301895142,1.6818192643778664
0.9770926833152771,0.16021975651241555,0.7383953928947449,1.605904025690896
0.9821286201477051,0.15109673138772622,0.734097421169281,1.3536759444645472
0.9867960214614868,0.13847598395058852,0.7481375336647034,1.2075181773730688
0.9886998534202576,0.13344909181689218,0.74985671043396,1.2569951266050339
0.9902966022491455,0.13073937893362236,0.7484240531921387,1.3038089190210616
0.9913406372070312,0.12799204268837594,0.7521489858627319,1.2874399913208825
0.9884542226791382,0.1352930578700537,0.7277936935424805,1.4183557480573654
0.9856905937194824,0.13941992061393513,0.736389696598053,1.5376390261309487
0.9797334671020508,0.15793200385008266,0.7346704602241516,1.2905901159558977
0.9848307967185974,0.14270555919837813,0.7143266201019287,1.5424349563462394
0.9904194474220276,0.12849355518528718,0.720343828201294,1.7040459428514754
0.9851992726325989,0.14179451930779524,0.7085959911346436,1.3507062963077001
0.9861205220222473,0.13947381169658135,0.7415472865104675,1.54989526953016
0.9834796786308289,0.14691670534652185,0.7424069046974182,1.3828137857573373
0.9881471395492554,0.13406529171636092,0.732951283454895,1.3950778650385993
0.9911563992500305,0.12728276947536216,0.7257879376411438,1.2576038454260146
0.9920161962509155,0.12355032436874995,0.7312321066856384,1.4237821293728692
0.9886384606361389,0.1304105062602574,0.706876814365387,1.5845263983522142
0.987041711807251,0.13442369301869814,0.7237822413444519,1.346954909818513
0.9916477203369141,0.12450291631662208,0.737535834312439,1.3904633202723093
0.9898667335510254,0.12791645722267544,0.7467048764228821,1.475741024528231
0.9856292009353638,0.13730359933654954,0.7252148985862732,1.803248826946531
0.9848921895027161,0.1438534803926919,0.7146131992340088,1.6209960558584757
0.9847694039344788,0.1407682150483373,0.6859598755836487,1.339075458901269
0.9829884171485901,0.1475998716779945,0.7042980194091797,1.3662321759121758
0.9895596504211426,0.13143874356674268,0.7157593369483948,1.495681187936238
0.9909721612930298,0.1267175970805304,0.7074498534202576,1.5050880802529198
0.9885770678520203,0.13241348033040526,0.6842406988143921,1.4091078851904189
0.9902966022491455,0.12721160524861347,0.7286533117294312,1.4945381581783295
0.989928126335144,0.12842259494786706,0.7412607669830322,1.5171464745487486
0.9879629015922546,0.13240251342123047,0.6896848082542419,1.5733912629740578
0.9892525672912598,0.13057647066055056,0.7197707891464233,1.5873781612941198
0.9892525672912598,0.12916044029829024,0.7555873990058899,1.3825591887746538
0.9896824955940247,0.12955697117654638,0.7378223538398743,1.529528517808233
0.9918319582939148,0.12275286567014945,0.6891117691993713,1.5240051065172469
0.9939200282096863,0.11699764049460244,0.7148997187614441,1.3698981148856026
0.9925689101219177,0.11966602101593501,0.736389696598053,1.5448225481169564
0.9907265305519104,0.12589302140518613,0.7249283790588379,1.4792667648621969
0.9875330328941345,0.13380285985056323,0.7349570393562317,1.7414320643459047
0.9840324521064758,0.1447358758537737,0.75014328956604,1.3421587603432792
0.9875944256782532,0.13258733621929492,0.7555873990058899,1.3806425354310445
0.9931830763816833,0.11804211380817319,0.7286533117294312,1.4111283464091164
