acc,loss,val_acc,val_loss
0.6080574989318848,1.9795814017285178,0.6722062826156616,0.6082178630999157
0.696984589099884,0.5867497192834494,0.6899713277816772,0.5891204008034298
0.7159000039100647,0.5566426467827422,0.6994269490242004,0.577179376568113
0.7628815174102783,0.49153235755109936,0.6796561479568481,0.5920367985963821
0.831296443939209,0.3872510563596595,0.6521490216255188,0.674221681697028
0.8771725296974182,0.2983417390108288,0.6510028839111328,1.003934430224555
0.9038260579109192,0.24686495283793475,0.5297994017601013,2.1156774205820903
0.897070586681366,0.2560110369495083,0.6180515885353088,0.9967488540070397
0.9522815346717834,0.13585739442109165,0.638681948184967,1.1125671501670564
0.9719953536987305,0.08751398524265916,0.6550143361091614,1.383587537067277
0.9823742508888245,0.05939282434705654,0.6263610124588013,1.3637399013553346
0.9909721612930298,0.0371702634027936,0.6361031532287598,1.5174418602670943
0.9921390414237976,0.03003442027257575,0.6329512596130371,1.6566954680851527
0.9912792444229126,0.03060892050996847,0.6504297852516174,1.7384433107716697
0.9916477203369141,0.0359445105305646,0.6329512596130371,1.6476379207202367
0.9906036853790283,0.03237077500734064,0.6100286245346069,1.5979194853987013
0.9957624673843384,0.018334138115332632,0.6206303834915161,1.8954016949449266
0.9982190132141113,0.007622704021121983,0.6404011249542236,2.1241290995052884
0.9995086789131165,0.0034337409395945495,0.638681948184967,2.1899868973663876
1.0,0.0010441126190224642,0.640974223613739,2.499260902404785
1.0,0.0005309141170556567,0.6381089091300964,2.6349021068641116
1.0,0.00036942882702964023,0.6395415663719177,2.7348180072648183
1.0,0.0002794288475134569,0.643266499042511,2.8253604003361295
1.0,0.00020732964100655965,0.6415472626686096,2.931085867541177
1.0,0.00015825228690083575,0.6426934003829956,3.03933447599411
1.0,0.0001222110961398655,0.6426934003829956,3.1411308901650563
1.0,9.394741390292622e-05,0.6429799199104309,3.2319940328598022
1.0,7.285657207505284e-05,0.643266499042511,3.3180166568074907
1.0,5.631522198262567e-05,0.6438395380973816,3.3955071483339583
1.0,4.393975117331087e-05,0.6429799199104309,3.470725621495928
1.0,3.50919987125448e-05,0.642120361328125,3.5404016971588135
1.0,2.8280064370462672e-05,0.6415472626686096,3.6088562267167226
1.0,2.324515440790291e-05,0.6412607431411743,3.6715378846440996
1.0,1.9367420865423647e-05,0.6415472626686096,3.736068061419896
1.0,1.6206519636806712e-05,0.6406877040863037,3.7965719444411143
1.0,1.3791747832714408e-05,0.6412607431411743,3.854639232158661
1.0,1.1807703792713328e-05,0.6412607431411743,3.911820556436266
1.0,1.0177593917623582e-05,0.6424068808555603,3.966646194458008
1.0,8.822079985512618e-06,0.640974223613739,4.020251291138785
1.0,7.683478088242785e-06,0.6404011249542236,4.072323816163199
1.0,6.743691719528801e-06,0.6404011249542236,4.12231992823737
1.0,5.930934062194667e-06,0.6395415663719177,4.171141709600176
1.0,5.237295450353896e-06,0.639828085899353,4.220196783542633
1.0,4.664701659897268e-06,0.6395415663719177,4.266808075564248
1.0,4.135295821217044e-06,0.6404011249542236,4.312680099691663
1.0,3.6897199716476847e-06,0.6401146054267883,4.359156055109842
1.0,3.2985511600823624e-06,0.6401146054267883,4.403019257954189
1.0,2.9534604378623606e-06,0.6395415663719177,4.446590789726803
1.0,2.6498145955272676e-06,0.639828085899353,4.488938246454511
1.0,2.3958648672239495e-06,0.6395415663719177,4.530745123113904
1.0,2.147076289526789e-06,0.639828085899353,4.570282944611141
1.0,1.9399171731961235e-06,0.6389684677124023,4.6110562937600275
1.0,1.7536943469704087e-06,0.6381089091300964,4.6500215615545
1.0,1.5880927168312255e-06,0.6383954286575317,4.687873584883554
1.0,1.4404189379670789e-06,0.6381089091300964,4.7261742523738315
1.0,1.3190399940790712e-06,0.6383954286575317,4.762387292725699
1.0,1.1946013372986971e-06,0.638681948184967,4.800074551786695
1.0,1.0893429705387025e-06,0.639828085899353,4.836106785706112
1.0,9.895966748678175e-07,0.6389684677124023,4.87276303768158
1.0,9.083789701931974e-07,0.6389684677124023,4.907535135746002
1.0,8.263487513979852e-07,0.6395415663719177,4.942772013800485
1.0,7.566758170034268e-07,0.6395415663719177,4.976875535079411
1.0,6.92427513644759e-07,0.6392549872398376,5.010795763560703
1.0,6.337063865581109e-07,0.6383954286575317,5.044371230261667
1.0,5.818814526660174e-07,0.6381089091300964,5.079037317207882
1.0,5.3428064052896e-07,0.6378223299980164,5.111915486199515
1.0,4.908893134225896e-07,0.6383954286575317,5.144722282886505
1.0,4.527617109485121e-07,0.6383954286575317,5.177180647850037
1.0,4.1595182799914707e-07,0.6383954286575317,5.209162873881204
1.0,3.8294882279844914e-07,0.6383954286575317,5.24041964326586
1.0,3.5327683538870364e-07,0.6381089091300964,5.270740228039878
1.0,3.247834981977964e-07,0.6378223299980164,5.302626814161028
1.0,2.9997260295492284e-07,0.6378223299980164,5.333450743130276
1.0,2.764575111020138e-07,0.6378223299980164,5.364027661936624
1.0,2.553363721728456e-07,0.6378223299980164,5.394757279327938
1.0,2.358990559559791e-07,0.6378223299980164,5.425250061920711
1.0,2.177136236881665e-07,0.6372492909431458,5.455082552773612
1.0,2.014902162743342e-07,0.6372492909431458,5.484945382390704
1.0,1.8661387042159965e-07,0.6369627714157104,5.514308018343789
1.0,1.7221338506004312e-07,0.6366761922836304,5.543608222688947
1.0,1.5984814365160278e-07,0.6366761922836304,5.573079858507429
1.0,1.479294813275463e-07,0.6363896727561951,5.6023271424429755
1.0,1.3724807233847819e-07,0.6363896727561951,5.6319833142416815
1.0,1.2734268773621055e-07,0.6363896727561951,5.660121236528669
1.0,1.1780335427895668e-07,0.6358166337013245,5.688948018210275
1.0,1.0928164427101268e-07,0.6358166337013245,5.717452151434762
1.0,1.0157256998103035e-07,0.6358166337013245,5.746655975069318
1.0,9.40977667356949e-08,0.6358166337013245,5.7751399619238715
1.0,8.802859763822648e-08,0.6363896727561951,5.8039244413375854
1.0,8.178373298883796e-08,0.6361031532287598,5.8324273484093805
1.0,7.538512875541303e-08,0.6361031532287598,5.860079526901245
1.0,7.00553920000867e-08,0.6358166337013245,5.887422544615609
1.0,6.500385433893382e-08,0.6358166337013245,5.916131411279951
1.0,6.039158064517152e-08,0.6361031532287598,5.943893790245056
1.0,5.607946984130579e-08,0.6361031532287598,5.972020660127912
1.0,5.2367686339294885e-08,0.6361031532287598,5.997950213296073
1.0,4.843626931336305e-08,0.6358166337013245,6.024997728211539
1.0,4.515642881699766e-08,0.6361031532287598,6.052743111337934
1.0,4.216943044005057e-08,0.6361031532287598,6.078542607171195
1.0,3.927028460832474e-08,0.6363896727561951,6.105465020452227
