epoch,scaling,scale,wavelength,sigma
0.0,0.10000000149011612,0.10000000149011612,0.10000000149011612,0.33000001311302185
1.0,0.0958792194724083,0.104772187769413,0.0954892709851265,0.34456169605255127
2.0,0.1025097668170929,0.09911053627729416,0.10151909291744232,0.34234267473220825
3.0,0.10279430449008942,0.10106965154409409,0.10037612169981003,0.3490792512893677
4.0,0.11145544052124023,0.09427656978368759,0.10788822919130325,0.3425314128398895
5.0,0.10964149981737137,0.09744871407747269,0.10518393665552139,0.3461005687713623
6.0,0.11139663308858871,0.09800741821527481,0.1054646298289299,0.3465892970561981
7.0,0.11337288469076157,0.0966864749789238,0.1070418432354927,0.340893030166626
8.0,0.10483264178037643,0.10572425276041031,0.09811172634363174,0.34793296456336975
9.0,0.10902485996484756,0.10310816019773483,0.10134980827569962,0.34593290090560913
10.0,0.10753301531076431,0.10543901473283768,0.09931959211826324,0.3493622839450836
11.0,0.10878066718578339,0.10555848479270935,0.09974329173564911,0.34938180446624756
12.0,0.12027553468942642,0.09466951340436935,0.11096861213445663,0.33954912424087524
13.0,0.11978162080049515,0.09561704099178314,0.11018770933151245,0.3400731384754181
14.0,0.09721878916025162,0.1209690123796463,0.08584896475076675,0.3669172525405884
15.0,0.12331125885248184,0.0994957983493805,0.10938645154237747,0.3486928939819336
16.0,0.12333563715219498,0.09950146824121475,0.1093926876783371,0.3477059006690979
17.0,0.1228276714682579,0.10004732757806778,0.10885589569807053,0.3479018807411194
18.0,0.12219899147748947,0.10070488601922989,0.1082024872303009,0.348486065864563
19.0,0.12313603609800339,0.09973735362291336,0.1091686487197876,0.3473092317581177
20.0,0.12276054918766022,0.10013192147016525,0.10877728462219238,0.34760430455207825
21.0,0.12273851782083511,0.10015501081943512,0.10875437408685684,0.3476218283176422
22.0,0.1227480098605156,0.10014510154724121,0.10876422375440598,0.34761348366737366
23.0,0.12278427928686142,0.10010713338851929,0.10880190879106522,0.34757569432258606
24.0,0.12279532104730606,0.10009560734033585,0.10881343483924866,0.34756502509117126
25.0,0.12280062586069107,0.10009004920721054,0.10881893336772919,0.34756162762641907
26.0,0.12280933558940887,0.10008087009191513,0.10882805287837982,0.3475528061389923
27.0,0.12281282991170883,0.10007724165916443,0.10883162915706635,0.34755027294158936
28.0,0.12281513214111328,0.10007482767105103,0.10883405804634094,0.3475489616394043
29.0,0.12281272560358047,0.10007735341787338,0.10883153975009918,0.3475530743598938
30.0,0.12281239777803421,0.10007768869400024,0.10883123427629471,0.3475547730922699
31.0,0.12282265722751617,0.1000668853521347,0.10884195566177368,0.34754228591918945
32.0,0.12282560765743256,0.10006378591060638,0.1088450625538826,0.3475395143032074
33.0,0.12283171713352203,0.10005737096071243,0.10885144770145416,0.347533255815506
34.0,0.12282662093639374,0.10006272792816162,0.10884612053632736,0.34754014015197754
35.0,0.12282981723546982,0.10005933046340942,0.10884950309991837,0.3475363254547119
36.0,0.12282831221818924,0.10006094723939896,0.10884793102741241,0.3475382924079895
37.0,0.12283052504062653,0.10005863755941391,0.10885022580623627,0.347535640001297
38.0,0.12282634526491165,0.10006298869848251,0.10884591192007065,0.34754040837287903
39.0,0.1228254958987236,0.10006387531757355,0.10884499549865723,0.3475407063961029
40.0,0.12282563745975494,0.1000637486577034,0.10884512960910797,0.3475399315357208
41.0,0.1228247880935669,0.10006463527679443,0.10884423553943634,0.3475401997566223
42.0,0.12282435595989227,0.10006513446569443,0.10884373635053635,0.3475399911403656
43.0,0.12282373756170273,0.10006576776504517,0.10884308815002441,0.34753987193107605
44.0,0.12282426655292511,0.10006523877382278,0.1088436096906662,0.3475385308265686
45.0,0.12282344698905945,0.10006606578826904,0.10884276032447815,0.34753847122192383
46.0,0.12282328307628632,0.10006625950336456,0.10884258896112442,0.34753796458244324
47.0,0.12282214313745499,0.10006742924451828,0.1088414341211319,0.34753841161727905
48.0,0.12282195687294006,0.10006760060787201,0.10884125530719757,0.3475378751754761
49.0,0.12282103300094604,0.10006854683160782,0.10884030163288116,0.347538024187088
50.0,0.12281979620456696,0.10006988048553467,0.1088389903306961,0.34753885865211487
51.0,0.12281955778598785,0.10007016360759735,0.10883870720863342,0.3475382924079895
52.0,0.1228184700012207,0.10007134079933167,0.1088375523686409,0.34753885865211487
53.0,0.12281684577465057,0.10007305443286896,0.10883583128452301,0.3475397527217865
54.0,0.12281257659196854,0.10007752478122711,0.10883138328790665,0.34754401445388794
55.0,0.1228090450167656,0.1000811979174614,0.10882771015167236,0.3475472033023834
56.0,0.12280701845884323,0.10008326917886734,0.10882564634084702,0.3475489616394043
57.0,0.12280496209859848,0.10008542984724045,0.10882348567247391,0.34755071997642517
58.0,0.12280231714248657,0.10008812695741653,0.10882081836462021,0.34755322337150574
59.0,0.12280324101448059,0.10008715838193893,0.10882176458835602,0.3475515842437744
60.0,0.12280303984880447,0.10008734464645386,0.10882158577442169,0.34755128622055054
61.0,0.12280336767435074,0.10008694976568222,0.10882196575403214,0.34755003452301025
62.0,0.12279997766017914,0.10009051859378815,0.10881845653057098,0.3475533127784729
63.0,0.1228037104010582,0.10008656978607178,0.10882237553596497,0.34754839539527893
64.0,0.1228002980351448,0.10009019076824188,0.10881876200437546,0.34755146503448486
65.0,0.12279988825321198,0.10009060800075531,0.10881834477186203,0.34755104780197144
66.0,0.12280105799436569,0.10008936375379562,0.10881958901882172,0.34754881262779236
67.0,0.12279734015464783,0.1000932827591896,0.10881571471691132,0.34755221009254456
68.0,0.12280014902353287,0.10009035468101501,0.10881862044334412,0.34754809737205505
69.0,0.12279649078845978,0.10009420663118362,0.1088147759437561,0.34755152463912964
70.0,0.12279966473579407,0.10009095072746277,0.10881798714399338,0.34754684567451477
71.0,0.1227954551577568,0.10009536147117615,0.10881360620260239,0.3475508391857147
72.0,0.12279833853244781,0.1000923365354538,0.10881660878658295,0.34754669666290283
73.0,0.12279496341943741,0.10009584575891495,0.1088130921125412,0.34754976630210876
74.0,0.12279725819826126,0.10009340196847916,0.10881552845239639,0.3475460708141327
75.0,0.12279462069272995,0.10009612888097763,0.1088128387928009,0.34754830598831177
76.0,0.12279467284679413,0.10009606182575226,0.10881291329860687,0.34754717350006104
77.0,0.12279456108808517,0.10009617358446121,0.10881277918815613,0.34754645824432373
78.0,0.12279512733221054,0.10009557753801346,0.10881337523460388,0.3475448787212372
79.0,0.12279200553894043,0.10009884834289551,0.10881014913320541,0.3475472331047058
80.0,0.12279406189918518,0.10009664297103882,0.10881230980157852,0.3475438356399536
81.0,0.12279162555932999,0.10009916871786118,0.10880979895591736,0.3475457727909088
82.0,0.12279152870178223,0.10009928047657013,0.10880967229604721,0.3475448191165924
83.0,0.12279053032398224,0.1001003086566925,0.10880865901708603,0.34754469990730286
84.0,0.12278997153043747,0.10010090470314026,0.10880803316831589,0.3475443124771118
85.0,0.12278954684734344,0.1001012921333313,0.10880764573812485,0.34754350781440735
86.0,0.12278874963521957,0.10010211914777756,0.10880682617425919,0.3475431501865387
87.0,0.12278857082128525,0.10010228306055069,0.10880666971206665,0.3475421965122223
88.0,0.12278742343187332,0.10010350495576859,0.10880543291568756,0.34754225611686707
89.0,0.12278570979833603,0.10010533779859543,0.1088036373257637,0.34754297137260437
90.0,0.12278616428375244,0.10010480880737305,0.1088041439652443,0.3475411534309387
91.0,0.12278512865304947,0.10010581463575363,0.10880312323570251,0.347540944814682
92.0,0.12278343737125397,0.10010762512683868,0.10880133509635925,0.347541481256485
93.0,0.1227826476097107,0.10010846704244614,0.10880051553249359,0.3475411534309387
94.0,0.12278183549642563,0.10010932385921478,0.10879968851804733,0.3475405275821686
95.0,0.12278106063604355,0.10011021047830582,0.1087988018989563,0.3475402593612671
96.0,0.12278130650520325,0.10010998696088791,0.1087990328669548,0.34753844141960144
97.0,0.1227797195315361,0.10011165589094162,0.10879737138748169,0.34753865003585815
98.0,0.12277887016534805,0.10011257976293564,0.10879644751548767,0.34753814339637756
99.0,0.12277865409851074,0.10011280328035355,0.10879624634981155,0.34753692150115967
100.0,0.12277780473232269,0.10011371970176697,0.10879536718130112,0.3475363552570343
