epoch,scaling,scale,wavelength,sigma
0.0,0.10000000149011612,0.10000000149011612,0.10000000149011612,0.33000001311302185
1.0,0.0870416983962059,0.11285395175218582,0.08710899949073792,0.35561278462409973
2.0,0.08479658514261246,0.11505571752786636,0.08488743007183075,0.36128872632980347
3.0,0.08319889008998871,0.11658132076263428,0.08333022147417068,0.36353716254234314
4.0,0.08276581019163132,0.11708610504865646,0.08285510540008545,0.3649720251560211
5.0,0.08170595020055771,0.11832525581121445,0.08169159293174744,0.36735132336616516
6.0,0.08277302980422974,0.11747616529464722,0.08263740688562393,0.3675565719604492
7.0,0.0810580775141716,0.1193990707397461,0.08080457150936127,0.37236741185188293
8.0,0.08116094022989273,0.1197892427444458,0.08063888549804688,0.37755972146987915
9.0,0.08315370976924896,0.11842914670705795,0.08229891955852509,0.38037511706352234
10.0,0.08470509946346283,0.11715153604745865,0.0837085172533989,0.38230013847351074
11.0,0.08529999852180481,0.11671638488769531,0.08421994000673294,0.3832011818885803
12.0,0.08530417084693909,0.11671239137649536,0.08422399312257767,0.3831995725631714
13.0,0.08530417084693909,0.11671239137649536,0.08422399312257767,0.3831995725631714
14.0,0.08530417084693909,0.11671239137649536,0.08422399312257767,0.3831995725631714
15.0,0.08530417084693909,0.11671239137649536,0.08422399312257767,0.3831995725631714
16.0,0.08530417084693909,0.11671239137649536,0.08422399312257767,0.3831995725631714
17.0,0.08530417084693909,0.11671239137649536,0.08422399312257767,0.3831995725631714
18.0,0.08530417084693909,0.11671239137649536,0.08422399312257767,0.3831995725631714
19.0,0.08530417084693909,0.11671239137649536,0.08422399312257767,0.3831995725631714
20.0,0.08530417084693909,0.11671239137649536,0.08422399312257767,0.3831995725631714
21.0,0.08530417084693909,0.11671239137649536,0.08422399312257767,0.3831995725631714
22.0,0.08530417084693909,0.11671239137649536,0.08422399312257767,0.3831995725631714
23.0,0.08530417084693909,0.11671239137649536,0.08422399312257767,0.3831995725631714
24.0,0.08530417084693909,0.11671239137649536,0.08422399312257767,0.3831995725631714
25.0,0.08530417084693909,0.11671239137649536,0.08422399312257767,0.3831995725631714
26.0,0.08530417084693909,0.11671239137649536,0.08422399312257767,0.3831995725631714
27.0,0.08530417084693909,0.11671239137649536,0.08422399312257767,0.3831995725631714
28.0,0.08530417084693909,0.11671239137649536,0.08422399312257767,0.3831995725631714
29.0,0.08530417084693909,0.11671239137649536,0.08422399312257767,0.3831995725631714
30.0,0.08530417084693909,0.11671239137649536,0.08422399312257767,0.3831995725631714
31.0,0.08530417084693909,0.11671239137649536,0.08422399312257767,0.3831995725631714
32.0,0.08530417084693909,0.11671239137649536,0.08422399312257767,0.3831995725631714
33.0,0.08530417084693909,0.11671239137649536,0.08422399312257767,0.3831995725631714
34.0,0.08530417084693909,0.11671239137649536,0.08422399312257767,0.3831995725631714
35.0,0.08530417084693909,0.11671239137649536,0.08422399312257767,0.3831995725631714
36.0,0.08530417084693909,0.11671239137649536,0.08422399312257767,0.3831995725631714
37.0,0.08530417084693909,0.11671239137649536,0.08422399312257767,0.3831995725631714
38.0,0.08530417084693909,0.11671239137649536,0.08422399312257767,0.3831995725631714
39.0,0.08530417084693909,0.11671239137649536,0.08422399312257767,0.3831995725631714
40.0,0.08530417084693909,0.11671239137649536,0.08422399312257767,0.3831995725631714
41.0,0.08530417084693909,0.11671239137649536,0.08422399312257767,0.3831995725631714
42.0,0.08530417084693909,0.11671239137649536,0.08422399312257767,0.3831995725631714
43.0,0.08530417084693909,0.11671239137649536,0.08422399312257767,0.3831995725631714
44.0,0.08530417084693909,0.11671239137649536,0.08422399312257767,0.3831995725631714
45.0,0.08530417084693909,0.11671239137649536,0.08422399312257767,0.3831995725631714
46.0,0.08530417084693909,0.11671239137649536,0.08422399312257767,0.3831995725631714
47.0,0.08530417084693909,0.11671239137649536,0.08422399312257767,0.3831995725631714
48.0,0.08530417084693909,0.11671239137649536,0.08422399312257767,0.3831995725631714
49.0,0.08530417084693909,0.11671239137649536,0.08422399312257767,0.3831995725631714
50.0,0.08530417084693909,0.11671239137649536,0.08422399312257767,0.3831995725631714
51.0,0.08530417084693909,0.11671239137649536,0.08422399312257767,0.3831995725631714
52.0,0.08530417084693909,0.11671239137649536,0.08422399312257767,0.3831995725631714
53.0,0.08530417084693909,0.11671239137649536,0.08422399312257767,0.3831995725631714
54.0,0.08530417084693909,0.11671239137649536,0.08422399312257767,0.3831995725631714
55.0,0.08530417084693909,0.11671239137649536,0.08422399312257767,0.3831995725631714
56.0,0.08530417084693909,0.11671239137649536,0.08422399312257767,0.3831995725631714
57.0,0.08530417084693909,0.11671239137649536,0.08422399312257767,0.3831995725631714
58.0,0.08530417084693909,0.11671239137649536,0.08422399312257767,0.3831995725631714
59.0,0.08530417084693909,0.11671239137649536,0.08422399312257767,0.3831995725631714
60.0,0.08530417084693909,0.11671239137649536,0.08422399312257767,0.3831995725631714
61.0,0.08530417084693909,0.11671239137649536,0.08422399312257767,0.3831995725631714
62.0,0.08530417084693909,0.11671239137649536,0.08422399312257767,0.3831995725631714
63.0,0.08530417084693909,0.11671239137649536,0.08422399312257767,0.3831995725631714
64.0,0.08530417084693909,0.11671239137649536,0.08422399312257767,0.3831995725631714
65.0,0.08530417084693909,0.11671239137649536,0.08422399312257767,0.3831995725631714
66.0,0.08530417084693909,0.11671239137649536,0.08422399312257767,0.3831995725631714
67.0,0.08530417084693909,0.11671239137649536,0.08422399312257767,0.3831995725631714
68.0,0.08530417084693909,0.11671239137649536,0.08422399312257767,0.3831995725631714
69.0,0.08530417084693909,0.11671239137649536,0.08422399312257767,0.3831995725631714
70.0,0.08530417084693909,0.11671239137649536,0.08422399312257767,0.3831995725631714
71.0,0.08530417084693909,0.11671239137649536,0.08422399312257767,0.3831995725631714
72.0,0.08530417084693909,0.11671239137649536,0.08422399312257767,0.3831995725631714
73.0,0.08530417084693909,0.11671239137649536,0.08422399312257767,0.3831995725631714
74.0,0.08530417084693909,0.11671239137649536,0.08422399312257767,0.3831995725631714
75.0,0.08530417084693909,0.11671239137649536,0.08422399312257767,0.3831995725631714
76.0,0.08530417084693909,0.11671239137649536,0.08422399312257767,0.3831995725631714
77.0,0.08530417084693909,0.11671239137649536,0.08422399312257767,0.3831995725631714
78.0,0.08530417084693909,0.11671239137649536,0.08422399312257767,0.3831995725631714
79.0,0.08530417084693909,0.11671239137649536,0.08422399312257767,0.3831995725631714
80.0,0.08530417084693909,0.11671239137649536,0.08422399312257767,0.3831995725631714
81.0,0.08530417084693909,0.11671239137649536,0.08422399312257767,0.3831995725631714
82.0,0.08530417084693909,0.11671239137649536,0.08422399312257767,0.3831995725631714
83.0,0.08530417084693909,0.11671239137649536,0.08422399312257767,0.3831995725631714
84.0,0.08530417084693909,0.11671239137649536,0.08422399312257767,0.3831995725631714
85.0,0.08530417084693909,0.11671239137649536,0.08422399312257767,0.3831995725631714
86.0,0.08530417084693909,0.11671239137649536,0.08422399312257767,0.3831995725631714
87.0,0.08530417084693909,0.11671239137649536,0.08422399312257767,0.3831995725631714
88.0,0.08530417084693909,0.11671239137649536,0.08422399312257767,0.3831995725631714
89.0,0.08530417084693909,0.11671239137649536,0.08422399312257767,0.3831995725631714
90.0,0.08530417084693909,0.11671239137649536,0.08422399312257767,0.3831995725631714
91.0,0.08530417084693909,0.11671239137649536,0.08422399312257767,0.3831995725631714
92.0,0.08530417084693909,0.11671239137649536,0.08422399312257767,0.3831995725631714
93.0,0.08530417084693909,0.11671239137649536,0.08422399312257767,0.3831995725631714
94.0,0.08530417084693909,0.11671239137649536,0.08422399312257767,0.3831995725631714
95.0,0.08530417084693909,0.11671239137649536,0.08422399312257767,0.3831995725631714
96.0,0.08530417084693909,0.11671239137649536,0.08422399312257767,0.3831995725631714
97.0,0.08530417084693909,0.11671239137649536,0.08422399312257767,0.3831995725631714
98.0,0.08530417084693909,0.11671239137649536,0.08422399312257767,0.3831995725631714
99.0,0.08530417084693909,0.11671239137649536,0.08422399312257767,0.3831995725631714
100.0,0.08530417084693909,0.11671239137649536,0.08422399312257767,0.3831995725631714
