acc,loss,val_acc,val_loss
0.8105000257492065,0.5327079358100891,0.8706666827201843,0.3590623433602617
0.8768958449363708,0.34360101381937663,0.8859999775886536,0.31328612486732765
0.8916041851043701,0.29723824961980183,0.8920833468437195,0.2958161517026577
0.903333306312561,0.26331734071175256,0.8961666822433472,0.28450849018198376
0.913895845413208,0.23435111051797866,0.9005833268165588,0.276929766653066
0.9240208268165588,0.2093287318746249,0.9010833501815796,0.27788369373438204
0.9321666955947876,0.1872024486064911,0.8974166512489319,0.29283386667041067
0.940458357334137,0.1666641533970833,0.8996666669845581,0.29490944917531725
0.9474999904632568,0.14968034690618515,0.9018333554267883,0.3039735010329713
0.95291668176651,0.13375837714473407,0.9001666903495789,0.31153549792918755
0.9590208530426025,0.11647952449321747,0.9010000228881836,0.315541619712368
0.9622708559036255,0.10654507044951121,0.906000018119812,0.3079287420879019
0.9674791693687439,0.09151372035344442,0.9054166674613953,0.328004297740916
0.9741666913032532,0.0760954296986262,0.8957499861717224,0.3764393446927375
0.9772291779518127,0.06623007596532504,0.9011666774749756,0.3762978507958828
0.9798333048820496,0.05911308958381414,0.9028333425521851,0.3769863706002844
0.9812291860580444,0.05314603166282177,0.9014166593551636,0.4051497684831315
0.9815208315849304,0.05175742225597302,0.8972499966621399,0.4373051717560342
0.9835000038146973,0.044953348338603975,0.8999999761581421,0.46846390277781386
0.9861458539962769,0.0396499144397676,0.9003333449363708,0.4877305195686665
0.9897500276565552,0.031401577432950335,0.8995000123977661,0.5338617105116236
0.9884999990463257,0.03164800474854807,0.8984166383743286,0.5361590117533156
0.9903749823570251,0.026452421195805074,0.8997499942779541,0.5483238608279126
0.9904791712760925,0.02737740084218482,0.9004999995231628,0.546937404002281
0.992020845413208,0.024325662753234306,0.8962500095367432,0.6050052501736803
0.992229163646698,0.022884788141275446,0.9006666541099548,0.5861291796603101
0.9930833578109741,0.020114536664759118,0.8970833420753479,0.5970832906821941
0.9936458468437195,0.018328751059249044,0.8918333053588867,0.6429428082514317
0.9958124756813049,0.013191267661051824,0.893583357334137,0.7082762711859764
0.9958333373069763,0.012773464454493176,0.8952500224113464,0.7369377955477289
0.9947500228881836,0.014601199238405874,0.8914166688919067,0.7630649188414533
0.9949791431427002,0.014211702971563985,0.8977500200271606,0.6916441197725053
0.9928541779518127,0.020270867959440997,0.890916645526886,0.7104642862018119
0.9949166774749756,0.013967775104916655,0.8893333077430725,0.7409423646774698
0.9947083592414856,0.015268002550117671,0.8973333239555359,0.7109958145846712
0.9956666827201843,0.011962316187486673,0.8983333110809326,0.6965192153732828
0.996874988079071,0.009021628074852439,0.8981666564941406,0.8012922009889115
0.9956874847412109,0.012276197079336271,0.8996666669845581,0.7506623965628604
0.9956041574478149,0.013421529856898512,0.8999999761581421,0.7612041349106646
0.9964166879653931,0.010441764078685082,0.9017500281333923,0.7923248400713535
0.9956458210945129,0.012507847714684127,0.8956666588783264,0.776030126562778
0.9957500100135803,0.011187910023572233,0.8983333110809326,0.7677915858778548
0.9965208172798157,0.00968990211369237,0.8989166617393494,0.8389039004736758
0.9973541498184204,0.007108724661113229,0.8999999761581421,0.8181421688579499
0.9971666932106018,0.010164502967391551,0.9004166722297668,0.8027567359361243
0.9975000023841858,0.00745886205752807,0.8994166851043701,0.7807738115178778
0.9977708458900452,0.00712576005810115,0.9014999866485596,0.8763207939076931
0.9971250295639038,0.009767036287928932,0.9002500176429749,0.867278573043803
0.9965416789054871,0.009394572686685327,0.9010833501815796,0.7925472173919069
0.997083306312561,0.008532171567203477,0.9002500176429749,0.8535802738463625
0.9976666569709778,0.008024956154297495,0.8996666669845581,0.8245961290407688
0.9971041679382324,0.008300333230077134,0.9010000228881836,0.8874433002573379
0.996874988079071,0.009639566884172382,0.8969166874885559,0.8848638398216125
0.9970208406448364,0.008408742166667555,0.9027500152587891,0.8865191892106482
0.9970625042915344,0.00785732012525356,0.9023333191871643,0.840412141953377
0.9987083077430725,0.004317443242762238,0.9010000228881836,0.8863655201932217
0.9992291927337646,0.0025176087279154065,0.9006666541099548,0.8912189101919215
0.9985625147819519,0.0044199049325773865,0.8991666436195374,0.8959371682177198
0.9983749985694885,0.005172262130082042,0.8976666927337646,0.9442590665309987
0.9960625171661377,0.01201680233606991,0.8974999785423279,0.9147636487762979
0.9977916479110718,0.0069374799117722435,0.8989166617393494,0.981057030406404
0.9981874823570251,0.00554633059600504,0.8999999761581421,0.9507861641493249
0.9986875057220459,0.004706910839748464,0.8991666436195374,1.0105495601892471
0.9986875057220459,0.004068819288159526,0.8995833396911621,1.0037137219246397
0.9955833554267883,0.013512652196222916,0.8996666669845581,0.9822927421711861
0.9977916479110718,0.007162369955117659,0.9016666412353516,0.9627664022623225
0.9986458420753479,0.004467887556338004,0.8991666436195374,0.9135558154988797
0.9985833168029785,0.0038494725444228,0.8960833549499512,0.976196602303931
0.9985416531562805,0.004406659046754309,0.8990833163261414,0.9805017338788256
0.9987499713897705,0.0034923576229787916,0.9011666774749756,0.9800433253354215
0.9987916946411133,0.004459246892916174,0.8955000042915344,1.040708474022277
0.996666669845581,0.010191376755278422,0.8988333344459534,1.0327112465462787
0.9978125095367432,0.006229744113237151,0.9007499814033508,0.9600467165099814
0.9978333115577698,0.00569190499036146,0.8976666927337646,1.0526002629640254
0.9984791874885559,0.004821330531034619,0.8980000019073486,0.9775376120146285
0.9987083077430725,0.003973240646771349,0.9020000100135803,0.9634127274472662
0.9987083077430725,0.003945078900468312,0.8981666564941406,0.9330836439386327
0.9981250166893005,0.006187740330977249,0.893833339214325,0.9908661404822735
0.9988750219345093,0.003246886079061369,0.8993333578109741,1.0139635484269325
0.9987291693687439,0.0031809526841849825,0.9003333449363708,1.0250538257842368
0.9980416893959045,0.0066389062960637,0.8987500071525574,0.9737436742858684
0.9976041913032532,0.006863130808254936,0.8945000171661377,1.0333565004328464
0.9984375238418579,0.005490755776622488,0.8985833525657654,0.9985321049994611
0.9991666674613953,0.0023727532532839177,0.8966666460037231,1.0376878536127982
0.9986875057220459,0.004230896751091981,0.8952500224113464,1.0695634547700272
0.9984791874885559,0.004697445091775687,0.8956666588783264,1.154851478306537
0.9972708225250244,0.009172388568641813,0.8955833315849304,1.0237829640824745
0.9978958368301392,0.006686561732624493,0.8980000019073486,0.9985297119363825
0.9992083311080933,0.002325289571080551,0.8990833163261414,1.0366480317204556
0.9984583258628845,0.004969898428416248,0.8966666460037231,1.0330053013055882
0.9986458420753479,0.0036121604771336326,0.8999166488647461,1.0685407807852358
0.9995416402816772,0.001556951321778494,0.9016666412353516,1.0541717211933845
0.9990624785423279,0.0034171827271651033,0.8980000019073486,1.1106234215041424
0.9979375004768372,0.006562483435630081,0.893916666507721,1.1010514164858676
0.9978125095367432,0.006709478870967966,0.8989999890327454,1.1063679983007146
0.9979583621025085,0.00542097657449267,0.8958333134651184,1.0312518827775692
0.9990624785423279,0.0028075294916537433,0.9002500176429749,1.0574017750455977
0.9993541836738586,0.0021060942633075682,0.8999999761581421,1.0785354334623256
0.9982708096504211,0.005188859612902282,0.8945833444595337,1.1055305394086432
0.9972291588783264,0.007266774125644588,0.8960833549499512,1.0558575049359749
