acc,loss,val_acc,val_loss
0.30012500286102295,1.8228922559420269,0.6077499985694885,1.0600195825099945
0.6473541855812073,0.9169642992019653,0.7147499918937683,0.7581113335934091
0.7250416874885559,0.7276714709599813,0.7456666827201843,0.6497515712646728
0.7680833339691162,0.6299507053693135,0.7872499823570251,0.5812012578578706
0.7911666631698608,0.5703234923680623,0.8067499995231628,0.5295354254702305
0.8061458468437195,0.5354095944563548,0.8105833530426025,0.5261808690872598
0.8184375166893005,0.50510125096639,0.8255000114440918,0.49084104692682307
0.8284791707992554,0.478185352007548,0.8328333497047424,0.4659415949532326
0.8360416889190674,0.45668001492818194,0.8410833477973938,0.4402231218967032
0.8426041603088379,0.43923108275731404,0.8448333144187927,0.4279920519032377
0.8481875061988831,0.4251877543926239,0.8484166860580444,0.41695212556960737
0.8523125052452087,0.41346036076545717,0.8512499928474426,0.4108224555532983
0.8565208315849304,0.4026525019407272,0.8521666526794434,0.4038215821727793
0.8605625033378601,0.39333096651236216,0.8552500009536743,0.3928574304631416
0.862708330154419,0.38529886905352273,0.8585000038146973,0.38449712874407466
0.8659374713897705,0.37707651940981546,0.8613333106040955,0.3784083175532361
0.8683750033378601,0.3698601816892624,0.8634166717529297,0.3736563817934787
0.8697708249092102,0.3633840177059174,0.8651666641235352,0.3677463556857819
0.8719791769981384,0.357588086326917,0.8681666851043701,0.36178748531544463
0.8744166493415833,0.35175554633140566,0.8684166669845581,0.36335981098261283
0.8757083415985107,0.34666251615683236,0.8705000281333923,0.3563065305352211
0.8770416378974915,0.34116505801677705,0.872083306312561,0.35134060332115663
0.8785416483879089,0.3357731587489446,0.8729166388511658,0.3498267775520365
0.8796666860580444,0.331438636302948,0.871666669845581,0.3567054216214951
0.8818125128746033,0.32695253372192384,0.8743333220481873,0.3464100804734737
0.8833125233650208,0.3223288110891978,0.8759999871253967,0.341494767906818
0.8840625286102295,0.3179095304012299,0.874833345413208,0.34489851207175154
0.8851249814033508,0.31401627989610037,0.875,0.34481980382127964
0.8863750100135803,0.3098272711435954,0.8763333559036255,0.33840277791023254
0.8886874914169312,0.3052554239432017,0.8778333067893982,0.340234526769912
0.8901458382606506,0.301056489944458,0.8763333559036255,0.34093791912210747
0.8914166688919067,0.29674809380372363,0.8791666626930237,0.33847566503793636
0.8932499885559082,0.2913028355836868,0.8791666626930237,0.3338289316347305
0.8945208191871643,0.28659824601809186,0.878333330154419,0.3353247682147838
0.8957916498184204,0.28215684098005295,0.8799999952316284,0.3336209600910227
0.8967499732971191,0.27907362312078476,0.875083327293396,0.34206020705243373
0.898687481880188,0.2742393746376038,0.8810833096504211,0.3296918807194588
0.9002500176429749,0.27015770399570466,0.8799999952316284,0.3331770394393738
0.901562511920929,0.26695342812935513,0.8838333487510681,0.32212984419249474
0.9027083516120911,0.2631868179639181,0.8841666579246521,0.321791040294982
0.9041041731834412,0.2603982668121656,0.8833333253860474,0.3238763488987659
0.9053541421890259,0.2560992173353831,0.8838333487510681,0.321694182747222
0.9070416688919067,0.2517149583697319,0.8852499723434448,0.31889830038268513
0.9070416688919067,0.24927883795897166,0.8839166760444641,0.3243529319446138
0.9088958501815796,0.24495971331993738,0.8859166502952576,0.3220630345192361
0.9098541736602783,0.24182503185669582,0.8867499828338623,0.31996667432658216
0.910854160785675,0.23920729782183964,0.887666642665863,0.3211432093001427
0.9122916460037231,0.23569578772783278,0.8848333358764648,0.32917306445380473
0.9142500162124634,0.23297709492842356,0.8867499828338623,0.3207364508763273
0.9141666889190674,0.23127130941549937,0.890250027179718,0.31353131729237577
0.9150000214576721,0.22896568963925043,0.8880000114440918,0.31882911223046323
0.9169166684150696,0.2259959192474683,0.8895000219345093,0.3169762558759527
0.9164166450500488,0.2237906445066134,0.8894166946411133,0.31653133811468775
0.9181874990463257,0.22018096834421158,0.89041668176651,0.31948394241168143
0.9200833439826965,0.21666102588176728,0.8888333439826965,0.32908325800870325
0.9209791421890259,0.21370257343848548,0.8887500166893005,0.32409614998292413
0.9230625033378601,0.2105777867237727,0.8869166374206543,0.33162522458649696
0.9238749742507935,0.2075554418762525,0.8883333206176758,0.33348492469559327
0.9245208501815796,0.20565429757038753,0.8853333592414856,0.34007540567124145
0.924916684627533,0.2033985504905383,0.8862500190734863,0.33985060944836193
0.926729142665863,0.20033489181598027,0.8881666660308838,0.33236826242918666
0.9277916550636292,0.19704589176177978,0.8859166502952576,0.339844304988993
0.9287083148956299,0.19475741994380952,0.8872500061988831,0.34404564205002275
0.929937481880188,0.19285258956750234,0.8849166631698608,0.35378100342573005
0.9308333396911621,0.1896758315563202,0.887583315372467,0.35202555833978855
0.9306458234786987,0.18854560710986457,0.8815833330154419,0.371813102764018
0.9317708611488342,0.18672448323170343,0.8830000162124634,0.36256483133803025
0.9332291483879089,0.18277144688367844,0.8844166398048401,0.3607938888859242
0.9333541393280029,0.1810759892165661,0.8847500085830688,0.36021745236630137
0.9346666932106018,0.1789721333583196,0.8872500061988831,0.35618815317432934
0.9344375133514404,0.17882091492414476,0.8896666765213013,0.359327107350877
0.9358749985694885,0.1770892913242181,0.8896666765213013,0.3653002259262065
0.9363124966621399,0.17416567675272623,0.887583315372467,0.36721009174559976
0.9380000233650208,0.17171934840083122,0.8864166736602783,0.3719176397995746
0.9390416741371155,0.17020592468976975,0.8862500190734863,0.3779891429746405
0.9385833144187927,0.16924723224838575,0.8845833539962769,0.37517059055414603
0.9392083287239075,0.16747115247448285,0.8849166631698608,0.3745822470555914
0.9422500133514404,0.16224145848552385,0.8830833435058594,0.3717032991191174
0.9427916407585144,0.16039787725607554,0.8834999799728394,0.3820841131692237
0.9435833096504211,0.15841423333684604,0.8829166889190674,0.3857623984680531
0.9433125257492065,0.1577111506263415,0.8870000243186951,0.38074069034228936
0.9440208077430725,0.1558816088636716,0.8848333358764648,0.3848672953057796
0.9446458220481873,0.15326641390721002,0.8838333487510681,0.3849353787112743
0.9465833306312561,0.15084767636656762,0.8845000267028809,0.38428709545034045
0.9475625157356262,0.14924521750211717,0.8865833282470703,0.3866608532819342
0.9471874833106995,0.14749632741014163,0.8854166865348816,0.391940157147164
0.948270857334137,0.14511874427398047,0.8860833048820496,0.3930063463271932
0.9487083554267883,0.14428964566191038,0.8856666684150696,0.4017906455283469
0.9487708210945129,0.14331298038363458,0.8838333487510681,0.415537289165436
0.9474166631698608,0.14584885399540265,0.8845000267028809,0.3959357947745222
0.949833333492279,0.1405187448163827,0.8819166421890259,0.3949686586856842
0.9509375095367432,0.1372255408068498,0.8841666579246521,0.40160796727905884
0.9525833129882812,0.13445292261242867,0.8830000162124634,0.41625414344858613
0.9528958201408386,0.13330890198548634,0.8835833072662354,0.4144498905602922
0.9532708525657654,0.1322268402328094,0.8826666474342346,0.4157746801985071
0.9543125033378601,0.1292336653669675,0.8823333382606506,0.4213110214852272
0.9550208449363708,0.12810558765133223,0.8848333358764648,0.42291994091678176
0.9559999704360962,0.1260993986527125,0.8821666836738586,0.4305667923168933
0.9577083587646484,0.12252072563767433,0.8815833330154419,0.43593080960055614
0.9585833549499512,0.12175491754213968,0.8826666474342346,0.44278132725269237
