acc,loss,val_acc,val_loss
0.4362500011920929,1.4780138905843099,0.7206666469573975,0.7164988124624212
0.7754374742507935,0.6010569066206615,0.8205833435058594,0.49020018824871553
0.8301041722297668,0.4706045943101247,0.8385833501815796,0.4365753753388182
0.8519166707992554,0.41229574871063235,0.8603333234786987,0.38109461424198554
0.8619375228881836,0.38012192463874817,0.8694999814033508,0.35449165581388675
0.8712291717529297,0.3545458815097809,0.8759999871253967,0.33461059931110826
0.8776875138282776,0.33567638806502026,0.8784999847412109,0.3263657438628217
0.8830000162124634,0.3194242797692617,0.8786666393280029,0.3282246006296036
0.8878958225250244,0.3063272976477941,0.8880000114440918,0.3062533192495082
0.8934583067893982,0.29205899461110435,0.8899999856948853,0.2973571590920712
0.8969583511352539,0.28345616853237154,0.8916666507720947,0.29431589185557466
0.89864581823349,0.2754907924731572,0.890749990940094,0.2954805407752382
0.902958333492279,0.2647111767530441,0.8918333053588867,0.29095572708769046
0.9063958525657654,0.2531698859532674,0.8945833444595337,0.28568194410268294
0.9102708101272583,0.2448403646349907,0.8962500095367432,0.2866101366408328
0.9137499928474426,0.2366901964743932,0.8960000276565552,0.2847400903701782
0.9157083630561829,0.22959516980250677,0.8986666798591614,0.28562118144745524
0.9176874756813049,0.22234500177701313,0.8987500071525574,0.28257326385442244
0.9227083325386047,0.21286814479033153,0.9002500176429749,0.280893031745515
0.9237291812896729,0.2069235384662946,0.8995833396911621,0.2851163457999838
0.926354169845581,0.19986847132444382,0.9006666541099548,0.2974441721242793
0.9287291765213013,0.19403284974892934,0.9007499814033508,0.2944920594863435
0.9304999709129333,0.1874646629691124,0.9035000205039978,0.29299084303226874
0.9328749775886536,0.1825205460091432,0.8966666460037231,0.3164240719473108
0.9348541498184204,0.1777413900097211,0.8979166746139526,0.3100407408907058
0.9380416870117188,0.16946750223636628,0.8964166641235352,0.32134878936600175
0.9412291646003723,0.1604430687824885,0.8975833058357239,0.3293937105447688
0.9418333172798157,0.15761592864990234,0.8961666822433472,0.3321967617945468
0.9435833096504211,0.1514230685333411,0.8967499732971191,0.33533350616059404
0.948312520980835,0.1423697437842687,0.8982499837875366,0.3385429705711121
0.9489791393280029,0.1369610013018052,0.8918333053588867,0.37027535841185993
0.9504583477973938,0.1342672505180041,0.8925833106040955,0.38246039871839765
0.9544166922569275,0.12333581505219142,0.8922500014305115,0.3837464139499563
0.9572291374206543,0.11763514683643977,0.893916666507721,0.3957773093530472
0.9584375023841858,0.11333629622062047,0.8899166584014893,0.42384793530119225
0.9593333601951599,0.10959319106737772,0.890999972820282,0.4283675808221736
0.9613958597183228,0.10722676556309065,0.8914999961853027,0.42610471251797166
0.9629374742507935,0.10247940142949422,0.8845000267028809,0.46847446040904267
0.9653333425521851,0.09673301886518797,0.8883333206176758,0.4715444734121891
0.9667916893959045,0.09261166623234748,0.8958333134651184,0.43192357030954764
0.9676250219345093,0.08849188527961573,0.8971666693687439,0.4389779398098905
0.9701250195503235,0.08258667768537999,0.8959166407585144,0.43826238240333315
0.9705833196640015,0.07988455140590668,0.8968333601951599,0.4638261647617563
0.9722499847412109,0.07547368584821622,0.8945833444595337,0.47806987134700124
0.9731249809265137,0.07263495090852182,0.8946666717529297,0.48114440003608133
0.9782291650772095,0.06114433264484008,0.8924166560173035,0.5021958817192849
0.9795833230018616,0.05627195742477973,0.8898333311080933,0.526231716921989
0.9788958430290222,0.05842592370510101,0.8867499828338623,0.5748671152173205
0.9789583086967468,0.05706899438053369,0.8923333287239075,0.5545842457324901
0.9822083115577698,0.05021926710133751,0.8878333568572998,0.6102911466930775
0.9837916493415833,0.04612329272056619,0.8878333568572998,0.6106234701707008
0.9833124876022339,0.04538967081656058,0.890916645526886,0.6397875553749978
0.9850833415985107,0.04281737180550893,0.8924999833106995,0.6453125150279796
0.9858958125114441,0.039709742368509375,0.8887500166893005,0.6591195705089163
0.9867708086967468,0.03657944882536928,0.8914999961853027,0.6839783242408265
0.9854375123977661,0.03958209822388987,0.8891666531562805,0.7307745503618363
0.9858333468437195,0.03842930768740674,0.8885833621025085,0.7341135844905325
0.9880208373069763,0.03414749569570025,0.8855833411216736,0.7535159670292063
0.9874374866485596,0.03438862972209851,0.8835833072662354,0.8396915923407737
0.9877499938011169,0.03312033019214868,0.8898333311080933,0.7229231342356256
0.9895416498184204,0.02917659051840504,0.8880000114440918,0.8171430382322757
0.9885416626930237,0.03150398119150971,0.8928333520889282,0.7670945813681217
0.9894791841506958,0.030696130430325867,0.8880833387374878,0.8097262769303424
0.989270806312561,0.030172169285205504,0.8895833492279053,0.7775112485631983
0.9910625219345093,0.02518737037666142,0.8942499756813049,0.8277501425844558
0.9903749823570251,0.024709586915870507,0.8901666402816772,0.8585369174784803
0.9908750057220459,0.02530806070721398,0.8883333206176758,0.9370748334108515
0.9919999837875366,0.024075912757155794,0.8892499804496765,0.9599285866034791
0.9917083382606506,0.022428243498007455,0.8946666717529297,0.8645928552810181
0.9931874871253967,0.01894077520809757,0.890250027179718,0.9279523032142761
0.9917916655540466,0.022917908870149405,0.8889166712760925,0.9054058026126091
0.9922916889190674,0.021224458440517385,0.8889999985694885,0.9588885423033795
0.9928541779518127,0.02006757924465152,0.8914166688919067,0.9778083258486808
0.9950208067893982,0.014837336799750725,0.8915833234786987,1.0046086083067225
0.9934791922569275,0.017824371944647283,0.890666663646698,0.9802891675462114
0.9930833578109741,0.019916053202856953,0.8894166946411133,0.9317736338744772
0.9932291507720947,0.01835671585953484,0.8859999775886536,1.055838313825587
0.9943749904632568,0.017203493578592317,0.8882499933242798,1.1525147978929764
0.9938958287239075,0.016499269847680503,0.8839166760444641,1.171470137669685
0.9929999709129333,0.019190791415399873,0.8914166688919067,1.085116223134893
0.9941874742507935,0.016841868996154516,0.8932499885559082,1.0639400266586465
0.9941458106040955,0.016611553908170512,0.893666684627533,1.109108306626056
0.9941874742507935,0.0163890553926661,0.8920833468437195,1.0924473278065945
0.9946249723434448,0.014999238718727914,0.8914166688919067,1.071539323380653
0.9959375262260437,0.012188947829805936,0.8928333520889282,1.0724550089303484
0.9958333373069763,0.01237393665065368,0.887666642665863,1.209298721970396
0.9932916760444641,0.020139947275320688,0.89041668176651,1.1208446945281738
0.9952499866485596,0.013936963897741711,0.8914999961853027,1.1122127498718017
0.9952916502952576,0.014278571260084088,0.8916666507720947,1.0844952362648985
0.9955416917800903,0.013315230660062904,0.8879166841506958,1.2516126597815371
0.9956666827201843,0.012457644764333963,0.890916645526886,1.098213589888938
0.9958124756813049,0.012572897247426832,0.890500009059906,1.1032435212363587
0.995479166507721,0.01342784533490582,0.8930833339691162,1.0927825203918395
0.9957916736602783,0.011996732608318173,0.8899999856948853,1.1695693065511419
0.9956666827201843,0.012823494214923509,0.8889999985694885,1.11574032871013
0.9951666593551636,0.013202447978857284,0.8924999833106995,1.2704935105557138
0.9963124990463257,0.011858705330834104,0.890583336353302,1.201320342561032
0.9946041703224182,0.015779884057371723,0.8934999704360962,1.222510669459688
0.9957083463668823,0.013005439990389276,0.8886666893959045,1.1572765549446673
0.9961666464805603,0.010951646803994663,0.8888333439826965,1.1640575889577256
