acc,loss,val_acc,val_loss
0.7338125109672546,0.7601947250366211,0.8358333110809326,0.4739473630139168
0.8393750190734863,0.4512363542715708,0.8529999852180481,0.4067425084240893
0.8600000143051147,0.395387503862381,0.8632500171661377,0.3759900857793524
0.8723333477973938,0.35864747993151347,0.871833324432373,0.35293289369091074
0.8813541531562805,0.3330744083325068,0.8817499876022339,0.32470202826439065
0.8866666555404663,0.3124246632655462,0.8832499980926514,0.3233523563818729
0.8938124775886536,0.29391708318392434,0.8847500085830688,0.31776475256427805
0.9002291560173035,0.2770176581144333,0.8860833048820496,0.31854782316912994
0.906333327293396,0.2598132299582164,0.8929166793823242,0.298600748815435
0.9107916951179504,0.24582601833343506,0.890333354473114,0.3042504349921612
0.9162083268165588,0.23064732666810353,0.8954166769981384,0.29426495651615425
0.9213749766349792,0.2160435724258423,0.8976666927337646,0.2878619773273772
0.9266250133514404,0.2017912825345993,0.8971666693687439,0.29786982799464085
0.9310833215713501,0.19112249751885732,0.8957499861717224,0.29971924630251334
0.9361458420753479,0.1785037967165311,0.8915833234786987,0.31872686268167294
0.9413750171661377,0.16608386278152465,0.8930000066757202,0.31597519301353616
0.9452499747276306,0.15513938293854396,0.893916666507721,0.3197766700957684
0.9454583525657654,0.15004104192058246,0.8942499756813049,0.3259040824276336
0.9500625133514404,0.14066537685195604,0.8887500166893005,0.3505674002969519
0.953000009059906,0.13118168103694916,0.8916666507720947,0.35585183761221295
0.9589166641235352,0.11932127157847086,0.8920833468437195,0.36797396141163846
0.9617499709129333,0.11142560427387556,0.8927500247955322,0.36876786111834203
0.9632499814033508,0.10421390292048455,0.8954166769981384,0.3565664090057637
0.9631666541099548,0.10280596574147542,0.8953333497047424,0.3806855405106189
0.9678958058357239,0.09125858814517657,0.8896666765213013,0.42469701028250634
0.9714791774749756,0.08108137154579162,0.8889999985694885,0.46386002796761533
0.9752500057220459,0.07237063912053902,0.8929166793823242,0.4556466740496615
0.9756875038146973,0.06972658802072207,0.8897500038146973,0.4765265885185688
0.976937472820282,0.06453769902884961,0.8933333158493042,0.5167968136833069
0.9778541922569275,0.06376827128976584,0.8931666612625122,0.500163826536625
0.9804583191871643,0.05534198487177491,0.8934166431427002,0.5005510704631501
0.981458306312561,0.05197550799200932,0.8914166688919067,0.5194703481615858
0.9832291603088379,0.04901917494709293,0.8959166407585144,0.49735552231048014
0.9829999804496765,0.04777290829271078,0.887666642665863,0.5193708095144718
0.9856458306312561,0.04120247288420796,0.8898333311080933,0.5387968076987469
0.9861666560173035,0.03840504852806528,0.8953333497047424,0.533021498709283
0.9878749847412109,0.03477561211089293,0.8945000171661377,0.5760479076428616
0.9884374737739563,0.03255111454923948,0.8851666450500488,0.7097837768019514
0.988854169845581,0.03027921797071273,0.8955833315849304,0.5539678477860511
0.9894166588783264,0.031121775584916272,0.8942499756813049,0.624509647647117
0.9901250004768372,0.028319528761319816,0.8945000171661377,0.5583653529273703
0.9898541569709778,0.027540180133034785,0.8912500143051147,0.6575489808270272
0.9912083148956299,0.02547780949746569,0.8931666612625122,0.6256964629951943
0.9915000200271606,0.024691164875403047,0.8955000042915344,0.6703567592070457
0.9920833110809326,0.021481194564141333,0.8961666822433472,0.6634090893129085
0.9931666851043701,0.020337471639427045,0.8929166793823242,0.7313694392747068
0.9940833449363708,0.01818113770801574,0.8912500143051147,0.7835751386716011
0.9934791922569275,0.019624925032258034,0.8924166560173035,0.708986463698935
0.991895854473114,0.022423327496585748,0.8916666507720947,0.7522753908279094
0.9930416941642761,0.019418691486741104,0.8956666588783264,0.7689062471085406
0.9935416579246521,0.018146598658990116,0.8931666612625122,0.743420311745177
0.995229184627533,0.013901944851269946,0.8920000195503235,0.7515285021447121
0.9949791431427002,0.014678194766243298,0.8943333625793457,0.7088328347878253
0.9948750138282776,0.015105485585673402,0.8971666693687439,0.7543747547142049
0.9938750267028809,0.017727603567996995,0.890500009059906,0.8000483497026118
0.9958750009536743,0.012641830226406456,0.893916666507721,0.7490526634327909
0.9951666593551636,0.013862306909519248,0.887666642665863,0.8446756918379601
0.9948958158493042,0.013863539663686728,0.8934166431427002,0.7218733605869273
0.9970208406448364,0.009519203580295047,0.8920833468437195,0.8066654401890775
0.9956666827201843,0.012368866631373142,0.8966666460037231,0.7916275519639888
0.995229184627533,0.013514775361050852,0.8865000009536743,0.7510090441779887
0.9957083463668823,0.012619745164721584,0.8946666717529297,0.8145704957398963
0.9971250295639038,0.008708260444846625,0.8892499804496765,0.9118460977965213
0.996916651725769,0.01005638685275335,0.8934999704360962,0.7672008109536577
0.9965624809265137,0.010689469498582184,0.8947499990463257,0.8528618070673435
0.996791660785675,0.00921674127834073,0.8910833597183228,0.8791609140152626
0.995395839214325,0.012667389668679486,0.8878333568572998,0.8624641161332739
0.996749997138977,0.008797622724086978,0.8917499780654907,0.8948019378362818
0.9968125224113464,0.009137826808708876,0.8952500224113464,0.8545326612731243
0.996708333492279,0.00909385686396854,0.8911666870117188,0.893600768865423
0.9966250061988831,0.009869748102365216,0.890916645526886,0.92221577560648
0.9967708587646484,0.009881200339703355,0.8916666507720947,0.8823846654689058
0.9976875185966492,0.007558569842231615,0.8947499990463257,0.9070029721615163
0.9964374899864197,0.00958477696161329,0.8885833621025085,0.9652886666516041
0.9970625042915344,0.008596657632035203,0.8870000243186951,0.9377726379861223
0.9973750114440918,0.007475215740007116,0.8919166922569275,0.8928654308014727
0.9982083439826965,0.005749526047909361,0.893916666507721,0.9251383446315502
0.9977916479110718,0.006880721417546738,0.8912500143051147,0.9077439622042027
0.9972083568572998,0.007925500937077837,0.893583357334137,0.9315342180272366
0.9981874823570251,0.005862772782037306,0.8929166793823242,0.9893009367775409
0.9944999814033508,0.016410913014192677,0.8886666893959045,0.9858905806186351
0.9971250295639038,0.00864824347269799,0.8945000171661377,0.9282059748756125
0.9979375004768372,0.006244854134245543,0.890749990940094,0.9637137207579105
0.9980833530426025,0.006040099182311678,0.890500009059906,0.8339813034585182
0.9987916946411133,0.003405727202538401,0.8942499756813049,1.0028882194706734
0.9970625042915344,0.008882501236502624,0.8925833106040955,0.9566902378772167
0.9982500076293945,0.005558297968091211,0.8981666564941406,0.9636496530568346
0.9973958134651184,0.0075821954508622485,0.8889999985694885,1.0575816862760705
0.9974583387374878,0.007518087740114424,0.89083331823349,1.0462257646499795
0.9982291460037231,0.005266379990959346,0.8921666741371155,0.9767125448647965
0.9960833191871643,0.0110193753670416,0.8859999775886536,1.1299578189215762
0.9973124861717224,0.007541258813910341,0.8950833082199097,0.8921032674769138
0.9984999895095825,0.00474886580343203,0.8923333287239075,0.929786075936987
0.9986875057220459,0.0038319699236987314,0.8899999856948853,0.9997556529780651
0.9971666932106018,0.008043351369342417,0.8892499804496765,1.0400555758400167
0.9961875081062317,0.01150275771539115,0.8919166922569275,0.9258934652551691
0.9978333115577698,0.005738354528167596,0.8955833315849304,0.9693942938713317
0.9977083206176758,0.006741177784628235,0.8970833420753479,1.0374083553856992
0.9983124732971191,0.0050059620955556355,0.8949999809265137,1.0501317873280098
0.9991666674613953,0.00263735177423708,0.8884999752044678,1.05240406381323
