Model,Level,Test,Test_acc,Test_loss
cad_haze-0-A1Q9.h5,0,A1Q9,0.6308333,0.6821005880832672
cad_haze-1-A1Q9.h5,0,A1Q9,0.65,0.6789622664451599
cad_haze-2-A1Q9.h5,0,A1Q9,0.6475,0.649180406332016
cad_haze-3-A1Q9.h5,0,A1Q9,0.6,0.6762035727500916
cad_haze-0-A2Q9.h5,0,A2Q9,0.6616667,1.7449334621429444
cad_haze-1-A2Q9.h5,0,A2Q9,0.625,0.7472920358181
cad_haze-2-A2Q9.h5,0,A2Q9,0.62583333,0.6539286136627197
cad_haze-3-A2Q9.h5,0,A2Q9,0.5966667,0.6591211497783661
cad_haze-0-A3Q9.h5,0,A3Q9,0.73833334,1.1140325009822845
cad_haze-1-A3Q9.h5,0,A3Q9,0.7341667,1.1354478478431702
cad_haze-2-A3Q9.h5,0,A3Q9,0.72333336,1.2634615421295166
cad_haze-3-A3Q9.h5,0,A3Q9,0.7575,0.9293997883796692
cad_haze-0-A1Q9.h5,1,A1Q9,0.61083335,0.6832473397254943
cad_haze-1-A1Q9.h5,1,A1Q9,0.6308333,0.6797953009605407
cad_haze-2-A1Q9.h5,1,A1Q9,0.64,0.6526042222976685
cad_haze-3-A1Q9.h5,1,A1Q9,0.5875,0.6774959683418273
cad_haze-0-A2Q9.h5,1,A2Q9,0.66083336,1.7583615064620972
cad_haze-1-A2Q9.h5,1,A2Q9,0.62833333,0.7406713306903839
cad_haze-2-A2Q9.h5,1,A2Q9,0.6325,0.6527290940284729
cad_haze-3-A2Q9.h5,1,A2Q9,0.6075,0.6521509468555451
cad_haze-0-A3Q9.h5,1,A3Q9,0.74,1.0810417592525483
cad_haze-1-A3Q9.h5,1,A3Q9,0.75,1.0584779798984527
cad_haze-2-A3Q9.h5,1,A3Q9,0.7183333,1.2049058675765991
cad_haze-3-A3Q9.h5,1,A3Q9,0.75916666,0.8823348104953765
cad_haze-0-A1Q9.h5,2,A1Q9,0.61,0.6835237741470337
cad_haze-1-A1Q9.h5,2,A1Q9,0.63,0.6800101161003113
cad_haze-2-A1Q9.h5,2,A1Q9,0.6333333,0.6532766282558441
cad_haze-3-A1Q9.h5,2,A1Q9,0.58166665,0.6776706397533416
cad_haze-0-A2Q9.h5,2,A2Q9,0.65833336,1.789108979701996
cad_haze-1-A2Q9.h5,2,A2Q9,0.63,0.7455844104290008
cad_haze-2-A2Q9.h5,2,A2Q9,0.6275,0.6532969176769257
cad_haze-3-A2Q9.h5,2,A2Q9,0.61083335,0.6510643005371094
cad_haze-0-A3Q9.h5,2,A3Q9,0.74916667,1.0417001724243165
cad_haze-1-A3Q9.h5,2,A3Q9,0.72833335,1.0918643593788147
cad_haze-2-A3Q9.h5,2,A3Q9,0.7175,1.2888381242752076
cad_haze-3-A3Q9.h5,2,A3Q9,0.755,0.8646646559238433
cad_haze-0-A1Q9.h5,3,A1Q9,0.5875,0.6858013093471527
cad_haze-1-A1Q9.h5,3,A1Q9,0.5966667,0.6821114778518677
cad_haze-2-A1Q9.h5,3,A1Q9,0.59833336,0.6624333322048187
cad_haze-3-A1Q9.h5,3,A1Q9,0.5625,0.6807275414466858
cad_haze-0-A2Q9.h5,3,A2Q9,0.6566667,1.817712378501892
cad_haze-1-A2Q9.h5,3,A2Q9,0.6308333,0.7387741506099701
cad_haze-2-A2Q9.h5,3,A2Q9,0.60833335,0.6600839972496033
cad_haze-3-A2Q9.h5,3,A2Q9,0.6025,0.6554799795150756
cad_haze-0-A3Q9.h5,3,A3Q9,0.7158333,1.1680820822715758
cad_haze-1-A3Q9.h5,3,A3Q9,0.7108333,1.1669203519821167
cad_haze-2-A3Q9.h5,3,A3Q9,0.7008333,1.1832731008529662
cad_haze-3-A3Q9.h5,3,A3Q9,0.7341667,0.9056003391742706
