acc,loss,val_acc,val_loss
0.7446874976158142,0.707273511171341,0.8318333625793457,0.4614178199083247
0.8629791736602783,0.3817279195388158,0.859083354473114,0.38706513843003737
0.8848333358764648,0.32195075460275013,0.8729166388511658,0.34970724043693946
0.9011874794960022,0.27561854128042856,0.8809999823570251,0.33043543820051435
0.9101458191871643,0.2478372664451599,0.8805000185966492,0.3299064907304784
0.9218124747276306,0.21602636579672496,0.887583315372467,0.3097335818283101
0.9338124990463257,0.18467251739899318,0.8806666731834412,0.3551427590403151
0.9446874856948853,0.15586705792943636,0.8819166421890259,0.3700890113064583
0.9500208497047424,0.13984093444546064,0.8824166655540466,0.3940069562894233
0.9541041851043701,0.12461889038483302,0.8862500190734863,0.41942251140766956
0.9597083330154419,0.11220261428753535,0.887666642665863,0.43264174493069346
0.9687708616256714,0.08734570456544558,0.8850833177566528,0.45660745923189405
0.973229169845581,0.0752021742016077,0.890583336353302,0.47417513709119025
0.976520836353302,0.06471972807248433,0.8897500038146973,0.5077721811038383
0.9788333177566528,0.05643414754668872,0.8760833144187927,0.591180663793645
0.9833124876022339,0.04702504923318823,0.8838333487510681,0.5783183693568757
0.9856250286102295,0.04025379825631777,0.8785833120346069,0.605350081590896
0.988895833492279,0.03250243210668365,0.8815000057220459,0.6792027176694667
0.9899583458900452,0.02791399811891218,0.8859166502952576,0.6845324305777855
0.9913958311080933,0.02407758682919666,0.8836666941642761,0.7914528455188934
0.9909999966621399,0.026542944106583793,0.8740000128746033,0.7821956619303277
0.9926458597183228,0.021041333153223,0.8795833587646484,0.8450610482312263
0.9917291402816772,0.02415409714356065,0.8811666369438171,0.8231412425954291
0.9936249852180481,0.018825847565972557,0.8799166679382324,0.8660465637420086
0.9937291741371155,0.017411480393726378,0.8762500286102295,0.8698773498230792
0.9931666851043701,0.01868116359009097,0.8794166445732117,0.8992826120650514
0.9942499995231628,0.01651167663213952,0.8726666569709778,0.9402491891003669
0.9936249852180481,0.018518012368896355,0.8840833306312561,0.9009614272954616
0.9941250085830688,0.01615921344476131,0.8793333172798157,0.9470758526883227
0.9954583048820496,0.013271942383454492,0.8734999895095825,1.0192481330100527
0.995312511920929,0.014274083167081699,0.8805833458900452,0.9824433783267407
0.9934999942779541,0.018375793383417962,0.8821666836738586,0.947827567128425
0.995104193687439,0.013489991486693421,0.8821666836738586,1.0260700393230358
0.9940624833106995,0.017641584615999212,0.8771666884422302,1.095647895272742
0.9962916374206543,0.010806373558045985,0.8769166469573975,1.0646831573958093
0.9957708120346069,0.013120622854718628,0.8796666860580444,0.9043306793938292
0.9966458082199097,0.009325524845296362,0.8829166889190674,1.0260991945545723
0.9969791769981384,0.009620646983520904,0.8845833539962769,1.1035356702322656
0.9960208535194397,0.010495212667956366,0.8787500262260437,1.0495301364584173
0.9946249723434448,0.0146265846187016,0.8834999799728394,1.111771839413237
0.9966041445732117,0.009104401651963903,0.8823333382606506,1.0455070806944624
0.9965624809265137,0.009886457843356766,0.8741666674613953,1.0570662760354104
0.996916651725769,0.008941291598501266,0.8837500214576721,1.1010754006974242
0.9969791769981384,0.009709722866629212,0.8818333148956299,1.0282798006813576
0.9957916736602783,0.012150788832446172,0.8764166831970215,1.0479386851508568
0.9967291951179504,0.009138445830942752,0.8794166445732117,1.1902635414549645
0.9965416789054871,0.010324877033509742,0.8813333511352539,1.1121772255035156
0.9958750009536743,0.011502665270663176,0.877916693687439,1.0818356690888709
0.9978333115577698,0.0067899872357277975,0.8839166760444641,1.1171961211143655
0.9974166750907898,0.0068547424735831254,0.8744166493415833,1.2838614069400949
0.9958333373069763,0.013716296020701218,0.8772500157356262,1.155756823242979
0.9972083568572998,0.007609011220568694,0.8797500133514404,1.177147111994155
0.9961249828338623,0.012028405418803838,0.8768333196640015,1.1866018093646842
0.9974374771118164,0.007949738874245669,0.8774166703224182,1.1693109045637415
0.9980416893959045,0.0057580976547724275,0.878166675567627,1.2364808707795245
0.9971458315849304,0.009058018060534474,0.8785833120346069,1.2172505639969033
0.996791660785675,0.010714923828881485,0.878000020980835,1.251572013535398
0.9978541731834412,0.006799554318116861,0.8775833249092102,1.2916287088647802
0.9979791641235352,0.0064993484892765995,0.8805833458900452,1.257251298173945
0.9980833530426025,0.00584855229265304,0.8830000162124634,1.1743382966898857
0.9975833296775818,0.006887377723714356,0.8868333101272583,1.20072344516186
0.996708333492279,0.01052906928401717,0.8836666941642761,1.2761582580018551
0.9974791407585144,0.007730202590180852,0.8834999799728394,1.2419403918246006
0.996749997138977,0.010112269941503958,0.8817499876022339,1.1305036034355773
0.9978125095367432,0.006018574767293103,0.8814166784286499,1.2370455401374938
0.9976458549499512,0.006546857230423484,0.8817499876022339,1.2472676793311506
0.9972708225250244,0.009323505761090927,0.8760833144187927,1.4696243123171178
0.9960416555404663,0.012360312278486768,0.8817499876022339,1.2539259708942252
0.9984583258628845,0.004505409630699432,0.8851666450500488,1.228794259276796
0.9980833530426025,0.005771222146243114,0.8823333382606506,1.2103761412361835
0.9975625276565552,0.007185647230030251,0.8807500004768372,1.5006179194501106
0.9973541498184204,0.008383228366191361,0.8871666789054871,1.338930844309482
0.9991041421890259,0.0023392897954414974,0.8844166398048401,1.3299287120078473
0.9987291693687439,0.003787709165513661,0.8844166398048401,1.387137883838187
0.9959583282470703,0.012402363130729099,0.8784166574478149,1.3475010940369139
0.9964583516120911,0.012409036200441429,0.8821666836738586,1.3727953896877614
0.9982291460037231,0.005872939658208148,0.8815833330154419,1.313473827661352
0.9981666803359985,0.0051089604840556906,0.8817499876022339,1.3046519943374268
0.9990416765213013,0.0029824546774707412,0.8811666369438171,1.263236662174793
0.9978749752044678,0.006604581961398556,0.8787500262260437,1.349257467909062
0.9976458549499512,0.0075890042042104445,0.8813333511352539,1.2786552398762805
0.9975416660308838,0.007974118579391265,0.8788333535194397,1.2388586658746639
0.9980833530426025,0.0055704363772474605,0.8838333487510681,1.3040719869288993
0.996958315372467,0.00870528943916482,0.8814166784286499,1.2527306010114385
0.9986458420753479,0.004340091632132802,0.8820833563804626,1.306800809312374
0.9994999766349792,0.0018587206878131232,0.8805000185966492,1.4620315255002772
0.9979375004768372,0.00603080281371452,0.8794166445732117,1.246633305828622
0.9978749752044678,0.006445961922699401,0.8739166855812073,1.3892668631482632
0.9983749985694885,0.0054149285203951274,0.877916693687439,1.4333042553130617
0.9975000023841858,0.007490771574102837,0.8830000162124634,1.3536109569224906
0.9980000257492065,0.006300049313254249,0.8732500076293945,1.3379356854773583
0.9971041679382324,0.008709237831314871,0.8821666836738586,1.4188929555263925
0.9990000128746033,0.002878955639957591,0.8829166889190674,1.397018387596658
0.9985625147819519,0.004542816884030874,0.8825833201408386,1.4157796990364155
0.9984166622161865,0.004839438295240446,0.8824999928474426,1.313264581117224
0.9972083568572998,0.009678428431405336,0.8754166960716248,1.441112148634931
0.9978958368301392,0.006326738344281012,0.8849166631698608,1.474914811393048
0.9971458315849304,0.008511371472889247,0.8798333406448364,1.3981769547817555
0.9987916946411133,0.004418774046076578,0.8824999928474426,1.4600788595828604
0.9972291588783264,0.010226337011003124,0.8816666603088379,1.3180002329197336
