acc,loss,val_acc,val_loss
0.6132291555404663,1.0449383056958517,0.7568333148956299,0.6512612630712226
0.7822916507720947,0.581079204638799,0.8181666731834412,0.4999920193185198
0.8255624771118164,0.4847675530115763,0.8423333168029785,0.44421252576594655
0.8436041474342346,0.4362874290148417,0.8529166579246521,0.40872156049342867
0.8544374704360962,0.4011189913749695,0.8586666584014893,0.3858274427500177
0.8652083277702332,0.37346377325057983,0.8672500252723694,0.36602701754012007
0.8742708563804626,0.34555077850818633,0.8761666417121887,0.343699537693186
0.8822500109672546,0.3223901375134786,0.8788333535194397,0.3289935175091662
0.890500009059906,0.2988352766434352,0.8822500109672546,0.3225564517556353
0.8995624780654907,0.27447335569063824,0.8859999775886536,0.3114134506025213
0.9076874852180481,0.2515468252102534,0.8899166584014893,0.30232359928653596
0.9134166836738586,0.23121346153815586,0.8929166793823242,0.30052059952248916
0.9206041693687439,0.2123502094944318,0.8956666588783264,0.3026219051569066
0.9297500252723694,0.19187964272499083,0.8963333368301392,0.3159112386563991
0.9384166598320007,0.1703603615760803,0.8942499756813049,0.35476265990353645
0.9437291622161865,0.15357352135578792,0.8941666483879089,0.37148750002713915
0.9488541483879089,0.1397430483897527,0.8965833187103271,0.3566486155416103
0.953499972820282,0.12487575884660085,0.8945000171661377,0.38203293639928737
0.9601041674613953,0.10834778581062952,0.8968333601951599,0.38591793338035013
0.9646875262260437,0.096307457725207,0.887583315372467,0.4410795799278198
0.9693541526794434,0.08432303578158219,0.8854166865348816,0.4811023014022949
0.9716249704360962,0.07646328746775787,0.8867499828338623,0.4844901780498789
0.976854145526886,0.06425943475216628,0.8844166398048401,0.538513497627796
0.981083333492279,0.05303748541076978,0.8897500038146973,0.5572711722330844
0.9819791913032532,0.04979088435259958,0.8859166502952576,0.5731331457165961
0.9843958616256714,0.043834666907787326,0.8799166679382324,0.6623175634031601
0.9852916598320007,0.04127408612146974,0.8856666684150696,0.6128633629451407
0.9861249923706055,0.040221956371640166,0.8807500004768372,0.6435300722084147
0.9864374995231628,0.03767564455295602,0.89041668176651,0.6120459308966677
0.9891666769981384,0.030957353089004755,0.8921666741371155,0.6198401563662164
0.9902916550636292,0.02756313377494613,0.8900833129882812,0.6298948898911476
0.9909583330154419,0.025989090014249087,0.887666642665863,0.7012915161061795
0.9922083616256714,0.023140388506775102,0.8916666507720947,0.6975691236080007
0.9914791584014893,0.02396083645708859,0.8947499990463257,0.7005289049541696
0.992229163646698,0.022217478174716233,0.8924999833106995,0.7568260776869794
0.992104172706604,0.022574910217740884,0.8895833492279053,0.7505981827035864
0.992062509059906,0.021117888959745566,0.8911666870117188,0.8259674962213699
0.9939166903495789,0.017735964339071264,0.890999972820282,0.7960347672726246
0.9939166903495789,0.017529751163674518,0.8929166793823242,0.8091905307262501
0.9943749904632568,0.016206560211488977,0.8945000171661377,0.8137290623593838
0.995270848274231,0.014845878701967498,0.8926666378974915,0.8572696127155994
0.9952499866485596,0.014859577587107197,0.8932499885559082,0.8823420947536509
0.9957083463668823,0.012981680266054658,0.8933333158493042,0.832559123635292
0.9964166879653931,0.011343884104125512,0.8922500014305115,0.921674667837772
0.9951666593551636,0.014924509723011094,0.8895000219345093,0.8752275852763907
0.9962083101272583,0.010994992653334824,0.8947499990463257,0.9083991370936657
0.9965416789054871,0.010521473806390229,0.8969166874885559,0.8453189118745479
0.9958333373069763,0.013173948369105347,0.8919166922569275,0.8349486059964971
0.9964791536331177,0.011130550332483835,0.8929166793823242,0.9205334045468493
0.9959375262260437,0.0124615132122611,0.8921666741371155,0.9720571881279032
0.9959583282470703,0.011493699852357774,0.890916645526886,0.946391687431234
0.9964791536331177,0.011115454790454048,0.8934999704360962,0.9265082107579454
0.9976666569709778,0.00768926755731809,0.8896666765213013,0.9737343116009489
0.996749997138977,0.009112597685171446,0.8877500295639038,1.023837499161984
0.9959375262260437,0.01202811409193479,0.8915833234786987,0.9841062363157881
0.9955000281333923,0.013264469798906551,0.8913333415985107,0.9859743203888548
0.996666669845581,0.009689114332043875,0.8934166431427002,0.990562508397914
0.9963333606719971,0.010785887610720237,0.8916666507720947,1.0308086238008864
0.9963541626930237,0.011264728478864224,0.8920833468437195,1.02400947441446
0.9968541860580444,0.010084993212736057,0.8952500224113464,0.9962415771281465
0.9979375004768372,0.006360129399584063,0.8942499756813049,0.9502980953201334
0.9985416531562805,0.005316806864851969,0.8960000276565552,1.0010504002900833
0.9976458549499512,0.007340556657368628,0.8870833516120911,0.9481688217913851
0.997083306312561,0.008720309213143386,0.890916645526886,1.0146898189757734
0.9961041808128357,0.012093915429043894,0.8932499885559082,0.9852794151990971
0.9972708225250244,0.0074528493094355025,0.8930833339691162,1.0013370146142675
0.9977916479110718,0.007681353005750376,0.89083331823349,1.0494766026101214
0.9979166388511658,0.00577387043081156,0.8927500247955322,1.0353700315698664
0.9985833168029785,0.004496949411104045,0.8955000042915344,1.0097823095448473
0.9973958134651184,0.008782495989954137,0.8934999704360962,1.014976275094012
0.9981874823570251,0.0054915608446948075,0.8933333158493042,1.095768559486308
0.9976458549499512,0.008029317524060995,0.8838333487510681,1.067604512610334
0.9959583282470703,0.01166651986798388,0.8925833106040955,0.998447245105784
0.9983124732971191,0.005442770086447126,0.8948333263397217,1.0314835408266554
0.9982083439826965,0.005589384536043023,0.8943333625793457,1.067122719706373
0.9976875185966492,0.006767918404342102,0.8914166688919067,1.0740963115971138
0.9983541369438171,0.005867990857184244,0.893750011920929,1.0935488428841247
0.9971041679382324,0.008911062409087511,0.8956666588783264,0.983171209692955
0.9973750114440918,0.008064420300210864,0.893583357334137,1.0676690679281315
0.9983749985694885,0.004864195953514354,0.8920000195503235,1.0821913915111663
0.9988750219345093,0.0033223373856805364,0.8949166536331177,1.1542408775458946
0.9987083077430725,0.004412458094594513,0.893666684627533,1.1643575141404539
0.9978749752044678,0.006656869793379883,0.8962500095367432,1.14400548345231
0.9971874952316284,0.008602282472648463,0.8939999938011169,1.0516736031846796
0.9975208044052124,0.007669904314643645,0.8924166560173035,1.0388986683906394
0.9978749752044678,0.006325278409232851,0.8960000276565552,1.0745003121964476
0.9985208511352539,0.0047715279359047905,0.8987500071525574,1.1167488925634546
0.9981666803359985,0.0056634431434746755,0.8899999856948853,1.1346923566245017
0.9974374771118164,0.008701554643807565,0.8915833234786987,1.1554207120169984
0.9975208044052124,0.007201142754842294,0.8953333497047424,1.0954778993383367
0.9987083077430725,0.003961521796293406,0.8940833210945129,1.1165447764574212
0.9993541836738586,0.002875630305828963,0.8959166407585144,1.18519186719935
0.9984375238418579,0.004883298381196558,0.8964166641235352,1.0517077008460431
0.9983333349227905,0.005152609578311968,0.8960000276565552,1.1142626022721858
0.9986458420753479,0.0038190081496765438,0.8950833082199097,1.1945535978104205
0.9981458187103271,0.0050889332426498485,0.8914999961853027,1.2910998907495053
0.997041642665863,0.00928671042605735,0.8976666927337646,1.1543555790756612
0.9961875081062317,0.012399732707515796,0.8944166898727417,1.2027962261692007
0.9985625147819519,0.005315675692623093,0.8961666822433472,1.2393780049491436
0.9986458420753479,0.004260903071268937,0.8951666951179504,1.20379339000012
