epoch,scaling,scale,wavelength,sigma
0.0,0.10000000149011612,0.10000000149011612,0.10000000149011612,0.33000001311302185
1.0,0.16426755487918854,-0.0188426710665226,0.20962287485599518,0.1947140097618103
2.0,0.11006513237953186,-0.07737644016742706,0.2582305371761322,0.1339595913887024
3.0,0.10249584913253784,-0.08828465640544891,0.2701520621776581,0.14659620821475983
4.0,0.10999161750078201,-0.08766258507966995,0.2722334563732147,0.15796828269958496
5.0,0.1101837158203125,-0.0899529829621315,0.2754650115966797,0.1536172330379486
6.0,0.1068914458155632,-0.09602957963943481,0.28275132179260254,0.14973591268062592
7.0,0.11965182423591614,-0.08759375661611557,0.27650266885757446,0.14378602802753448
8.0,0.11892811208963394,-0.09260915964841843,0.2837534248828888,0.14292073249816895
9.0,0.1293904036283493,-0.08371623605489731,0.27573689818382263,0.14315485954284668
10.0,0.11426300555467606,-0.1000593826174736,0.2925955057144165,0.14472071826457977
11.0,0.13069483637809753,-0.08639301359653473,0.28032463788986206,0.14178025722503662
12.0,0.1375836580991745,-0.08038278669118881,0.27486348152160645,0.14593827724456787
13.0,0.1457127034664154,-0.07529660314321518,0.27134019136428833,0.14755041897296906
14.0,0.14101530611515045,-0.08537246286869049,0.2841145992279053,0.15153510868549347
15.0,0.14334125816822052,-0.08535091578960419,0.28524795174598694,0.15100203454494476
16.0,0.1381198912858963,-0.09307509660720825,0.2941162586212158,0.15084651112556458
17.0,0.13165387511253357,-0.10141600668430328,0.3033585846424103,0.14479362964630127
18.0,0.1252048909664154,-0.11482715606689453,0.32031765580177307,0.14035166800022125
19.0,0.1517995148897171,-0.09077861905097961,0.2975650131702423,0.1503615379333496
20.0,0.1519467681646347,-0.09301131218671799,0.3010628819465637,0.14500507712364197
21.0,0.14925752580165863,-0.09766498953104019,0.3067675828933716,0.1448523849248886
22.0,0.1417214572429657,-0.1074795052409172,0.3175392150878906,0.13221824169158936
23.0,0.16637133061885834,-0.08644653111696243,0.2981973886489868,0.1464165300130844
24.0,0.16530141234397888,-0.0883474051952362,0.30050966143608093,0.1456676721572876
25.0,0.1674058437347412,-0.08676842600107193,0.2991991639137268,0.14596329629421234
26.0,0.170608252286911,-0.0847548395395279,0.29780662059783936,0.1429123878479004
27.0,0.1744896024465561,-0.08173839002847672,0.2952432930469513,0.14877426624298096
28.0,0.17494472861289978,-0.08238770812749863,0.29642820358276367,0.14281049370765686
29.0,0.1825454980134964,-0.07534633576869965,0.2897244989871979,0.1486140787601471
30.0,0.17327705025672913,-0.08719613403081894,0.3028015196323395,0.13527709245681763
31.0,0.19276036322116852,-0.06761055439710617,0.28321409225463867,0.15164397656917572
32.0,0.17910918593406677,-0.08612264692783356,0.3039737343788147,0.11930307000875473
33.0,0.2047860324382782,-0.06123065948486328,0.27946990728378296,0.14453566074371338
34.0,0.19872047007083893,-0.07052414119243622,0.29020458459854126,0.1322704702615738
35.0,0.20420759916305542,-0.06794862449169159,0.28889450430870056,0.13318616151809692
36.0,0.20448356866836548,-0.06818509846925735,0.2893717586994171,0.13346584141254425
37.0,0.2304595708847046,-0.04351278394460678,0.2652539312839508,0.15469804406166077
38.0,0.23036926984786987,-0.043676625937223434,0.2654554545879364,0.15460222959518433
39.0,0.2302798181772232,-0.04383797571063042,0.26565372943878174,0.15448515117168427
40.0,0.23022565245628357,-0.04393564164638519,0.26577380299568176,0.15441904962062836
41.0,0.23011307418346405,-0.044138118624687195,0.2660224139690399,0.15425047278404236
42.0,0.2300131767988205,-0.044316887855529785,0.2662414312362671,0.15410879254341125
43.0,0.22994907200336456,-0.044430941343307495,0.2663811147212982,0.15403464436531067
44.0,0.2298862636089325,-0.04454240947961807,0.26651743054389954,0.15397433936595917
45.0,0.2298167496919632,-0.04466554522514343,0.26666808128356934,0.15391750633716583
46.0,0.22977404296398163,-0.04474089667201042,0.26676005125045776,0.1539076715707779
47.0,0.2295568436384201,-0.04512283578515053,0.26722612977027893,0.15363113582134247
48.0,0.2294510453939438,-0.04530772939324379,0.2674511969089508,0.15352442860603333
49.0,0.22931937873363495,-0.0455365888774395,0.2677295506000519,0.1534533053636551
50.0,0.2290351390838623,-0.04602696746587753,0.2683250904083252,0.15316133201122284
51.0,0.22884759306907654,-0.046347543597221375,0.2687137722969055,0.1528959572315216
52.0,0.22861847281455994,-0.04673702269792557,0.26918476819992065,0.15265369415283203
53.0,0.22852277755737305,-0.046899497509002686,0.26938125491142273,0.15280187129974365
54.0,0.22813980281352997,-0.04754047095775604,0.27015313506126404,0.15244777500629425
55.0,0.22792845964431763,-0.04789159446954727,0.27057498693466187,0.15226632356643677
56.0,0.2273579090833664,-0.04882550984621048,0.2716921865940094,0.1512853503227234
57.0,0.22705517709255219,-0.049318037927150726,0.27228018641471863,0.15119320154190063
58.0,0.22596842050552368,-0.05103566497564316,0.2743135988712311,0.14974619448184967
59.0,0.22589196264743805,-0.05117896571755409,0.27449095249176025,0.149810329079628
60.0,0.2256869524717331,-0.05150385573506355,0.27487555146217346,0.1496974229812622
61.0,0.22261062264442444,-0.05608421936631203,0.28019392490386963,0.14569516479969025
62.0,0.2205098420381546,-0.05896950513124466,0.2834562361240387,0.14216424524784088
63.0,0.2203984558582306,-0.05945329740643501,0.28411659598350525,0.14154206216335297
64.0,0.22841446101665497,-0.04820891469717026,0.27134406566619873,0.1510101854801178
65.0,0.2246948778629303,-0.05415823310613632,0.27836260199546814,0.1460687220096588
66.0,0.22539664804935455,-0.05353103578090668,0.2777806222438812,0.14657485485076904
67.0,0.2441813349723816,-0.036552488803863525,0.26186737418174744,0.17008717358112335
68.0,0.23247551918029785,-0.052886322140693665,0.27988186478614807,0.16059675812721252
69.0,0.2311481088399887,-0.05442896857857704,0.2814957797527313,0.1594310849905014
70.0,0.22839723527431488,-0.05743209645152092,0.2845762073993683,0.15753990411758423
71.0,0.22807487845420837,-0.057897310703992844,0.2850903272628784,0.1568673551082611
72.0,0.22378882765769958,-0.06785860657691956,0.296791672706604,0.14444079995155334
73.0,0.22852885723114014,-0.06396529823541641,0.29316720366477966,0.14548629522323608
74.0,0.23031668365001678,-0.062329959124326706,0.29157552123069763,0.14602059125900269
75.0,0.22944018244743347,-0.06381910294294357,0.2932969629764557,0.14292746782302856
76.0,0.24406325817108154,-0.04928094893693924,0.2786937952041626,0.16003009676933289
77.0,0.24094824492931366,-0.0565197728574276,0.2874453067779541,0.16672560572624207
78.0,0.2213660627603531,-0.07472699880599976,0.3052448332309723,0.15475058555603027
79.0,0.2187376320362091,-0.07685760408639908,0.30721238255500793,0.150727316737175
80.0,0.23518279194831848,-0.0650995522737503,0.297139048576355,0.1600269228219986
81.0,0.2390666902065277,-0.06214544177055359,0.2945172190666199,0.15313772857189178
82.0,0.24427078664302826,-0.0569801889359951,0.2893630266189575,0.1543155163526535
83.0,0.23826968669891357,-0.06475380808115005,0.297821581363678,0.15204718708992004
84.0,0.24200496077537537,-0.06413163244724274,0.2984245717525482,0.15904708206653595
85.0,0.25624212622642517,-0.05022191256284714,0.28457772731781006,0.15971459448337555
86.0,0.24885110557079315,-0.05942254513502121,0.2945064902305603,0.1505936235189438
87.0,0.2647782862186432,-0.05186089500784874,0.2901102900505066,0.16403940320014954
88.0,0.261900395154953,-0.057912472635507584,0.2972845137119293,0.15835334360599518
89.0,0.2556397318840027,-0.06460819393396378,0.30417677760124207,0.15029728412628174
90.0,0.26422441005706787,-0.057372044771909714,0.2973525822162628,0.15591129660606384
91.0,0.2680472433567047,-0.05811547860503197,0.29970821738243103,0.1438729166984558
92.0,0.2792300879955292,-0.04816392436623573,0.2901345491409302,0.15624895691871643
93.0,0.2757958173751831,-0.05269821733236313,0.2950890064239502,0.15628916025161743
94.0,0.2723177671432495,-0.05692018195986748,0.2996019124984741,0.15715773403644562
95.0,0.2897531986236572,-0.04639154300093651,0.29127225279808044,0.15509988367557526
96.0,0.31055793166160583,-0.024320179596543312,0.2689071297645569,0.1646573841571808
97.0,0.3031216859817505,-0.03899291157722473,0.2856137752532959,0.16053082048892975
98.0,0.30750447511672974,-0.040525883436203,0.2889190912246704,0.15944373607635498
99.0,0.30776453018188477,-0.041166506707668304,0.289823979139328,0.16085748374462128
100.0,0.3071364164352417,-0.04203161969780922,0.29076361656188965,0.1595829427242279
