epoch,scaling,scale,wavelength,sigma
0.0,0.10000000149011612,0.10000000149011612,0.10000000149011612,0.33000001311302185
1.0,0.1653704047203064,-0.0064531839452683926,0.19871027767658234,0.2084702104330063
2.0,0.15623526275157928,-0.029191309586167336,0.22049084305763245,0.18911224603652954
3.0,0.15638244152069092,-0.03317713364958763,0.2249816209077835,0.17067964375019073
4.0,0.15718619525432587,-0.039823513478040695,0.23309022188186646,0.19005967676639557
5.0,0.13648419082164764,-0.06274140626192093,0.2559029757976532,0.1834644079208374
6.0,0.13279016315937042,-0.06960348784923553,0.2636551260948181,0.19207632541656494
7.0,0.117806576192379,-0.08485009521245956,0.27840888500213623,0.19785286486148834
8.0,0.11311466246843338,-0.0941065102815628,0.28942784667015076,0.19935248792171478
9.0,0.1192006766796112,-0.09126480668783188,0.28796735405921936,0.1933668851852417
10.0,0.11434563994407654,-0.10178585350513458,0.3008597791194916,0.19493943452835083
11.0,0.11490505188703537,-0.10205361247062683,0.3013884425163269,0.1913805902004242
12.0,0.11992155760526657,-0.09874900430440903,0.2987843453884125,0.19619609415531158
13.0,0.11117187142372131,-0.10658577084541321,0.3060731291770935,0.19715788960456848
14.0,0.11205548793077469,-0.1068074181675911,0.3066750168800354,0.1981876939535141
15.0,0.12823370099067688,-0.09372776746749878,0.2951803207397461,0.2028433233499527
16.0,0.11663150787353516,-0.10673604905605316,0.3084653317928314,0.19968286156654358
17.0,0.12981416285037994,-0.09628432989120483,0.2994565963745117,0.20090286433696747
18.0,0.12295646965503693,-0.10466395318508148,0.3084695637226105,0.19892822206020355
19.0,0.13785924017429352,-0.08947166800498962,0.29333195090293884,0.19727686047554016
20.0,0.14020387828350067,-0.08913162350654602,0.29407668113708496,0.20554444193840027
21.0,0.13941732048988342,-0.09249188005924225,0.29868432879447937,0.20155808329582214
22.0,0.1497803032398224,-0.08118632435798645,0.2869831919670105,0.19735220074653625
23.0,0.15770429372787476,-0.07791748642921448,0.2860620617866516,0.19407033920288086
24.0,0.16497135162353516,-0.06885562092065811,0.27610906958580017,0.19087517261505127
25.0,0.16656462848186493,-0.06781996786594391,0.2755087614059448,0.1868813931941986
26.0,0.1697126030921936,-0.06625440716743469,0.2750115394592285,0.186712846159935
27.0,0.17325294017791748,-0.06456650793552399,0.2744128704071045,0.18815109133720398
28.0,0.17640016973018646,-0.06955847889184952,0.2825550138950348,0.18794485926628113
29.0,0.1814928501844406,-0.06612040847539902,0.27988043427467346,0.19597353041172028
30.0,0.17241311073303223,-0.07718832045793533,0.2918083965778351,0.18701109290122986
31.0,0.169575497508049,-0.08113856613636017,0.2962392270565033,0.1866891086101532
32.0,0.17524836957454681,-0.07703860849142075,0.29283270239830017,0.19126036763191223
33.0,0.17882691323757172,-0.07453696429729462,0.290802925825119,0.19181029498577118
34.0,0.18090444803237915,-0.0746384710073471,0.2919013798236847,0.18861225247383118
35.0,0.17948468029499054,-0.0777798593044281,0.29579904675483704,0.19398987293243408
36.0,0.1742059886455536,-0.0835016742348671,0.30170804262161255,0.1919710636138916
37.0,0.16975130140781403,-0.08864793926477432,0.30713745951652527,0.19179944694042206
38.0,0.18605013191699982,-0.07509160041809082,0.2948925793170929,0.18682976067066193
39.0,0.2008579969406128,-0.05918553099036217,0.2785206437110901,0.1853203922510147
40.0,0.20657846331596375,-0.06018923968076706,0.28263866901397705,0.17748530209064484
41.0,0.21233049035072327,-0.054074060171842575,0.27644243836402893,0.18130548298358917
42.0,0.21378099918365479,-0.05306115746498108,0.27563610672950745,0.18433777987957
43.0,0.21261754631996155,-0.05554622411727905,0.27864742279052734,0.1829201728105545
44.0,0.21415266394615173,-0.055681534111499786,0.279445081949234,0.1832619607448578
45.0,0.2188400775194168,-0.055183086544275284,0.28057876229286194,0.1831943541765213
46.0,0.22185534238815308,-0.05340929701924324,0.27930447459220886,0.1844666302204132
47.0,0.22540277242660522,-0.05209267884492874,0.27880463004112244,0.183279886841774
48.0,0.23089925944805145,-0.047537852078676224,0.27461159229278564,0.1927977055311203
49.0,0.21506762504577637,-0.06640828400850296,0.2945777475833893,0.19332696497440338
50.0,0.19954778254032135,-0.08302811533212662,0.31153661012649536,0.19906695187091827
51.0,0.19989179074764252,-0.08577819913625717,0.3155820071697235,0.19754858314990997
52.0,0.1868920475244522,-0.10126856714487076,0.3320086598396301,0.1835397630929947
53.0,0.2114829123020172,-0.08175883442163467,0.3148112893104553,0.19707021117210388
54.0,0.21258780360221863,-0.08260312676429749,0.31654295325279236,0.19262151420116425
55.0,0.20203553140163422,-0.0951928198337555,0.33002781867980957,0.19647222757339478
56.0,0.21791838109493256,-0.08191671222448349,0.3179851472377777,0.1889066994190216
57.0,0.2308708280324936,-0.0692005529999733,0.3053942322731018,0.18889449536800385
58.0,0.24505281448364258,-0.05442756414413452,0.2904617488384247,0.19839000701904297
59.0,0.23907321691513062,-0.0633045956492424,0.30056890845298767,0.1907241940498352
60.0,0.23087593913078308,-0.07358091324567795,0.3116186857223511,0.1941746324300766
61.0,0.24359218776226044,-0.06238466501235962,0.3011109530925751,0.19334161281585693
62.0,0.23064208030700684,-0.07980329543352127,0.32036685943603516,0.18574829399585724
63.0,0.25417622923851013,-0.059941425919532776,0.3019891381263733,0.19276359677314758
64.0,0.254212349653244,-0.062290728092193604,0.3053320348262787,0.18470977246761322
65.0,0.2543674111366272,-0.0647471696138382,0.3088650703430176,0.18648147583007812
66.0,0.27144551277160645,-0.04534707963466644,0.2885594964027405,0.1948338747024536
67.0,0.261257529258728,-0.060144323855638504,0.30515024065971375,0.18480604887008667
68.0,0.27276331186294556,-0.05102312192320824,0.2969141900539398,0.1904088407754898
69.0,0.26896554231643677,-0.056697700172662735,0.30328837037086487,0.1859721839427948
70.0,0.2857927978038788,-0.04335998743772507,0.29125458002090454,0.1900506615638733
71.0,0.2889994978904724,-0.04024658724665642,0.28817927837371826,0.18928101658821106
72.0,0.29485464096069336,-0.03651188313961029,0.28514575958251953,0.17488496005535126
73.0,0.29976317286491394,-0.030363019555807114,0.2786491811275482,0.1820586770772934
74.0,0.2988234758377075,-0.03342800587415695,0.28234532475471497,0.17260590195655823
75.0,0.3092804253101349,-0.025970617309212685,0.275557279586792,0.18823543190956116
76.0,0.31375545263290405,-0.029844164848327637,0.2814444899559021,0.18107213079929352
77.0,0.3181745409965515,-0.027766890823841095,0.2798692584037781,0.17959067225456238
78.0,0.3218710422515869,-0.02580239623785019,0.2782890498638153,0.17376229166984558
79.0,0.3259274363517761,-0.021693121641874313,0.27415144443511963,0.17902866005897522
80.0,0.32707375288009644,-0.025445638224482536,0.27874982357025146,0.1728004813194275
81.0,0.32975077629089355,-0.03637619689106941,0.292178750038147,0.1687774360179901
82.0,0.34166988730430603,-0.028093695640563965,0.2844506502151489,0.1754903793334961
83.0,0.3506387770175934,-0.02545084059238434,0.28284865617752075,0.17995114624500275
84.0,0.36706089973449707,-0.012432157061994076,0.2700499892234802,0.183265820145607
85.0,0.36878275871276855,-0.01334813516587019,0.27141129970550537,0.17990390956401825
86.0,0.37166061997413635,-0.0109743382781744,0.2690737843513489,0.1848052442073822
87.0,0.38337844610214233,-0.014679059386253357,0.27478134632110596,0.18775396049022675
88.0,0.3848770558834076,-0.022099805995821953,0.2836282253265381,0.18356473743915558
89.0,0.38979843258857727,-0.022365674376487732,0.2846583127975464,0.1850701868534088
90.0,0.3935641050338745,-0.025704143568873405,0.289115846157074,0.18261855840682983
91.0,0.3996465504169464,-0.02881280705332756,0.2938833236694336,0.182436004281044
92.0,0.40538766980171204,-0.034701038151979446,0.30206242203712463,0.17387539148330688
93.0,0.41325849294662476,-0.02864653617143631,0.29618048667907715,0.18321380019187927
94.0,0.4215570092201233,-0.02211506851017475,0.2897754907608032,0.17916828393936157
95.0,0.4200119972229004,-0.02802455797791481,0.2966586947441101,0.17465761303901672
96.0,0.4453480541706085,-0.020139308646321297,0.2914927005767822,0.17894712090492249
97.0,0.4491574168205261,-0.018023958429694176,0.28953462839126587,0.18174418807029724
98.0,0.451323926448822,-0.020701048895716667,0.2931722104549408,0.18097157776355743
99.0,0.45767730474472046,-0.01889902353286743,0.2919894754886627,0.18397417664527893
100.0,0.47145262360572815,-0.014285845682024956,0.2889847755432129,0.17084062099456787
