acc,loss,val_acc,val_loss
0.6313958168029785,1.2573436969121297,0.8727499842643738,0.41382474055949675
0.9155625104904175,0.2812486766378085,0.9336666464805603,0.2209110991593371
0.937250018119812,0.20185825833678245,0.9459166526794434,0.17615744055427135
0.9477916955947876,0.16545103096961974,0.9648333191871643,0.1201593274488411
0.9507708549499512,0.1530451443195343,0.9599999785423279,0.1346846990921396
0.9571874737739563,0.13528572409351666,0.9514166712760925,0.15930214659013647
0.9582916498184204,0.12895680143435795,0.9524999856948853,0.15436416230303177
0.9621041417121887,0.12144501260171334,0.9269999861717224,0.23209192310558988
0.9624375104904175,0.11812339408198992,0.9225000143051147,0.24456799133343898
0.965666651725769,0.10614119760195415,0.9664999842643738,0.1115470345508545
0.9661041498184204,0.10421618506064018,0.9645000100135803,0.11810926799761488
0.9652291536331177,0.10482892652601003,0.9434166550636292,0.1841224162898799
0.9675416946411133,0.101187128427128,0.9617499709129333,0.1253368610595452
0.9651666879653931,0.10655067767947912,0.9557499885559082,0.148271730387623
0.9701041579246521,0.09357837348928054,0.9729999899864197,0.09309742400581215
0.9700833559036255,0.09257730861753226,0.9617499709129333,0.12195217191301128
0.9711458086967468,0.08965774830927452,0.9673333168029785,0.10578708102966243
0.9670833349227905,0.0988770809409519,0.9693333506584167,0.10241560487354055
0.9687291383743286,0.09359405251592398,0.9706666469573975,0.09891497140671028
0.9727291464805603,0.08167876778294643,0.9681666493415833,0.10481902384298279
0.9744583368301392,0.07729829912011822,0.9704999923706055,0.09948536853722119
0.973562479019165,0.08092586187149088,0.971666693687439,0.0947012818676043
0.9756041765213013,0.07360102067887783,0.968833327293396,0.09742643734677991
0.9729583263397217,0.07918958157052597,0.9726666808128357,0.0909066371758409
0.9745208621025085,0.07492394716416796,0.9768333435058594,0.0780921225495478
0.9759583473205566,0.07311267420339088,0.9664999842643738,0.112631205687339
0.9769791960716248,0.06912316209698717,0.968500018119812,0.10800114959636901
0.9759791493415833,0.0710002279492716,0.9662500023841858,0.11172980519923124
0.9777500033378601,0.06684749586631854,0.9679166674613953,0.10792176223340187
0.9759791493415833,0.06960342518861096,0.9727500081062317,0.09351500906446512
0.9783958196640015,0.06345944121479988,0.9670000076293945,0.10754716618263975
0.9786875247955322,0.06450539859632651,0.9705833196640015,0.10100642322225774
0.9787708520889282,0.0624864179144303,0.9669166803359985,0.11353592332848843
0.9785833358764648,0.062388488213842117,0.9674166440963745,0.10841989166479796
0.9800833463668823,0.059725509766489264,0.9737499952316284,0.08844577764319454
0.9801666736602783,0.05803221821536621,0.9731666445732117,0.09140136810217767
0.9806666374206543,0.057746564683814845,0.971916675567627,0.09999025711155635
0.9808750152587891,0.05697924747131765,0.9785833358764648,0.07723361118003091
0.9810000061988831,0.05607642540211479,0.9713333249092102,0.1014371674329518
0.9804375171661377,0.05907714861879746,0.9670000076293945,0.12405807839983955
0.9823750257492065,0.05461689595505595,0.9661666750907898,0.11782510686626142
0.9829583168029785,0.05064844301901758,0.971750020980835,0.09790074055954973
0.9810208082199097,0.056578869814053176,0.9730833172798157,0.09189763267901033
0.9826041460037231,0.051036387740323944,0.9744166731834412,0.088163386336825
0.98416668176651,0.04792450823169202,0.9679999947547913,0.1095913528326027
0.9819999933242798,0.05243219179163376,0.9739166498184204,0.09483950904154397
0.9837708473205566,0.050390280709601935,0.9729166626930237,0.09340168084909624
0.9818958044052124,0.05199195036602517,0.9695833325386047,0.11099458764247755
0.9826250076293945,0.0508244925676845,0.9549999833106995,0.16065596143140437
0.9826250076293945,0.05103518891769151,0.9666666388511658,0.12377903394480334
0.9813125133514404,0.0544330582547312,0.9580000042915344,0.16469973785446046
0.9821666479110718,0.051094337570791445,0.9681666493415833,0.12103698442273951
0.9841041564941406,0.045639710066840054,0.9585000276565552,0.1582670397462046
0.9827499985694885,0.0499763496555388,0.9602500200271606,0.1477018070625181
0.9826041460037231,0.05046070754776398,0.9564999938011169,0.16017858361072362
0.9834583401679993,0.04785123736535509,0.9635000228881836,0.14443407416779627
0.984208345413208,0.04652604163003465,0.9444166421890259,0.20542764723142412
0.9856250286102295,0.043057524350316574,0.9509999752044678,0.18488217077832272
0.9850833415985107,0.04279375477228314,0.9470833539962769,0.19089364664668731
0.9871666431427002,0.03788230956772653,0.9481666684150696,0.20201205739632566
0.9869999885559082,0.03718100863384704,0.9514166712760925,0.18171759623479336
0.987416684627533,0.03678353908541612,0.9629166722297668,0.1338725803182163
0.9857083559036255,0.04192982950247824,0.9664166569709778,0.14251109337473802
0.9877708554267883,0.034846392425359224,0.9604166746139526,0.16085619675094617
0.9869583249092102,0.03698348574697351,0.9622499942779541,0.15173696109311693
0.9875624775886536,0.03695946328326439,0.9623333215713501,0.1447372087376549
0.9875208139419556,0.037685529471375045,0.9490833282470703,0.2022674707497688
0.9871875047683716,0.03816721942679336,0.9449999928474426,0.2118545331932763
0.9842708110809326,0.04785856284666806,0.9727500081062317,0.10670907854875351
0.989229142665863,0.03185820384998806,0.9662500023841858,0.12584469839930534
0.9898124933242798,0.030328976379397014,0.9781666398048401,0.09143588069747104
0.9886249899864197,0.033015411910212906,0.9724166393280029,0.11464177071305111
0.9885625243186951,0.03339356168305191,0.9676666855812073,0.13176381733625175
0.9853749871253967,0.04262114778913868,0.9748333096504211,0.0956771863832515
0.9867916703224182,0.03767466775933281,0.9673333168029785,0.12661780215839438
0.9886041879653931,0.03388547852006741,0.9762499928474426,0.09383050559901018
0.9881458282470703,0.034113166914942365,0.9695833325386047,0.11655481040299415
0.9871041774749756,0.03827761152635018,0.9705833196640015,0.11245981686094657
0.9884374737739563,0.0324527424670135,0.9626666903495789,0.14830186185327934
0.9879999756813049,0.03533019255039593,0.9756666421890259,0.09406789360032912
0.9903958439826965,0.02940131653433976,0.971833348274231,0.11171765758239842
0.9871458411216736,0.03670877620096629,0.9700833559036255,0.11970595487869008
0.9876875281333923,0.03463802430111294,0.9740833044052124,0.11137094764791905
0.9892083406448364,0.030604886976691583,0.9711666703224182,0.11579617429920967
0.9886458516120911,0.03203254894260317,0.9706666469573975,0.1188298868253193
0.9898958206176758,0.0294328855809678,0.9631666541099548,0.15403784026807926
0.9879791736602783,0.0355618621778364,0.9613333344459534,0.15325628571767122
0.989104151725769,0.033028389152449864,0.9632499814033508,0.15038510687411466
0.9896666407585144,0.030326184820694227,0.9738333225250244,0.11169686778745752
0.9886249899864197,0.03255526088453674,0.9769166707992554,0.09429404481086245
0.9893541932106018,0.029193593186947208,0.9741666913032532,0.12066707953295493
0.988937497138977,0.03148740051919594,0.9738333225250244,0.11352921340693818
0.9907291531562805,0.0264021102693708,0.968999981880188,0.13108452452108899
0.9884166717529297,0.03450372813836051,0.9695000052452087,0.12404140148391114
0.9902291893959045,0.028331007961028568,0.9693333506584167,0.124348264895974
0.9917916655540466,0.0233692957359987,0.9776666760444641,0.10010562587697852
0.9904583096504211,0.02767523284256458,0.9728333353996277,0.11400655268671665
0.9903958439826965,0.02790535407909192,0.9710833430290222,0.12939468657280853
0.9898958206176758,0.028859583496426543,0.9631666541099548,0.1577808410920044
0.9903125166893005,0.02786164977766263,0.9705833196640015,0.13503291447983778
