acc,loss,val_acc,val_loss
0.8766250014305115,0.42154103885094324,0.9455000162124634,0.19322348504941514
0.9581458568572998,0.14072977954149246,0.9677500128746033,0.11237797779130175
0.9768333435058594,0.07938664476076762,0.9749166369438171,0.08173315455899277
0.9861666560173035,0.05136225770662228,0.9760000109672546,0.07332272915803689
0.9905624985694885,0.034656206969171766,0.9780833125114441,0.07137849406299597
0.9938958287239075,0.023925910643457126,0.9789166450500488,0.07060257973585357
0.9953749775886536,0.017257342726302645,0.9755833148956299,0.08514727151734715
0.996749997138977,0.012716254053016504,0.9756666421890259,0.08683328009507757
0.9970625042915344,0.010349594018111627,0.9762499928474426,0.09386563293903352
0.9976458549499512,0.00876680599587659,0.9757500290870667,0.0966797186596755
0.996833324432373,0.009199843204347417,0.9747499823570251,0.10364585508037596
0.9973958134651184,0.00799289517030896,0.9775000214576721,0.09873473580847396
0.9977916479110718,0.006744518160393151,0.9804999828338623,0.08232396207328767
0.9982708096504211,0.005295272149669472,0.981083333492279,0.08572766061208428
0.9991666674613953,0.0029659589388271947,0.9807500243186951,0.08823825524465993
0.9988541603088379,0.0042175285037083085,0.981416642665863,0.08560204036915278
0.9985625147819519,0.004675277774552038,0.9825833439826965,0.07809587437015503
0.9995833039283752,0.0016226133268379878,0.9794999957084656,0.10109108382776538
0.9982916712760925,0.005245700382127931,0.9815833568572998,0.08881918741625416
0.9985208511352539,0.004460595315899506,0.9815833568572998,0.09054987270513827
0.9992708563804626,0.002314626335810923,0.9809166789054871,0.09446872895251603
0.9990416765213013,0.002927976537660773,0.9832500219345093,0.0848345795173837
0.999708354473114,0.0011058419206104494,0.9833333492279053,0.08766121611072177
0.9995208382606506,0.0018182459611113396,0.9821666479110718,0.0966162105122497
0.9982916712760925,0.004727760264790656,0.9825000166893005,0.08948419095163154
0.9993749856948853,0.001977039335398634,0.9837499856948853,0.09906630563404797
0.9996874928474426,0.0012277261424751486,0.9830833077430725,0.10058273761743738
0.9996458292007446,0.0011940018033859208,0.9834166765213013,0.09602960674531827
0.9999791383743286,0.00019555873755401385,0.984083354473114,0.09768922978075856
1.0,2.6345851363354692e-05,0.984083354473114,0.09899162721871727
1.0,1.575923120662992e-05,0.98416668176651,0.10034533151225875
1.0,1.16818075826662e-05,0.984333336353302,0.10155226549913811
1.0,9.063961202324814e-06,0.984250009059906,0.10272302261635444
1.0,7.195885929377255e-06,0.984416663646698,0.10393471659726662
1.0,5.804840055210055e-06,0.984416663646698,0.1051666146915445
1.0,4.732664501981768e-06,0.984250009059906,0.10643567354853734
1.0,3.897167036257087e-06,0.984250009059906,0.10766969788162781
1.0,3.2299048693289478e-06,0.984416663646698,0.10887203277432375
1.0,2.6902514620322413e-06,0.984250009059906,0.11006323018595372
1.0,2.237559872772484e-06,0.984333336353302,0.11126970476103219
1.0,1.865467062875344e-06,0.984416663646698,0.11247537534460363
1.0,1.5558880060382307e-06,0.984416663646698,0.11367111974398521
1.0,1.3021867027399972e-06,0.984333336353302,0.114843380347967
1.0,1.0968523648576442e-06,0.984499990940094,0.11596021455417765
1.0,9.258860356974689e-07,0.98458331823349,0.11709314791723859
1.0,7.813096932404543e-07,0.984416663646698,0.11823219638663528
1.0,6.605194352739356e-07,0.984416663646698,0.11943521567310741
1.0,5.561430025788165e-07,0.984416663646698,0.12069455987656066
1.0,4.68722439980714e-07,0.984250009059906,0.12190825351461733
1.0,3.960104602107606e-07,0.984250009059906,0.12314629876939936
1.0,3.3423501911163576e-07,0.984250009059906,0.12437436810698776
1.0,2.825420406136203e-07,0.984250009059906,0.12557896163399318
1.0,2.388753377982056e-07,0.984333336353302,0.12679130231422858
1.0,2.024328488253365e-07,0.984416663646698,0.1279708494089488
1.0,1.718338658583581e-07,0.984499990940094,0.12915148576688992
1.0,1.4608753289646613e-07,0.98458331823349,0.13038490898677393
1.0,1.241632295843805e-07,0.98458331823349,0.13161613430585997
1.0,1.0569591813706462e-07,0.98458331823349,0.1328506859062643
1.0,8.992318343651699e-08,0.98458331823349,0.13416538353113597
1.0,7.658177745832143e-08,0.98458331823349,0.13544051333825977
1.0,6.530415517932061e-08,0.98458331823349,0.13674277462921317
1.0,5.576249676186862e-08,0.98458331823349,0.13801624344414498
1.0,4.762898339342551e-08,0.98458331823349,0.1392846809396839
1.0,4.076950847838508e-08,0.98458331823349,0.1405834096017388
1.0,3.501767846803005e-08,0.98458331823349,0.14185902273096232
1.0,3.007298966650751e-08,0.984499990940094,0.14317656945039733
1.0,2.5908125241317728e-08,0.984499990940094,0.14443716919983304
1.0,2.241132626679132e-08,0.984499990940094,0.14563901210803767
1.0,1.9344175894738432e-08,0.984333336353302,0.14687327591471988
1.0,1.682091624373901e-08,0.984333336353302,0.14805467728996896
1.0,1.4627964779615847e-08,0.984333336353302,0.14919764049273723
1.0,1.2675914725424064e-08,0.984333336353302,0.15025808116407713
1.0,1.1101360210060325e-08,0.984333336353302,0.15133740012228653
1.0,9.765223881815407e-09,0.984416663646698,0.15249405812484348
1.0,8.51601070224935e-09,0.984333336353302,0.153477171689059
1.0,7.502732446429405e-09,0.984250009059906,0.15458766896389814
1.0,6.60121263384994e-09,0.984250009059906,0.15554023381444923
1.0,5.846220819449854e-09,0.984250009059906,0.15666432854546303
1.0,5.103646624575001e-09,0.984250009059906,0.15746449941309856
1.0,4.547336790524289e-09,0.984250009059906,0.15843777619217805
1.0,4.035730427768651e-09,0.984333336353302,0.15936506060957809
1.0,3.6184980502322145e-09,0.984416663646698,0.16029034351312563
1.0,3.188848017791438e-09,0.984416663646698,0.1611517811640438
1.0,2.813835550193507e-09,0.984416663646698,0.16201791614511582
1.0,2.5182959153546847e-09,0.984416663646698,0.16281626140271527
1.0,2.277393863714394e-09,0.984416663646698,0.16357530420306765
1.0,2.004205957787756e-09,0.984499990940094,0.16409423512638757
1.0,1.7831720981279867e-09,0.984499990940094,0.16482294933459107
1.0,1.5720723500756151e-09,0.984499990940094,0.1655465216671672
1.0,1.3932584412105578e-09,0.984499990940094,0.16603022815830934
1.0,1.2367962676229638e-09,0.984499990940094,0.16661986486060032
1.0,1.1424222579788553e-09,0.984499990940094,0.16753584331252447
1.0,1.028180034297795e-09,0.984499990940094,0.1678535216709186
1.0,9.313224966038074e-10,0.984499990940094,0.16871954025828986
1.0,8.319814311559999e-10,0.984499990940094,0.16880217691246896
1.0,7.723767906734717e-10,0.984499990940094,0.16929301137121186
1.0,7.028380476133596e-10,0.98458331823349,0.16977742826298844
1.0,6.432334078709801e-10,0.984666645526886,0.1702042907714263
1.0,5.985299257697344e-10,0.984666645526886,0.1702050282919933
1.0,5.563099746789627e-10,0.984666645526886,0.17051712166250838
