acc,loss,val_acc,val_loss
0.7663750052452087,0.7649159493843715,0.8700833320617676,0.43666189306593955
0.8990833163261414,0.3429057257175446,0.9120833277702332,0.2982038581307898
0.921541690826416,0.2629773312608401,0.9339166879653931,0.22840343233435711
0.9386875033378601,0.20783044532934825,0.9456666707992554,0.1875856509234043
0.950208306312561,0.17096078740557036,0.9538333415985107,0.15801839958480063
0.9589583277702332,0.1408864041864872,0.9585833549499512,0.14427429477268078
0.9657291769981384,0.11762057951589426,0.9628333449363708,0.13166584688773814
0.9707291722297668,0.10054184074699879,0.9669166803359985,0.11869638948205938
0.9751250147819519,0.08562490014731884,0.971666693687439,0.1000104108825326
0.979604184627533,0.0720203301385045,0.971916675567627,0.09397323609904405
0.981416642665863,0.06311522327611843,0.9742500185966492,0.08913799103825017
0.984666645526886,0.05333914536982775,0.9744166731834412,0.08674025690143412
0.9873541593551636,0.044858600201706095,0.9772499799728394,0.07751694990401255
0.9895208477973938,0.03794892657424013,0.9760000109672546,0.08278167263624515
0.9916041493415833,0.031193400155132014,0.9737499952316284,0.0886898196024939
0.9922083616256714,0.027982183859373132,0.9733333587646484,0.08865602406613687
0.9936249852180481,0.02350875197785596,0.9757500290870667,0.08140463285901128
0.9940624833106995,0.021737355014930168,0.9768333435058594,0.07700624684010574
0.9943958520889282,0.019884059206893047,0.9752500057220459,0.08365304818614683
0.995145857334137,0.017511164551911255,0.9763333201408386,0.08580235757448888
0.9964374899864197,0.014101498466605942,0.9764166474342346,0.09091190739653687
0.9972083568572998,0.010713854735717178,0.9782500267028809,0.0906514731146633
0.9968541860580444,0.012342319656939556,0.9769166707992554,0.09243129887320894
0.9981041550636292,0.007459582935863485,0.9767500162124634,0.11036491126411575
0.9982708096504211,0.0071017460184327015,0.9771666526794434,0.09940126229156838
0.9975416660308838,0.008904511579467604,0.9797499775886536,0.09002145832067633
0.9983958601951599,0.006009117907766873,0.9802500009536743,0.09394345370225331
0.9980208277702332,0.006753438248143842,0.9754166603088379,0.1080393269645704
0.9977291822433472,0.007594581640015046,0.9779166579246521,0.10078342541299284
0.9986041784286499,0.006184803045830146,0.9778333306312561,0.10526795249105372
0.9991875290870667,0.0032794195539318023,0.9797499775886536,0.09616703209913079
0.9980833530426025,0.006454919031316725,0.9802500009536743,0.10379009054443661
0.9984583258628845,0.0054878681137536965,0.9764999747276306,0.12147477049222018
0.9993125200271606,0.0031950870069364706,0.9808333516120911,0.1026978465527831
0.9996458292007446,0.0016724028237513266,0.981249988079071,0.10582070068135471
1.0,0.0005010224094512524,0.981333315372467,0.10654512582240909
0.9998958110809326,0.0005876290593854113,0.9784166812896729,0.11482623567621401
0.9964166879653931,0.010936251147281533,0.9791666865348816,0.11030885107515558
0.9992708563804626,0.0033385195736433766,0.9795833230018616,0.11088478265013149
0.9987916946411133,0.004750979216129054,0.9803333282470703,0.1009927719950359
0.9995416402816772,0.0020388050745629395,0.9803333282470703,0.10672574702766724
0.9986666440963745,0.004098137897599372,0.9779166579246521,0.10946531462027355
0.9985416531562805,0.004352224287489662,0.9771666526794434,0.13313214720581024
0.9983124732971191,0.00524262982418198,0.9789999723434448,0.10656749754846889
0.9995208382606506,0.001685651132519221,0.981333315372467,0.10704025445367268
0.9995625019073486,0.0016684479714458576,0.9806666374206543,0.1051065731035704
0.9993125200271606,0.002873311186255402,0.9781666398048401,0.1202899940903893
0.999625027179718,0.0014999484255883242,0.981166660785675,0.1133698179503281
0.9994791746139526,0.0015989684681802221,0.981083333492279,0.11678464464754104
0.9994375109672546,0.0016437628756260285,0.9792500138282776,0.13766093629392537
0.9984166622161865,0.005521083027667677,0.9787499904632568,0.125247804274624
0.9989166855812073,0.0034239881223256815,0.9793333411216736,0.12179766452383309
0.9993125200271606,0.002091536021935705,0.9788333177566528,0.11879315249810114
0.9993333220481873,0.0028187315763158645,0.9805833101272583,0.1111796975369253
0.999750018119812,0.0011112120315277328,0.981249988079071,0.11783115712100976
1.0,0.0001406206561317352,0.9824166893959045,0.11930425262092266
1.0,4.762440112244803e-05,0.9820833206176758,0.12085122336869043
1.0,3.1644164680074025e-05,0.9819166660308838,0.12303693451094853
1.0,2.4565414379443003e-05,0.9819999933242798,0.12487630779604784
1.0,2.0049889875281224e-05,0.9821666479110718,0.12650406582316523
1.0,1.6669231541754925e-05,0.9824166893959045,0.1279310210524698
1.0,1.406455144001484e-05,0.9825000166893005,0.12918102134478837
1.0,1.1961048052853584e-05,0.9823333621025085,0.13044351835215104
1.0,1.0211627210386117e-05,0.9825000166893005,0.1317767577990437
1.0,8.722848420120499e-06,0.9824166893959045,0.1330225569592024
1.0,7.443378236719885e-06,0.9825833439826965,0.13427404660738018
1.0,6.367550631618239e-06,0.9825000166893005,0.1356739629681447
1.0,5.414413990176096e-06,0.9825833439826965,0.1371638409142382
1.0,4.615024490287093e-06,0.9825833439826965,0.13850682504656764
1.0,3.926292241923572e-06,0.9825000166893005,0.14040265698575607
1.0,3.3276883352186815e-06,0.9824166893959045,0.14186413391044359
1.0,2.815896094546133e-06,0.9824166893959045,0.14339843220862716
1.0,2.386711558112135e-06,0.9824166893959045,0.14499008322265214
1.0,2.027779222563216e-06,0.9824166893959045,0.14650400818305434
1.0,1.7191126576250326e-06,0.9824166893959045,0.1481542390921335
1.0,1.4548330023605634e-06,0.9822499752044678,0.14980639124586745
1.0,1.2312941898452815e-06,0.9822499752044678,0.15141896803006263
1.0,1.0408548303644238e-06,0.9821666479110718,0.15304406527414774
1.0,8.826594912534346e-07,0.9821666479110718,0.154724730318314
1.0,7.466938871374396e-07,0.9820833206176758,0.1563326715660958
1.0,6.288138187121225e-07,0.9820833206176758,0.15793402621492644
1.0,5.310386246719645e-07,0.9820833206176758,0.15957315559789206
1.0,4.4850870710888556e-07,0.9822499752044678,0.16114655987578705
1.0,3.787135457571367e-07,0.9821666479110718,0.16277977583976197
1.0,3.2005145026422116e-07,0.9822499752044678,0.16438836344095484
1.0,2.7033714167146173e-07,0.9822499752044678,0.165980597258967
1.0,2.2869152132898307e-07,0.9823333621025085,0.1676796482967501
1.0,1.933861651958561e-07,0.9825000166893005,0.16929754286641818
1.0,1.6408335264609755e-07,0.9825000166893005,0.17095228626533843
1.0,1.3914896624337796e-07,0.9825833439826965,0.1725555735946349
1.0,1.1829494933598046e-07,0.9825833439826965,0.17413787296219504
1.0,1.0066202051461914e-07,0.9824166893959045,0.17574523146977794
1.0,8.593727047016367e-08,0.9826666712760925,0.1772721460057011
1.0,7.337068232734131e-08,0.9828333258628845,0.17883256824193194
1.0,6.27884154343524e-08,0.9829166531562805,0.1802681277680821
1.0,5.401911149297926e-08,0.9829166531562805,0.1816861425926944
1.0,4.6556134366770864e-08,0.9829166531562805,0.18321745314646604
1.0,4.020825489877329e-08,0.9829999804496765,0.18469950987872183
1.0,3.4784243945799415e-08,0.9829999804496765,0.186165675458465
1.0,3.01400567489137e-08,0.9830833077430725,0.18750448716042062
