acc,loss,val_acc,val_loss
0.9028124809265137,0.33540222435196243,0.9674999713897705,0.1165997198128954
0.9742291569709778,0.0880987489024798,0.9760000109672546,0.0792394462735095
0.9833541512489319,0.05742825196062525,0.9780833125114441,0.06899924301344187
0.9879375100135803,0.03927593847240011,0.9777500033378601,0.07370724673680168
0.9912083148956299,0.02811140404610584,0.9800833463668823,0.07490071521061374
0.9929166436195374,0.022135991579542557,0.9807500243186951,0.076796605425114
0.9938333630561829,0.01821083495890101,0.9817500114440918,0.07121625882350503
0.9948750138282776,0.01637328465298439,0.9834166765213013,0.06316917718504556
0.996666669845581,0.010513931599872498,0.9836666584014893,0.06973812290952798
0.9970625042915344,0.009295079170900862,0.984250009059906,0.07828184936512658
0.9954583048820496,0.013242461782909231,0.9807500243186951,0.08901345565855662
0.9976249933242798,0.0075427652248569454,0.984250009059906,0.0759956845196281
0.9979375004768372,0.006660719710450697,0.984000027179718,0.07635427924647724
0.9973541498184204,0.007996290768787731,0.984000027179718,0.07803088996901196
0.9984583258628845,0.0044347689469310956,0.9795833230018616,0.11237580607585768
0.9979166388511658,0.005812451383001947,0.9826666712760925,0.08488188771298155
0.9978958368301392,0.006616450377652654,0.9850000143051147,0.08048801429035944
0.9980416893959045,0.0059463590053201185,0.9853333234786987,0.08721876662267722
0.9988750219345093,0.0030045874092890397,0.984749972820282,0.08753084067505737
0.9982916712760925,0.005549940267420728,0.9825833439826965,0.0935409476053579
0.9980833530426025,0.005790000550065694,0.9852499961853027,0.0825530567110152
0.9992499947547913,0.002366441450771011,0.984749972820282,0.08439149068649289
0.9994166493415833,0.0016363105670320693,0.9800000190734863,0.13040719330611147
0.9981041550636292,0.006773829627569891,0.9802500009536743,0.10663792312961379
0.9989166855812073,0.0036162919588047467,0.9863333106040955,0.07696301296442819
0.9993541836738586,0.002053824495511435,0.9848333597183228,0.0828588489585332
0.9984583258628845,0.0047345554286575865,0.9835000038146973,0.08882454399018241
0.9986666440963745,0.004199805767799111,0.984666645526886,0.08745016694437002
0.9991041421890259,0.0028324089051385785,0.9839166402816772,0.08784778941449947
0.9990208148956299,0.0031795461270057784,0.98416668176651,0.0918230568583393
0.9993333220481873,0.0022762060446810894,0.9838333129882812,0.09476292796662551
0.9994166493415833,0.0017642365600986523,0.9853333234786987,0.09323543443578602
0.9996458292007446,0.0015729956871208136,0.9838333129882812,0.10157013042369223
0.9987291693687439,0.004357421224515444,0.9829166531562805,0.08611111158809744
0.9992083311080933,0.002990123087237786,0.9859166741371155,0.07377988608014346
0.999875009059906,0.0004245485795490822,0.9852499961853027,0.09631921340706248
0.9999791383743286,0.00012507801942288665,0.9859166741371155,0.08967869059349741
1.0,7.157244620903687e-06,0.9861666560173035,0.0898223103292289
1.0,4.683350050108004e-06,0.9864166378974915,0.09085208609911526
1.0,3.6314484209090853e-06,0.9865000247955322,0.09191960827329095
1.0,2.8906037208559592e-06,0.9865833520889282,0.09299023462768972
1.0,2.329733099320682e-06,0.9867500066757202,0.09407120406589616
1.0,1.8935193631192485e-06,0.9867500066757202,0.09512873177942054
1.0,1.5435214989647506e-06,0.9868333339691162,0.09620289846746351
1.0,1.260495965757465e-06,0.9866666793823242,0.09728877324272692
1.0,1.0321988384645782e-06,0.9866666793823242,0.09844035073265961
1.0,8.483989953935733e-07,0.9867500066757202,0.09956841281586218
1.0,6.965702700555039e-07,0.9868333339691162,0.10068726319553556
1.0,5.720562008799668e-07,0.9868333339691162,0.10189787186631742
1.0,4.623111845960537e-07,0.9869166612625122,0.10309857369566361
1.0,3.7303688298084835e-07,0.9867500066757202,0.10433998858987928
1.0,2.9684887253086006e-07,0.9867500066757202,0.10576964862472177
1.0,2.3476086093632276e-07,0.9867500066757202,0.10731957555792704
1.0,1.8391236813138553e-07,0.9867500066757202,0.10898585320998008
1.0,1.437647202308471e-07,0.9868333339691162,0.11074924000737471
1.0,1.1309130902681374e-07,0.9869166612625122,0.1124736046442669
1.0,8.952302422082781e-08,0.9868333339691162,0.11416328418751992
1.0,7.164683322180564e-08,0.9870833158493042,0.11576278371706018
1.0,5.780628701416527e-08,0.9871666431427002,0.11734529190081176
1.0,4.701049104468188e-08,0.9872499704360962,0.1188971661370556
1.0,3.850944055105998e-08,0.9872499704360962,0.12038762735693886
1.0,3.1806441552539866e-08,0.9872499704360962,0.12181613835607158
1.0,2.636754484693545e-08,0.9870833158493042,0.1232104916160992
1.0,2.1956819489243882e-08,0.9870833158493042,0.12453945148109907
1.0,1.832343232373764e-08,0.9870833158493042,0.12581128424296262
1.0,1.5387911961687688e-08,0.9869999885559082,0.12705130899162867
1.0,1.2961512237286143e-08,0.9870833158493042,0.12828166879776176
1.0,1.0925024483743328e-08,0.9872499704360962,0.12950990285688183
1.0,9.17414096054022e-09,0.9872499704360962,0.13066698651338335
1.0,7.765983291404173e-09,0.9872499704360962,0.1317974679888981
1.0,6.626045942000521e-09,0.9872499704360962,0.13295643247175434
1.0,5.590416321125483e-09,0.9872499704360962,0.13409713042614274
1.0,4.768369654832109e-09,0.987333357334137,0.13522360622722612
1.0,4.0332462534209414e-09,0.987333357334137,0.13635584843962076
1.0,3.4272660761243873e-09,0.9872499704360962,0.13741222974190684
1.0,2.908209209599259e-09,0.987333357334137,0.13842700101431446
1.0,2.468625170208109e-09,0.987333357334137,0.13943107910055447
1.0,2.101063328504201e-09,0.9872499704360962,0.14045440699084472
1.0,1.8080072516172644e-09,0.987333357334137,0.14145572824470926
1.0,1.5497205375266295e-09,0.987333357334137,0.14241361433629846
1.0,1.3162690638187277e-09,0.987333357334137,0.14327281522288884
1.0,1.1399386942538096e-09,0.987333357334137,0.14404824435244704
1.0,9.85960059818325e-10,0.987333357334137,0.14483318527557437
1.0,8.617837384446621e-10,0.987416684627533,0.14566040323024645
1.0,7.549920972849122e-10,0.987583339214325,0.1464466745798813
1.0,6.357828257937588e-10,0.987583339214325,0.14704342951861624
1.0,5.687276100433773e-10,0.987583339214325,0.147667006911535
1.0,5.091229700049383e-10,0.987416684627533,0.14824660946300128
1.0,4.495183310027073e-10,0.987416684627533,0.14860257674985902
1.0,4.023313242562665e-10,0.987416684627533,0.14880877678312712
1.0,3.650784239361826e-10,0.987416684627533,0.14884321777136886
1.0,3.402431583883943e-10,0.987333357334137,0.1490923802334498
1.0,3.0795731135550377e-10,0.987416684627533,0.14922461419444716
1.0,2.905726246282825e-10,0.987416684627533,0.14907372306556996
1.0,2.8312204403135864e-10,0.987416684627533,0.14922968427226274
1.0,2.707044110354199e-10,0.987500011920929,0.14903277473267543
1.0,2.6077030446103324e-10,0.987500011920929,0.14864925104923452
1.0,2.657373576001968e-10,0.987416684627533,0.1489391410529045
1.0,2.4090209057211117e-10,0.987500011920929,0.14813990640885655
1.0,2.3593503713688806e-10,0.987416684627533,0.14815477752375364
