acc,loss,val_acc,val_loss
0.6570624709129333,1.2062582804361979,0.921833336353302,0.2957957295027185
0.9192083477973938,0.26754985213279725,0.9399999976158142,0.20066439923136792
0.9362499713897705,0.20226738451917967,0.9421666860580444,0.19108029106195937
0.9227083325386047,0.22960698827604453,0.09833333641290665,2.302710018259414
0.11083333194255829,2.3016165866851805,0.11275000125169754,2.3010057667468455
0.11227083206176758,2.30137717628479,0.11275000125169754,2.300994467228017
0.11227083206176758,2.3013740043640136,0.11275000125169754,2.3009950734199363
0.11227083206176758,2.3013716430664064,0.11275000125169754,2.3009952687202615
0.11227083206176758,2.3013700625101725,0.11275000125169754,2.3009952687202615
0.11227083206176758,2.3013692366282146,0.11275000125169754,2.3009954690933228
0.11227083206176758,2.3013688837687174,0.11275000125169754,2.3009955274297837
0.11227083206176758,2.301368870417277,0.11275000125169754,2.3009955502570945
0.11227083206176758,2.301369098027547,0.11275000125169754,2.3009957506301557
0.11227083206176758,2.3013695373535157,0.11275000125169754,2.300995720193741
0.11227083206176758,2.3013701642354327,0.11275000125169754,2.3009957480937877
0.11227083206176758,2.301370896657308,0.11275000125169754,2.300995793748409
0.11227083206176758,2.301371747970581,0.11275000125169754,2.30099588759402
0.11227083206176758,2.3013726730346677,0.11275000125169754,2.300996072748874
0.11227083206176758,2.301373654683431,0.11275000125169754,2.3009960524579314
0.11227083206176758,2.301374624252319,0.11275000125169754,2.300996293412878
0.11227083206176758,2.301375556310018,0.11275000125169754,2.3009963720402817
0.11227083206176758,2.3013763987223306,0.11275000125169754,2.3009965825588146
0.11227083206176758,2.3013770739237467,0.11275000125169754,2.300996978232201
0.11227083206176758,2.30137779045105,0.11275000125169754,2.3009973891237947
0.11227083206176758,2.301373524983724,0.11275000125169754,2.3009963796493853
0.11227083206176758,2.3013737030029295,0.11275000125169754,2.300996197030899
0.11227083206176758,2.3013735326131184,0.11275000125169754,2.3009963593584426
0.11227083206176758,2.301373078664144,0.11275000125169754,2.300996392331225
0.11227083206176758,2.301372360229492,0.11275000125169754,2.3009962046400028
0.11227083206176758,2.3013713976542154,0.11275000125169754,2.3009962300036815
0.11227083206176758,2.3013702023824054,0.11275000125169754,2.3009961031852884
0.11227083206176758,2.3013688004811605,0.11275000125169754,2.3009986598440944
0.11227083206176758,2.301361310958862,0.11275000125169754,2.3009965292950896
0.11227083206176758,2.301359052022298,0.11275000125169754,2.300996331458396
0.11227083206176758,2.3013568515777587,0.11275000125169754,2.300996478567732
0.11227083206176758,2.301353364308675,0.11275000125169754,2.3009959687577917
0.11227083206176758,2.301352085749308,0.11275000125169754,2.3009958799849164
0.11227083206176758,2.301350934346517,0.11275000125169754,2.3009956035208194
0.11227083206176758,2.3013532797495526,0.11275000125169754,2.3010031339970043
0.11227083206176758,2.3013415660858154,0.11275000125169754,2.3009984138164112
0.11227083206176758,2.3013413683573405,0.11275000125169754,2.3009973358600697
0.11227083206176758,2.3013406429290773,0.11275000125169754,2.30099681336829
0.11227083206176758,2.301339855194092,0.11275000125169754,2.300996760104565
0.11227083206176758,2.3013385086059572,0.11275000125169754,2.300996054994299
0.11227083206176758,2.3013352190653484,0.11275000125169754,2.300994497664431
0.11227083206176758,2.301334524154663,0.11275000125169754,2.3009943454823594
0.11227083206176758,2.3013339602152505,0.11275000125169754,2.3009942237367023
0.11227083206176758,2.3013334159851073,0.11275000125169754,2.3009943784551417
0.11227083206176758,2.3013323313395184,0.11275000125169754,2.3009947360830103
0.11227083206176758,2.301329772949219,0.11275000125169754,2.3009941831548164
0.11227083206176758,2.3013293533325196,0.11275000125169754,2.3009939041543515
0.11227083206176758,2.3013289744059247,0.11275000125169754,2.3009938356724193
0.11227083206176758,2.3013286329905194,0.11275000125169754,2.300993812845108
0.11227083206176758,2.301328265508016,0.11275000125169754,2.300993873717937
0.11227083206176758,2.3013279304504395,0.11275000125169754,2.30099396502718
0.11227083206176758,2.3013275737762453,0.11275000125169754,2.300993855963362
0.11227083206176758,2.3013272507985434,0.11275000125169754,2.300993645444829
0.11227083206176758,2.3013268934885662,0.11275000125169754,2.300993731681337
0.11227083206176758,2.3013265768686932,0.11275000125169754,2.3009934704354467
0.11227083206176758,2.301326238632202,0.11275000125169754,2.3009935541355864
0.11227083206176758,2.3013259080251056,0.11275000125169754,2.300993503408229
0.11227083206176758,2.3013254502614338,0.11275000125169754,2.3009932928896966
0.11227083206176758,2.3013224538167316,0.11275000125169754,2.3009934450717684
0.11227083206176758,2.3013222014109296,0.11275000125169754,2.3009935287719077
0.11227083206176758,2.3013221696217854,0.11275000125169754,2.300993270062386
0.11227083206176758,2.3013221638997394,0.11275000125169754,2.3009934247808252
0.11227083206176758,2.301322156906128,0.11275000125169754,2.3009932903533286
0.11227083206176758,2.3013221708933513,0.11275000125169754,2.300993412098986
0.11227083206176758,2.3013221708933513,0.11275000125169754,2.3009934780445507
0.11227083206176758,2.3013221715291343,0.11275000125169754,2.3009934298535613
0.11227083206176758,2.3013221708933513,0.11275000125169754,2.3009934298535613
0.11227083206176758,2.3013221696217854,0.11275000125169754,2.3009934298535613
0.11227083206176758,2.3013221747080483,0.11275000125169754,2.300993505944597
0.11227083206176758,2.3013221753438313,0.11275000125169754,2.3009934755081827
0.11227083206176758,2.3013221708933513,0.11275000125169754,2.3009934298535613
0.11227083206176758,2.301322172164917,0.11275000125169754,2.3009934298535613
0.11227083206176758,2.3013221708933513,0.11275000125169754,2.3009934298535613
0.11227083206176758,2.3013221747080483,0.11275000125169754,2.300993505944597
0.11227083206176758,2.3013221702575684,0.11275000125169754,2.3009934755081827
0.11227083206176758,2.301322167714437,0.11275000125169754,2.3009934755081827
0.11227083206176758,2.3013221759796143,0.11275000125169754,2.3009934298535613
0.11227083206176758,2.301322167714437,0.11275000125169754,2.300993505944597
0.11227083206176758,2.301322177886963,0.11275000125169754,2.3009934755081827
0.11227083206176758,2.3013221728007,0.11275000125169754,2.300993505944597
0.11227083206176758,2.301322172164917,0.11275000125169754,2.3009934755081827
0.11227083206176758,2.3013221696217854,0.11275000125169754,2.3009934298535613
0.11227083206176758,2.3013221696217854,0.11275000125169754,2.3009934755081827
0.11227083206176758,2.3013221696217854,0.11275000125169754,2.3009934755081827
0.11227083206176758,2.301322172164917,0.11275000125169754,2.3009934298535613
0.11227083206176758,2.3013221696217854,0.11275000125169754,2.3009934298535613
0.11227083206176758,2.3013221747080483,0.11275000125169754,2.3009934298535613
0.11227083206176758,2.3013221708933513,0.11275000125169754,2.3009934298535613
0.11227083206176758,2.3013221708933513,0.11275000125169754,2.300993505944597
0.11227083206176758,2.3013221708933513,0.11275000125169754,2.3009934298535613
0.11227083206176758,2.3013221638997394,0.11275000125169754,2.3009934755081827
0.11227083206176758,2.301322173436483,0.11275000125169754,2.3009934298535613
0.11227083206176758,2.3013221759796143,0.11275000125169754,2.3009934298535613
0.11227083206176758,2.301322167714437,0.11275000125169754,2.300993505944597
0.11227083206176758,2.301322174072266,0.11275000125169754,2.3009934298535613
0.11227083206176758,2.3013221696217854,0.11275000125169754,2.3009934298535613
