epoch,scaling,scale,wavelength,sigma
0.0,0.10000000149011612,0.10000000149011612,0.10000000149011612,0.33000001311302185
1.0,0.16971835494041443,-0.030541783198714256,0.2254682034254074,0.18034428358078003
2.0,0.15765777230262756,-0.04453737661242485,0.2395658940076828,0.16993053257465363
3.0,0.1646116077899933,-0.041841596364974976,0.23800265789031982,0.15449443459510803
4.0,0.15720464289188385,-0.05148099735379219,0.2480950504541397,0.15980897843837738
5.0,0.17183344066143036,-0.04057350382208824,0.2385338842868805,0.17049537599086761
6.0,0.17682841420173645,-0.03959057107567787,0.23892781138420105,0.1662217229604721
7.0,0.17574846744537354,-0.041851479560136795,0.2415255755186081,0.16126719117164612
8.0,0.2022716999053955,-0.02227393537759781,0.22427184879779816,0.17814947664737701
9.0,0.19216570258140564,-0.03725290298461914,0.24079746007919312,0.16756407916545868
10.0,0.1879437118768692,-0.042196523398160934,0.24598093330860138,0.1680041253566742
11.0,0.20913520455360413,-0.022693047299981117,0.22681567072868347,0.1870327889919281
12.0,0.19813033938407898,-0.038631077855825424,0.2443343698978424,0.17819400131702423
13.0,0.1654091477394104,-0.06727302074432373,0.27201804518699646,0.1631196141242981
14.0,0.1914626657962799,-0.04900876060128212,0.2560124397277832,0.16569310426712036
15.0,0.19835713505744934,-0.04454880952835083,0.25232139229774475,0.1684316247701645
16.0,0.19214046001434326,-0.051942866295576096,0.2601076066493988,0.1503668874502182
17.0,0.21392719447612762,-0.031231774017214775,0.23977281153202057,0.18319688737392426
18.0,0.19140109419822693,-0.055240340530872345,0.26414525508880615,0.17201706767082214
19.0,0.21233774721622467,-0.038767967373132706,0.249111145734787,0.18519578874111176
20.0,0.20445580780506134,-0.048677366226911545,0.2596660554409027,0.18358027935028076
21.0,0.19010865688323975,-0.0619991198182106,0.2727092504501343,0.1733592301607132
22.0,0.18336424231529236,-0.06889545917510986,0.2796085774898529,0.16733418405056
23.0,0.20599929988384247,-0.050312746316194534,0.2623462378978729,0.180191770195961
24.0,0.19675172865390778,-0.06874159723520279,0.2837385833263397,0.15368588268756866
25.0,0.20736566185951233,-0.05940292403101921,0.2749090790748596,0.15407074987888336
26.0,0.21841353178024292,-0.046572279185056686,0.2613871395587921,0.16964943706989288
27.0,0.20139916241168976,-0.06935255974531174,0.28627893328666687,0.1450486034154892
28.0,0.21766731142997742,-0.05576752871274948,0.27384400367736816,0.15165984630584717
29.0,0.22287508845329285,-0.04975272715091705,0.2675418555736542,0.16822446882724762
30.0,0.22088368237018585,-0.058672357350587845,0.27914556860923767,0.13988147675991058
31.0,0.23398730158805847,-0.04246915504336357,0.2617708146572113,0.15167772769927979
32.0,0.2444411963224411,-0.03246833384037018,0.2523452043533325,0.15926599502563477
33.0,0.242182657122612,-0.03702611103653908,0.25774136185646057,0.15603598952293396
34.0,0.24930383265018463,-0.025429660454392433,0.24467404186725616,0.16476035118103027
35.0,0.2505294680595398,-0.023468082770705223,0.24250739812850952,0.15833762288093567
36.0,0.2543351352214813,-0.01905318722128868,0.23812994360923767,0.1655842661857605
37.0,0.24429844319820404,-0.04238003119826317,0.2643595039844513,0.1514676958322525
38.0,0.25600752234458923,-0.03255297616124153,0.2552620768547058,0.15780851244926453
39.0,0.25810572504997253,-0.030675580725073814,0.25348877906799316,0.16245824098587036
40.0,0.260886013507843,-0.028682343661785126,0.2517443597316742,0.1671687662601471
41.0,0.27244675159454346,-0.018278205767273903,0.24175862967967987,0.18211421370506287
42.0,0.2561809718608856,-0.04011177271604538,0.26455986499786377,0.1540427803993225
43.0,0.24130897223949432,-0.055762436240911484,0.2804027199745178,0.13313975930213928
44.0,0.2687661647796631,-0.03632389008998871,0.26300016045570374,0.1563175767660141
45.0,0.2688221037387848,-0.0362640842795372,0.2629398703575134,0.15639740228652954
46.0,0.26868170499801636,-0.03641733527183533,0.2630954682826996,0.15620851516723633
47.0,0.2686954736709595,-0.03640195354819298,0.2630797028541565,0.15625767409801483
48.0,0.26866403222084045,-0.03643650934100151,0.2631150484085083,0.15622738003730774
49.0,0.2686680853366852,-0.03643214330077171,0.2631106674671173,0.15622423589229584
50.0,0.2686799466609955,-0.036419108510017395,0.2630976736545563,0.15623050928115845
51.0,0.26868462562561035,-0.03641405329108238,0.2630925178527832,0.15623033046722412
52.0,0.26868653297424316,-0.036411866545677185,0.2630901336669922,0.15622681379318237
53.0,0.26869654655456543,-0.036401137709617615,0.2630794048309326,0.1562385857105255
54.0,0.26869454979896545,-0.03640352934598923,0.2630820870399475,0.15626206994056702
55.0,0.26867926120758057,-0.036420177668333054,0.2630990743637085,0.15624381601810455
56.0,0.26867160201072693,-0.03642870485782623,0.2631078064441681,0.1562236249446869
57.0,0.2686789929866791,-0.0364205427467823,0.26309967041015625,0.15623199939727783
58.0,0.26867756247520447,-0.03642205893993378,0.26310116052627563,0.15622958540916443
59.0,0.2686837315559387,-0.03641553595662117,0.26309436559677124,0.15623770654201508
60.0,0.2686774730682373,-0.03642253205180168,0.2631015181541443,0.15622451901435852
61.0,0.2686781883239746,-0.0364219956099987,0.26310116052627563,0.1562231332063675
62.0,0.2686799168586731,-0.03642040491104126,0.2630995810031891,0.1562216877937317
63.0,0.2686842978000641,-0.03641531988978386,0.2630944848060608,0.15622387826442719
64.0,0.2686811089515686,-0.036418478935956955,0.26309776306152344,0.1562206745147705
65.0,0.26869744062423706,-0.036400824785232544,0.263079971075058,0.15624597668647766
66.0,0.2688574194908142,-0.03622713312506676,0.2629038095474243,0.15650774538516998
67.0,0.26880818605422974,-0.03628084808588028,0.2629583179950714,0.15645545721054077
68.0,0.2687835693359375,-0.03630783408880234,0.2629857659339905,0.15642867982387543
69.0,0.2687554955482483,-0.03633836284279823,0.26301702857017517,0.15639632940292358
70.0,0.26875898241996765,-0.03633473068475723,0.2630132734775543,0.156407430768013
71.0,0.2687370181083679,-0.036358870565891266,0.26303768157958984,0.15639881789684296
72.0,0.2687229514122009,-0.0363740473985672,0.26305314898490906,0.1563875824213028
73.0,0.2687101364135742,-0.036388251930475235,0.263067364692688,0.15638132393360138
74.0,0.268612802028656,-0.036494262516498566,0.26317521929740906,0.15628263354301453
75.0,0.26858943700790405,-0.036519814282655716,0.263200968503952,0.156264066696167
76.0,0.26859167218208313,-0.03651725500822067,0.2631986439228058,0.15629011392593384
77.0,0.2685582637786865,-0.03655336797237396,0.2632352411746979,0.1562671959400177
78.0,0.2685571610927582,-0.03655460104346275,0.2632366120815277,0.15629775822162628
79.0,0.26852723956108093,-0.03658708184957504,0.26326969265937805,0.15629363059997559
80.0,0.26849886775016785,-0.0366177000105381,0.26330116391181946,0.15627826750278473
81.0,0.26848721504211426,-0.03663036227226257,0.26331400871276855,0.1563035249710083
82.0,0.26843470335006714,-0.03668767213821411,0.2633720636367798,0.15627732872962952
83.0,0.26842719316482544,-0.036696016788482666,0.26338064670562744,0.15630903840065002
84.0,0.2683515250682831,-0.036778826266527176,0.26346468925476074,0.1562545746564865
85.0,0.26822254061698914,-0.036920059472322464,0.2636077404022217,0.15608221292495728
86.0,0.2680809497833252,-0.03707468509674072,0.26376456022262573,0.1558409035205841
87.0,0.267968088388443,-0.037198275327682495,0.2638896703720093,0.15563851594924927
88.0,0.2684233784675598,-0.03669934347271919,0.2633846402168274,0.1561373472213745
89.0,0.2683623731136322,-0.03676808625459671,0.2634546458721161,0.1561221033334732
90.0,0.26830819249153137,-0.036829374730587006,0.263517290353775,0.15615800023078918
91.0,0.2682366967201233,-0.03691050782799721,0.26360002160072327,0.15595601499080658
92.0,0.26818084716796875,-0.036974672228097916,0.26366525888442993,0.15585143864154816
93.0,0.2680872678756714,-0.037083107978105545,0.2637759745121002,0.15562474727630615
94.0,0.2674744129180908,-0.037799667567014694,0.26450562477111816,0.15489648282527924
95.0,0.2674400806427002,-0.037842489778995514,0.26454958319664,0.15490823984146118
96.0,0.2677905857563019,-0.03742334246635437,0.26412326097488403,0.155548557639122
97.0,0.2678074836730957,-0.037403643131256104,0.2641032934188843,0.15565505623817444
98.0,0.26769590377807617,-0.03754626214504242,0.2642494738101959,0.15557436645030975
99.0,0.2678871750831604,-0.03729436174035072,0.26399004459381104,0.15597236156463623
100.0,0.2676018178462982,-0.037690673023462296,0.26440033316612244,0.15572746098041534
