Model,Level,Test,Test_acc,Test_loss
cats_vs_dogs-10-A1Q9.h5,1.0,A1Q9,0.6308552,0.6600923224499351
cats_vs_dogs-100-A1Q9.h5,1.0,A1Q9,0.64159864,0.7762026410353812
cats_vs_dogs-30-A1Q9.h5,1.0,A1Q9,0.6411689,0.6659899071643227
cats_vs_dogs-70-A1Q9.h5,1.0,A1Q9,0.6549205,0.7021511793136597
cats_vs_dogs-10-A2Q9.h5,1.0,A2Q9,0.6128062,0.6658177877727308
cats_vs_dogs-100-A2Q9.h5,1.0,A2Q9,0.62354964,0.6582226878718326
cats_vs_dogs-30-A2Q9.h5,1.0,A2Q9,0.6166738,0.6547287796673021
cats_vs_dogs-70-A2Q9.h5,1.0,A2Q9,0.6368715,0.6514700776652286
cats_vs_dogs-10-A3Q9.h5,1.0,A3Q9,0.5977654,2.8436405658721924
cats_vs_dogs-100-A3Q9.h5,1.0,A3Q9,0.6996132,1.489427597899186
cats_vs_dogs-30-A3Q9.h5,1.0,A3Q9,0.66695315,0.860677348939996
cats_vs_dogs-70-A3Q9.h5,1.0,A3Q9,0.7056296,1.1883089416905452
cats_vs_dogs-10-A1Q9.h5,0.7,A1Q9,0.64288783,0.6460874551220944
cats_vs_dogs-100-A1Q9.h5,0.7,A1Q9,0.6342931,0.8155520872065896
cats_vs_dogs-30-A1Q9.h5,0.7,A1Q9,0.6501934,0.6577088989709553
cats_vs_dogs-70-A1Q9.h5,0.7,A1Q9,0.6562097,0.6945335112119976
cats_vs_dogs-10-A2Q9.h5,0.7,A2Q9,0.6007735,0.6689600411214327
cats_vs_dogs-100-A2Q9.h5,0.7,A2Q9,0.6076493,0.6795169366033453
cats_vs_dogs-30-A2Q9.h5,0.7,A2Q9,0.6218307,0.6458761284225866
cats_vs_dogs-70-A2Q9.h5,0.7,A2Q9,0.6308552,0.6413686149998715
cats_vs_dogs-10-A3Q9.h5,0.7,A3Q9,0.6424581,1.9788190879319842
cats_vs_dogs-100-A3Q9.h5,0.7,A3Q9,0.7094972,1.5335523329283063
cats_vs_dogs-30-A3Q9.h5,0.7,A3Q9,0.69703484,0.7858177360735441
cats_vs_dogs-70-A3Q9.h5,0.7,A3Q9,0.7150838,1.1774554378107975
cats_vs_dogs-10-A1Q9.h5,0.3,A1Q9,0.6471852,0.6405395488989981
cats_vs_dogs-100-A1Q9.h5,0.3,A1Q9,0.617963,0.8668073133418435
cats_vs_dogs-30-A1Q9.h5,0.3,A1Q9,0.6441771,0.6608698556297704
cats_vs_dogs-70-A1Q9.h5,0.3,A1Q9,0.6433176,0.6914632540000113
cats_vs_dogs-10-A2Q9.h5,0.3,A2Q9,0.61237645,0.6689026449856005
cats_vs_dogs-100-A2Q9.h5,0.3,A2Q9,0.58315426,0.7671744760714079
cats_vs_dogs-30-A2Q9.h5,0.3,A2Q9,0.6342931,0.6431189681354322
cats_vs_dogs-70-A2Q9.h5,0.3,A2Q9,0.6119467,0.6645587055306685
cats_vs_dogs-10-A3Q9.h5,0.3,A3Q9,0.7125054,1.3732695705012272
cats_vs_dogs-100-A3Q9.h5,0.3,A3Q9,0.69703484,1.6243321832857633
cats_vs_dogs-30-A3Q9.h5,0.3,A3Q9,0.71809196,0.7601488389466938
cats_vs_dogs-70-A3Q9.h5,0.3,A3Q9,0.68801033,1.3008540680533962
cats_vs_dogs-10-A1Q9.h5,0.1,A1Q9,0.6437473,0.6419638740388971
cats_vs_dogs-100-A1Q9.h5,0.1,A1Q9,0.6076493,0.8938645030322828
cats_vs_dogs-30-A1Q9.h5,0.1,A1Q9,0.6291362,0.6809234430915431
cats_vs_dogs-70-A1Q9.h5,0.1,A1Q9,0.6334336,0.6968103741344652
cats_vs_dogs-10-A2Q9.h5,0.1,A2Q9,0.6059304,0.6646434696097123
cats_vs_dogs-100-A2Q9.h5,0.1,A2Q9,0.549205,0.9653547688534385
cats_vs_dogs-30-A2Q9.h5,0.1,A2Q9,0.6239794,0.6458919612984908
cats_vs_dogs-70-A2Q9.h5,0.1,A2Q9,0.6072196,0.6800626861421686
cats_vs_dogs-10-A3Q9.h5,0.1,A3Q9,0.7146541,1.4306378803755109
cats_vs_dogs-100-A3Q9.h5,0.1,A3Q9,0.68199396,1.7216944443552118
cats_vs_dogs-30-A3Q9.h5,0.1,A3Q9,0.69488615,0.7782950809127406
cats_vs_dogs-70-A3Q9.h5,0.1,A3Q9,0.6712505,1.4506611918148242
