acc,loss,val_acc,val_loss
0.15947499871253967,2.341861227416992,0.2054000049829483,2.1411943133873277
0.23405000567436218,2.0892808311462403,0.2029000073671341,2.0472166960752465
0.2740750014781952,1.9717608032226563,0.27559998631477356,1.9028472266619718
0.30695000290870667,1.8977391647338868,0.3181000053882599,1.825525030305114
0.33307498693466187,1.8447921897888184,0.35519999265670776,1.7718318097199066
0.3407500088214874,1.8293634742736817,0.35019999742507935,1.801767933217785
0.3595750033855438,1.780509076690674,0.3921000063419342,1.715755836873115
0.37252500653266907,1.7492795150756837,0.36500000953674316,1.7528440605236004
0.3872250020503998,1.713885348892212,0.35429999232292175,1.7984979846809483
0.40552499890327454,1.6736042463302612,0.37790000438690186,1.7391626744330684
0.41065001487731934,1.6595264951705933,0.3709999918937683,1.7790791399871246
0.42399999499320984,1.6239780801773072,0.4011000096797943,1.6611051559448242
0.4270249903202057,1.6138094926834106,0.3935999870300293,1.6803219710724264
0.4263499975204468,1.6182386333465577,0.3765000104904175,1.7353157167193256
0.4346500039100647,1.596237883758545,0.38269999623298645,1.7073961149288128
0.44292500615119934,1.5760068897247315,0.3901999890804291,1.6892012976392914
0.44202500581741333,1.574895001411438,0.387800008058548,1.6972043423713008
0.45342499017715454,1.542797543334961,0.40790000557899475,1.6651792903489704
0.4565750062465668,1.5357900329589844,0.40540000796318054,1.6665332845494718
0.4615750014781952,1.5232717250823975,0.4207000136375427,1.620233048366595
0.46787500381469727,1.510291407775879,0.412200003862381,1.6668296358253383
0.47312501072883606,1.494133882522583,0.43059998750686646,1.6169098811813547
0.4729749858379364,1.4912838291168213,0.41100001335144043,1.6564720582358445
0.4793500006198883,1.4784434741973878,0.4169999957084656,1.659503619882125
0.47942501306533813,1.4742244121551513,0.41350001096725464,1.6745355793192416
0.484499990940094,1.4551934164047242,0.43130001425743103,1.62451302552525
0.4875749945640564,1.45279188747406,0.4474000036716461,1.5695011102700536
0.49312499165534973,1.442193366241455,0.4399000108242035,1.589497009410134
0.49410000443458557,1.433895694732666,0.43799999356269836,1.5997910725919506
0.5004000067710876,1.4197016368865967,0.4584999978542328,1.5303052392186998
0.5012750029563904,1.4117715368270873,0.453900009393692,1.54664344274545
0.5004500150680542,1.4157011276245117,0.4519999921321869,1.5614500815355326
0.5044749975204468,1.4070940322875976,0.4593999981880188,1.5457895798019217
0.5070250034332275,1.3976468280792236,0.4514000117778778,1.5610057266452644
0.5102499723434448,1.3927883018493652,0.44920000433921814,1.5728659509103509
0.5015000104904175,1.4077982822418214,0.4625000059604645,1.5511975529827648
0.513824999332428,1.3835208509445192,0.4611999988555908,1.5603320538243162
0.5179749727249146,1.3734647630691528,0.4562999904155731,1.565837009043633
0.5163999795913696,1.374417264175415,0.4537000060081482,1.568571276302579
0.5222749710083008,1.3557434789657592,0.45980000495910645,1.538128735143927
0.5287749767303467,1.3438095960617065,0.4510999917984009,1.5881902069985112
0.530875027179718,1.3393568355560304,0.45739999413490295,1.5451203026349032
0.5371999740600586,1.3231285537719726,0.4586000144481659,1.5506327106982847
0.5388249754905701,1.314123925590515,0.4587000012397766,1.5550123770025712
0.5397999882698059,1.314334730911255,0.4713999927043915,1.516306312778328
0.5348250269889832,1.3196579795837402,0.48249998688697815,1.4781293778479854
0.5341749787330627,1.326104084777832,0.4778999984264374,1.4959251850466184
0.5359500050544739,1.3258736978530883,0.4787999987602234,1.4958282407326033
0.5328500270843506,1.3317877189636231,0.48429998755455017,1.4818630776827848
0.5352749824523926,1.3223336013793945,0.4602000117301941,1.5519447130492972
0.5395249724388123,1.3121020259857177,0.4641000032424927,1.5406403134140787
0.5421500205993652,1.3032493045806886,0.46399998664855957,1.5353374873535544
0.5487250089645386,1.2862743577957154,0.4634000062942505,1.5325023569638216
0.5463749766349792,1.2899393505096435,0.46700000762939453,1.5298958715004256
0.5446249842643738,1.2975713188171387,0.48669999837875366,1.4767158393618427
0.5396000146865845,1.3078901460647583,0.4717000126838684,1.5244325580476206
0.5384250283241272,1.3098246299743652,0.45509999990463257,1.5836110265949104
0.5449000000953674,1.2957792892456055,0.4740000069141388,1.517871699755705
0.5452749729156494,1.2924852811813354,0.47269999980926514,1.5183053212829782
0.5462499856948853,1.284735778427124,0.4742000102996826,1.502935818479031
0.5509250164031982,1.2784673259735106,0.5034999847412109,1.4306334483472607
0.5568249821662903,1.2692796291351318,0.49129998683929443,1.4571058825601506
0.5512999892234802,1.276657900619507,0.4675999879837036,1.5493534214888947
0.5459250211715698,1.2924997369766236,0.4715000092983246,1.5426389808896221
0.5558249950408936,1.2691099601745606,0.4706999957561493,1.537834099576443
0.5564249753952026,1.268617653465271,0.4805000126361847,1.5172479077230525
0.5556250214576721,1.2716272661209107,0.4812000095844269,1.5000124520893339
0.5506749749183655,1.2765686084747314,0.48010000586509705,1.4954739039457297
0.5533999800682068,1.272057050895691,0.48829999566078186,1.4689588863638383
0.5543500185012817,1.2735618482589721,0.48330000042915344,1.505452512185785
0.5551499724388123,1.268230276489258,0.48399999737739563,1.480365818059897
0.5553749799728394,1.2663040727615356,0.4799000024795532,1.4937805903108814
0.5584250092506409,1.2650439126968385,0.44600000977516174,1.5813685293439068
0.5591250061988831,1.2570260946273804,0.4828999936580658,1.479447837117352
0.5635499954223633,1.2484939596176148,0.45590001344680786,1.5510439767113215
0.565500020980835,1.2422419471740722,0.4465000033378601,1.6237982934034323
0.5682250261306763,1.2310896043777466,0.4577000141143799,1.5761557259137118
0.5735250115394592,1.2146246250152588,0.4478999972343445,1.6334889387782616
0.5725749731063843,1.222698189163208,0.44850000739097595,1.6089129191410692
0.5605250000953674,1.2485235773086547,0.44749999046325684,1.632461282271373
0.57607501745224,1.2074261539459228,0.439300000667572,1.6496153858643543
0.5725749731063843,1.217360799407959,0.4562000036239624,1.5962648391723633
0.5830000042915344,1.1924855646133423,0.42980000376701355,1.6702776211726515
0.5766249895095825,1.2012664730072022,0.44749999046325684,1.6087825419027595
0.5730000138282776,1.2183638772964478,0.47679999470710754,1.5444600219967999
0.5750250220298767,1.2104840923309326,0.4747999906539917,1.5482989866522294
0.5769749879837036,1.2021651964187623,0.44909998774528503,1.6052147557463827
0.5774250030517578,1.2081067514419557,0.45739999413490295,1.5962062530879733
0.5700500011444092,1.2198164569854737,0.46939998865127563,1.566191350357442
0.573074996471405,1.2163429943084716,0.45419999957084656,1.6066363114344924
0.5743499994277954,1.205793117427826,0.4641000032424927,1.576254272762733
0.5781999826431274,1.2000970703125,0.45660001039505005,1.6230768704716163
0.5680750012397766,1.225595365715027,0.4611999988555908,1.56577811512766
0.5706250071525574,1.214443515777588,0.4864000082015991,1.4805382942851586
0.573324978351593,1.2183725498199462,0.47369998693466187,1.518695727179322
0.5688750147819519,1.2277622886657715,0.47290000319480896,1.5665785134593142
0.5691249966621399,1.2250994552612304,0.46709999442100525,1.5733915114704566
0.5734500288963318,1.2141423356056213,0.4805999994277954,1.525876915907558
0.5789250135421753,1.202783625793457,0.4627000093460083,1.572825226602675
0.5714499950408936,1.2212222260475158,0.4603999853134155,1.6020759992961642
