acc,loss,val_acc,val_loss
0.21074999868869781,2.0904609798431397,0.2296999990940094,2.035529085352451
0.26284998655319214,1.9828600734710693,0.2761000096797943,1.9738628139978722
0.29280000925064087,1.919679147720337,0.2978000044822693,1.9084687232971191
0.3149249851703644,1.8706014778137208,0.3142000138759613,1.850896127616303
0.3336000144481659,1.8274729228973388,0.3375999927520752,1.8090420825571953
0.3515999913215637,1.790921929168701,0.3456999957561493,1.795662422723408
0.36617499589920044,1.7583995552062988,0.3718999922275543,1.742983566054815
0.37537500262260437,1.7338107383728028,0.37880000472068787,1.7323766086674943
0.38427498936653137,1.7120914344787597,0.3792000114917755,1.7332926958422117
0.39239999651908875,1.6917086431503296,0.38449999690055847,1.7189914244639724
0.39777499437332153,1.6722381244659423,0.3864000141620636,1.715404030642932
0.40435001254081726,1.6535180976867676,0.38510000705718994,1.7004670357402367
0.41084998846054077,1.642281764602661,0.398499995470047,1.684384187565574
0.41632500290870667,1.6203761562347412,0.38690000772476196,1.7061859158020984
0.4207499921321869,1.6107300142288208,0.38920000195503235,1.694088581242139
0.4270249903202057,1.593931298828125,0.392300009727478,1.698157467419588
0.43447500467300415,1.5768752727508546,0.40299999713897705,1.6601030856748171
0.44292500615119934,1.557566085624695,0.4090999960899353,1.6550752105592172
0.45077499747276306,1.5398889713287354,0.4009000062942505,1.6645086701912215
0.45967501401901245,1.5182763566970825,0.41760000586509705,1.6105949818333494
0.4683000147342682,1.494165217781067,0.42910000681877136,1.5753816215297844
0.47542500495910645,1.4784002210617064,0.42989999055862427,1.577191191383555
0.48054999113082886,1.453318687057495,0.4474000036716461,1.5404340270199353
0.48919999599456787,1.4310816625595093,0.45080000162124634,1.5301584820204144
0.4946250021457672,1.4148119665145873,0.4602000117301941,1.5072088558462602
0.5031499862670898,1.3955914512634278,0.46239998936653137,1.5066951739637158
0.5071250200271606,1.3816026376724244,0.4713999927043915,1.4833188087125369
0.5108500123023987,1.3641047142028808,0.477400004863739,1.4706353779080548
0.5196750164031982,1.3455727951049805,0.4812000095844269,1.4635467634925359
0.5246250033378601,1.3317848859786987,0.48249998688697815,1.4542842016944402
0.5275999903678894,1.3207718969345092,0.44940000772476196,1.5562410807307763
0.5329499840736389,1.3098990404129027,0.47429999709129333,1.4833486321606213
0.5406249761581421,1.29255284614563,0.47609999775886536,1.4739094384108917
0.5457749962806702,1.2771386919021606,0.483599990606308,1.4865166507189786
0.5505750179290771,1.2675840950012207,0.47620001435279846,1.4834700430495829
0.5558000206947327,1.2522177780151367,0.48350000381469727,1.464871654027625
0.5616750121116638,1.2399136005401612,0.47360000014305115,1.4932410445394395
0.5629000067710876,1.2346870788574218,0.48399999737739563,1.4650365008583552
0.5654249787330627,1.2278121154785155,0.48750001192092896,1.4580195508425748
0.5696250200271606,1.2108287933349609,0.48159998655319214,1.4679516508609434
0.5699999928474426,1.208641448020935,0.48660001158714294,1.4640280279932143
0.5782750248908997,1.187742873764038,0.4927000105381012,1.454382326029524
0.5814999938011169,1.175247599029541,0.4896000027656555,1.4558284675018698
0.581125020980835,1.172617914581299,0.4900999963283539,1.4513238623172422
0.5881249904632568,1.1591333698272706,0.49630001187324524,1.4535910238193561
0.5920500159263611,1.1467949478149415,0.4893999993801117,1.4563858388345452
0.5904250144958496,1.1470411268234253,0.491100013256073,1.4693664719786825
0.590499997138977,1.1568165296554564,0.49549999833106995,1.4536663188210017
0.5952749848365784,1.1419192633628845,0.4909999966621399,1.4633837893039365
0.5962250232696533,1.1368250804901123,0.4650000035762787,1.537990637972385
0.5980250239372253,1.1287062757492066,0.4595000147819519,1.558436410336555
0.6032999753952026,1.115667529296875,0.46650001406669617,1.5293485997598382
0.607574999332428,1.1065920624732972,0.4722999930381775,1.5197748172132275
0.6101999878883362,1.0953519039154054,0.4778999984264374,1.5081477708454374
0.6143749952316284,1.0807853653907775,0.4812999963760376,1.4978255410737629
0.6175500154495239,1.072664980983734,0.47699999809265137,1.520122463190103
0.6220250129699707,1.0640284286499024,0.4729999899864197,1.5245780507220497
0.6275500059127808,1.0496992624282837,0.48240000009536743,1.5109282837638371
0.6312249898910522,1.0408633563995362,0.48750001192092896,1.5030484984192667
0.6377750039100647,1.0244399906158448,0.4810999929904938,1.5116491378108157
0.6407750248908997,1.0169194557189942,0.48089998960494995,1.524482384512696
0.643875002861023,1.007570344543457,0.4903999865055084,1.5046836273579658
0.6396999955177307,1.0143143320083619,0.4812999963760376,1.536334081541134
0.6382750272750854,1.0149705211639404,0.45840001106262207,1.5898345754116396
0.6392250061035156,1.0141962995529175,0.45559999346733093,1.6213735945617096
0.6370499730110168,1.017515520477295,0.4401000142097473,1.6506331706348853
0.6414750218391418,1.0150570122718812,0.4327999949455261,1.6855290418938746
0.6414250135421753,1.0069121591567993,0.4447000026702881,1.6502413583707205
0.642799973487854,1.003103470993042,0.44769999384880066,1.6488273023050042
0.6496000289916992,0.9934645217895508,0.4458000063896179,1.6662706815743749
0.6519500017166138,0.9827198268890381,0.43160000443458557,1.7229910817327379
0.6559749841690063,0.9720195986747742,0.4381999969482422,1.7022440252424795
0.6599500179290771,0.9587629767417908,0.4499000012874603,1.6781857330587846
0.6594750285148621,0.956050365447998,0.43650001287460327,1.7210637059392808
0.6589000225067139,0.9649010226249695,0.4302000105381012,1.7444343355637562
0.6610749959945679,0.9550246957778931,0.4348999857902527,1.7511190613613854
0.6691499948501587,0.9363888398170471,0.4489000141620636,1.7436369189733192
0.6693999767303467,0.9331959865570069,0.46860000491142273,1.6603677695310568
0.6780750155448914,0.9194541707038879,0.45680001378059387,1.7030181582969954
0.6873250007629395,0.8908825275421143,0.454800009727478,1.7104701754413074
0.6910750269889832,0.8778471420288086,0.447299987077713,1.7614134157760233
0.6949499845504761,0.8723322658538818,0.4417000114917755,1.7844146354288994
0.6867250204086304,0.8812408568382263,0.4399999976158142,1.8297677387165119
0.6886249780654907,0.8795559331893921,0.43639999628067017,1.8234178189989887
0.6920250058174133,0.867000583267212,0.44609999656677246,1.7828854624229142
0.689300000667572,0.8710485593795776,0.4440999925136566,1.8187138445769684
0.6917999982833862,0.8641057285308837,0.44040000438690186,1.8081575707544255
0.6996999979019165,0.8500756736755372,0.4512999951839447,1.79150244404998
0.700124979019165,0.8456457979202271,0.4404999911785126,1.8358904153485842
0.7052749991416931,0.8321371153831482,0.43950000405311584,1.858820486672317
0.7095249891281128,0.8237786792755127,0.4345000088214874,1.8852006393142893
0.7104499936103821,0.8217764629364014,0.43549999594688416,1.885391366632679
0.7096999883651733,0.8202949758529663,0.4415000081062317,1.872273347045802
0.7096999883651733,0.8162814205169677,0.446399986743927,1.8742820447004294
0.7082250118255615,0.8280732130050659,0.4634999930858612,1.773287291768231
0.7003499865531921,0.8436841344833375,0.4767000079154968,1.7737498419194282
0.6995499730110168,0.8443533782958984,0.47209998965263367,1.7988281129281731
0.6945000290870667,0.8543450187683106,0.4724999964237213,1.7985358494746535
0.7021499872207642,0.836360158252716,0.4668999910354614,1.8506757473643822
0.7115499973297119,0.8131860094070434,0.46720001101493835,1.8905666055558603
