acc,loss,val_acc,val_loss
0.32850000262260437,2.0041200378417967,0.2912999987602234,2.0494773644435256
0.4828749895095825,1.595721886062622,0.49390000104904175,1.5588395354114002
0.5643500089645386,1.3735938049316405,0.5548999905586243,1.40156791179995
0.6147000193595886,1.2315623174667358,0.5835000276565552,1.3076561463030079
0.6553500294685364,1.1217979061126708,0.6092000007629395,1.245714272879347
0.6842749714851379,1.0377739899635314,0.6248999834060669,1.2005481395540358
0.7084000110626221,0.9706803738594055,0.6273999810218811,1.2105044541479666
0.7279999852180481,0.9138870454788208,0.6266000270843506,1.2542403015909316
0.7452750205993652,0.8647682355880737,0.6118999719619751,1.3029372948634474
0.7622249722480774,0.8182231494903565,0.5911999940872192,1.4474125693116007
0.7776250243186951,0.7760855672836303,0.5838000178337097,1.5079837614976908
0.7925750017166138,0.738600493144989,0.5756999850273132,1.6029612263546715
0.8047999739646912,0.7033517316818237,0.5827000141143799,1.5953349569175816
0.8175749778747559,0.6703983629703522,0.5855000019073486,1.6383318222021754
0.831125020980835,0.6374522407054901,0.5702000260353088,1.7672024980376038
0.8372250199317932,0.6114888349533081,0.5837000012397766,1.694468793989737
0.8485249876976013,0.5844009905338288,0.5906999707221985,1.6832043007959294
0.8596500158309937,0.5561799113273621,0.5950000286102295,1.743398216706288
0.866474986076355,0.534792644405365,0.605400025844574,1.7151572477968433
0.8706499934196472,0.519226926279068,0.613099992275238,1.6577351123471804
0.8758999705314636,0.5015342780590057,0.590399980545044,1.8343959050842478
0.8768749833106995,0.4926572997093201,0.5651000142097473,1.9894203468214107
0.8815749883651733,0.4818243392944336,0.6014999747276306,1.7433238814148722
0.8884999752044678,0.46131091179847716,0.6014999747276306,1.7741341711599616
0.8956000208854675,0.4480631058931351,0.5929999947547913,1.8787312205833724
0.8939999938011169,0.44234342260360715,0.5830000042915344,2.015605433832241
0.9028249979019165,0.4253044901132584,0.5723000168800354,2.0801946588709384
0.9064000248908997,0.4150974067687988,0.5371000170707703,2.592357713964921
0.9105250239372253,0.4049125697135925,0.5638999938964844,2.352914924863019
0.9150000214576721,0.39296791200637815,0.5396000146865845,2.8186520685123493
0.9188249707221985,0.3813092402458191,0.5878999829292297,2.163664253452156
0.9225999712944031,0.372989248418808,0.5755000114440918,2.35913774937014
0.9092749953269958,0.39861853470802305,0.5849999785423279,2.3604718612719187
0.9228500127792358,0.3686257710933685,0.5676000118255615,2.455510220950163
0.9338750243186951,0.3430142753601074,0.5730000138282776,2.3913171336620667
0.9362750053405762,0.33679596812725066,0.5612000226974487,2.6477402403384827
0.937375009059906,0.3329329302310944,0.5882999897003174,2.365880250930786
0.9379249811172485,0.32912306542396547,0.5580000281333923,2.719602657269828
0.9363999962806702,0.330792223739624,0.5874999761581421,2.50060576426832
0.9402750134468079,0.3247410756111145,0.5874000191688538,2.4122827083249634
0.9425749778747559,0.3183891606807709,0.6187999844551086,2.201702652098257
0.9455249905586243,0.3112193898677826,0.5867999792098999,2.761985143528709
0.9459999799728394,0.3120535110473633,0.5770999789237976,2.658900701546971
0.948074996471405,0.30389117043018343,0.5990999937057495,2.4171942940241173
0.9501000046730042,0.30221618156433105,0.5659999847412109,2.8588135061384756
0.9519500136375427,0.29908127076625823,0.5497999787330627,3.1047913032242014
0.9475250244140625,0.3067658760547638,0.6014000177383423,2.6986985855464694
0.9543750286102295,0.292589590549469,0.593500018119812,2.610661399515369
0.9534500241279602,0.293011159491539,0.6015999913215637,2.625269005570231
0.95107501745224,0.2992948629617691,0.6029000282287598,2.6189431208598464
0.9539750218391418,0.29343259024620055,0.6152999997138977,2.3806364687183237
0.9551249742507935,0.2879988531112671,0.5813000202178955,2.934259849258616
0.9576500058174133,0.28458237800598146,0.5769000053405762,2.949423427823224
0.9586499929428101,0.28081688833236695,0.603600025177002,2.6379031803034527
0.9572499990463257,0.28410072588920593,0.5913000106811523,2.5451891316643245
0.9542250037193298,0.29174237191677094,0.6096000075340271,2.448811515977111
0.9587249755859375,0.28149424538612366,0.5982999801635742,2.5938400905343553
0.9622250199317932,0.2748596449136734,0.5584999918937683,3.240949304797981
0.958299994468689,0.2827440187692642,0.5827000141143799,2.78222529194023
0.9587249755859375,0.2828721151590347,0.6017000079154968,2.6342691333988046
0.963699996471405,0.27040417499542235,0.6039999723434448,2.6751790740821937
0.9592000246047974,0.27932587547302246,0.5855000019073486,3.029934753345538
0.9652500152587891,0.2654107261419296,0.6104000210762024,2.564918768556812
0.9671750068664551,0.2613250303268433,0.5648999810218811,3.095438332497319
0.9545249938964844,0.28939151797294616,0.57669997215271,2.925943881650514
0.9601749777793884,0.28183506302833555,0.5478000044822693,3.7195358729060692
0.9630500078201294,0.27176836626529693,0.6060000061988831,2.5471377418011047
0.9674749970436096,0.25949697036743163,0.5963000059127808,2.8492841992197158
0.9677749872207642,0.2605396961212158,0.5824000239372253,3.0755117060262944
0.9668750166893005,0.26288864798545836,0.5981000065803528,2.8949253589292114
0.9622250199317932,0.2728410460948944,0.5697000026702881,2.932757404786122
0.9624999761581421,0.274955931019783,0.5859000086784363,2.791709607160544
0.9625750184059143,0.27354084901809694,0.5896999835968018,3.0369388634645484
0.9659500122070312,0.263743718290329,0.5820000171661377,3.002790511408939
0.970550000667572,0.2541100507259369,0.6083999872207642,2.766119629521913
0.9684249758720398,0.26033233561515806,0.5885999798774719,3.0618794688695594
0.9606999754905701,0.2788263055562973,0.5911999940872192,2.9030925367451923
0.9612749814987183,0.2764936879634857,0.5740000009536743,3.3394766004779672
0.9674500226974487,0.26510504541397095,0.6047999858856201,2.779241420045684
0.9694749712944031,0.2570083400249481,0.5954999923706055,3.0162522943714
0.9702500104904175,0.2550363787889481,0.6093000173568726,2.8650068029572693
0.9675999879837036,0.262415167760849,0.603600025177002,2.895783201048646
0.9639250040054321,0.27018417155742647,0.5716000199317932,3.223732405071017
0.9642750024795532,0.26921883850097655,0.595300018787384,2.9277706810190707
0.9641749858856201,0.2729323881149292,0.6144999861717224,2.680654469924637
0.9729999899864197,0.25084824805259703,0.6133000254631042,2.812461071376559
0.9711999893188477,0.25235211017131803,0.5777000188827515,3.2310391106183016
0.9728249907493591,0.2484802134990692,0.5950999855995178,2.8668940037111694
0.9678750038146973,0.2634658480167389,0.6028000116348267,2.948269599600683
0.9631999731063843,0.2752101575613022,0.5924000144004822,3.2333344658718834
0.9642000198364258,0.27092294054031374,0.6055999994277954,2.919516569451441
0.9700000286102295,0.2563998056411743,0.6144999861717224,2.7882014075412025
0.9723250269889832,0.25046230216026305,0.5802000164985657,3.3048920269253887
0.9706000089645386,0.25526893761157987,0.5875999927520752,2.9312889515599116
0.9635000228881836,0.27240022764205934,0.6180999875068665,2.652160612842705
0.9666500091552734,0.26737522449493406,0.5953999757766724,3.042519047290464
0.9634000062942505,0.26953824598789217,0.5843999981880188,3.347331200973897
0.9707249999046326,0.25528880105018614,0.5892000198364258,3.302479680580429
0.9747750163078308,0.2454691401720047,0.5719000101089478,3.566132476058187
0.9759500026702881,0.2427340222835541,0.608299970626831,2.876799900320512
