acc,loss,val_acc,val_loss
0.34200000762939453,1.8171498630523681,0.3804999887943268,1.6913427597359767
0.4802500009536743,1.4464824783325196,0.4779999852180481,1.4481607494474966
0.541450023651123,1.2790461456298827,0.482699990272522,1.4568602933159358
0.5914499759674072,1.1552717012405396,0.510699987411499,1.3810385978674586
0.6266499757766724,1.0529060525894165,0.5414999723434448,1.3037104018126862
0.6596500277519226,0.9608589990615845,0.5440000295639038,1.3249382791639883
0.6861249804496765,0.8820352381706238,0.5386000275611877,1.3943254811854302
0.7111250162124634,0.817611527299881,0.5590000152587891,1.3468609821947315
0.737625002861023,0.7522892951965332,0.5618000030517578,1.3594509891316862
0.7670999765396118,0.6725468012809753,0.5659999847412109,1.4395222739328313
0.7845749855041504,0.611937232017517,0.5450999736785889,1.6884948830061322
0.7942749857902527,0.58061936211586,0.5318999886512756,1.8301686863356
0.8126500248908997,0.5336374854803085,0.5590999722480774,1.7362253379218187
0.838699996471405,0.46059511525630953,0.555400013923645,1.813160253476493
0.8611249923706055,0.39918301577568055,0.5515000224113464,1.9822565286974363
0.8691499829292297,0.37139144577980043,0.531499981880188,2.1418746513656424
0.8791000247001648,0.3434695688247681,0.5188000202178955,2.263036125822912
0.9008749723434448,0.2817716878056526,0.5109999775886536,2.4492491257341604
0.9143750071525574,0.2472440569639206,0.4957999885082245,2.6380075548268573
0.921999990940094,0.22427869468927383,0.47780001163482666,3.1403719835643527
0.9175750017166138,0.23186818401813508,0.4948999881744385,3.055368384228477
0.920324981212616,0.2259485733151436,0.5038999915122986,3.1629323687734483
0.9372249841690063,0.1805138577222824,0.5054000020027161,3.103455259830137
0.946524977684021,0.1554858749985695,0.5120000243186951,3.2030931122695345
0.9570000171661377,0.12543271492719651,0.5218999981880188,3.4068800256222107
0.9624999761581421,0.10817155306339264,0.5284000039100647,3.4812681584418574
0.9664000272750854,0.09946995244026184,0.5221999883651733,3.833989445167252
0.9689249992370605,0.09089123544096947,0.5184000134468079,4.132964143270178
0.9724500179290771,0.08339608958214521,0.5127999782562256,4.082430911969535
0.9737499952316284,0.07677762544453144,0.5073999762535095,4.326544158066375
0.9765499830245972,0.06785042881667613,0.517799973487854,4.263767296754861
0.9784500002861023,0.06458997311592102,0.5006999969482422,4.603287220001221
0.9789000153541565,0.0633511613920331,0.5055999755859375,4.799722101114973
0.9785000085830688,0.06436141220480204,0.5065000057220459,4.873712880701959
0.9812250137329102,0.057477746504545214,0.5056999921798706,4.883438502685933
0.9817249774932861,0.05224003668129444,0.4975000023841858,5.10072923611991
0.9822999835014343,0.05157779752835631,0.4943999946117401,5.217572897295408
0.984375,0.047123687895387414,0.505299985408783,4.997386355943318
0.9835000038146973,0.051974853499419986,0.526199996471405,4.778492384319064
0.9861249923706055,0.042387414038181304,0.524399995803833,4.8289281718338595
0.9868000149726868,0.04024466801509261,0.5170000195503235,5.258464749855332
0.9868249893188477,0.03865932617597282,0.5210000276565552,5.259904167320155
0.9858750104904175,0.0422331030793488,0.5228000283241272,5.310704762422586
0.98580002784729,0.04218153849095106,0.531000018119812,5.115745592720901
0.9872000217437744,0.03947716200873256,0.5249000191688538,5.427127297920517
0.9883249998092651,0.035389555609598757,0.5304999947547913,5.418490168414539
0.9891499876976013,0.03341648237369955,0.5227000117301941,5.540330989451348
0.9883750081062317,0.03437727024704218,0.5277000069618225,5.444971700257893
0.9886749982833862,0.03510907354019582,0.5264000296592712,5.672704594044745
0.9884750247001648,0.03550147685087286,0.5224000215530396,5.581305769425404
0.9887499809265137,0.03548807601854205,0.5299999713897705,5.835508382773098
0.9879000186920166,0.0354772823497653,0.5263000130653381,5.598994360694403
0.988099992275238,0.03538369067180902,0.5241000056266785,5.685558071619348
0.9889000058174133,0.03355853869728744,0.5246000289916992,5.980746963356115
0.9918000102043152,0.024919498207047582,0.51910001039505,6.134867342212532
0.989425003528595,0.031907266553491354,0.5232999920845032,5.817917280559298
0.9911500215530396,0.025659632955305278,0.5234000086784363,5.81330158137068
0.9903749823570251,0.028725863880850376,0.5092999935150146,6.313764710969563
0.9918000102043152,0.024453731847368182,0.5281000137329102,6.12573960461194
0.9921749830245972,0.023836144822090864,0.5306000113487244,6.0691147574895545
0.9915750026702881,0.02542099145501852,0.524399995803833,6.007874072352542
0.9911500215530396,0.025848204843327404,0.5267000198364258,6.323386264752738
0.9935500025749207,0.020481274727359413,0.5250999927520752,6.169014870365964
0.990024983882904,0.029539905808866024,0.5260999798774719,6.331980032256887
0.9893249869346619,0.03296561217550188,0.5206000208854675,6.244697468190253
0.990149974822998,0.03058806842751801,0.5232999920845032,6.46056508414353
0.9916750192642212,0.02686723511237651,0.5202000141143799,6.461683925194077
0.9918749928474426,0.02388858703696169,0.5249999761581421,6.476328098321263
0.9918000102043152,0.024984908075258137,0.5205000042915344,6.442294157004055
0.9913750290870667,0.02597524902652949,0.5218999981880188,6.482550192482864
0.9922749996185303,0.024715678684413434,0.5181000232696533,6.371964104567902
0.9931250214576721,0.022195396533049642,0.5217999815940857,6.655387962920757
0.9926249980926514,0.023811353668523952,0.5224999785423279,6.58319127408764
0.9925249814987183,0.02302456409363076,0.5144000053405762,6.514006168027468
0.9903249740600586,0.030601358950324356,0.5116000175476074,6.609837743300426
0.9915249943733215,0.027188897736929358,0.5245000123977661,6.153211684166631
0.9932000041007996,0.02103921174770221,0.5184999704360962,6.726978815054592
0.992900013923645,0.021466963909147308,0.522599995136261,6.390866466715366
0.9936500191688538,0.01940862651625648,0.5182999968528748,6.494207593459118
0.9951500296592712,0.014800467404723168,0.5209000110626221,6.582243225242518
0.9943749904632568,0.01575422546551563,0.5194000005722046,6.955571038813531
0.9936500191688538,0.019495637554163114,0.5169000029563904,6.985383184650276
0.992900013923645,0.023262340230681,0.5184999704360962,6.863633554193038
0.9931750297546387,0.021953219597646966,0.5127999782562256,7.401390818100941
0.9898499846458435,0.03244161203452386,0.5235000252723694,6.723567184013657
0.9934999942779541,0.020019227137067355,0.5235000252723694,7.04512553275386
0.9939749836921692,0.019470539144054055,0.5224999785423279,7.039826278445087
0.9903500080108643,0.029690843376424164,0.5239999890327454,6.7445339190809035
0.9925000071525574,0.02237659019023413,0.5157999992370605,7.060342661942108
0.9940249919891357,0.016956214077491313,0.5224999785423279,7.098977952063838
0.9934499859809875,0.0204477664735663,0.5260999798774719,7.05005172536343
0.9935250282287598,0.01958308772193268,0.5216000080108643,7.190078355089018
0.9934499859809875,0.020544121334981173,0.5242999792098999,7.143116736713844
0.9948999881744385,0.0161150142747676,0.5252000093460083,7.1953679941877535
0.9919000267982483,0.02709850044932682,0.5210999846458435,7.267983581446394
0.9951000213623047,0.016215563274594023,0.5212000012397766,7.170751982097384
0.9956250190734863,0.012636202126112767,0.521399974822998,7.1118363368360304
0.9919750094413757,0.0257351133515127,0.5203999876976013,6.923222137402885
0.9934750199317932,0.020846214041975328,0.51419997215271,7.38081069535847
0.9937999844551086,0.019696519558294677,0.5153999924659729,7.169119514996493
