acc,loss,val_acc,val_loss
0.3391000032424927,1.8186208545684814,0.4117000102996826,1.643515286566336
0.4533750116825104,1.5319934093475343,0.4602000117301941,1.504293056982982
0.4972749948501587,1.4138677337646484,0.47609999775886536,1.4507427970065345
0.5327749848365784,1.3168312370300292,0.4805000126361847,1.4471548161929166
0.5621500015258789,1.2362009534835816,0.4860999882221222,1.4485942909989176
0.5900750160217285,1.159085687828064,0.49239999055862427,1.4462937388239028
0.6151999831199646,1.0893874332427977,0.4950000047683716,1.4475804159912882
0.6381499767303467,1.030034041786194,0.5070000290870667,1.4199977886827686
0.6569250226020813,0.9805191061019898,0.5171999931335449,1.4128453731536865
0.6749749779701233,0.9248649026870728,0.51910001039505,1.465234866625146
0.6948750019073486,0.8700459084510803,0.5221999883651733,1.4918313765827613
0.7125250101089478,0.8216174351215363,0.5088000297546387,1.5789713105068932
0.7247499823570251,0.7862858080387115,0.5016000270843506,1.6797601286369035
0.7387499809265137,0.7490705912590027,0.49000000953674316,1.77245539954946
0.7554500102996826,0.7060873292446136,0.47870001196861267,1.8957825597328475
0.7637500166893005,0.6794525004386902,0.4832000136375427,1.9473511946352222
0.7677249908447266,0.666876073551178,0.49129998683929443,1.9360350460945805
0.7702749967575073,0.6526856420993805,0.5156999826431274,1.8040635917760148
0.7819250226020813,0.6182621699333191,0.5078999996185303,1.8859680604331102
0.8015499711036682,0.5701023780822754,0.5148000121116638,1.9923715712148933
0.8175250291824341,0.5263064167499543,0.5044999718666077,2.1625695515282546
0.8283249735832214,0.49854364590644834,0.4999000132083893,2.3140497645245324
0.8368250131607056,0.4745967657327652,0.4934999942779541,2.3564226808427255
0.8422499895095825,0.455406316947937,0.49160000681877136,2.4378217715251296
0.8338500261306763,0.46872062726020813,0.5011000037193298,2.3128328127197073
0.8348749876022339,0.4642472423553467,0.5041000247001648,2.278241758105121
0.8482999801635742,0.434027303647995,0.5024999976158142,2.4495864125746714
0.853725016117096,0.4174247858047485,0.5113000273704529,2.4514497729796396
0.8603500127792358,0.3958990745306015,0.5123999714851379,2.445645047139518
0.8651000261306763,0.3811916986465454,0.5091999769210815,2.4918154236636583
0.8660749793052673,0.3762197826862335,0.5020999908447266,2.5733653503128244
0.8730250000953674,0.3585273666858673,0.49799999594688416,2.607736210279827
0.8815249800682068,0.3380085349559784,0.5029000043869019,2.692846818815304
0.8882750272750854,0.3162248447060585,0.5113999843597412,2.7279023128219797
0.8880000114440918,0.3164387975692749,0.5170999765396118,2.7470205222504047
0.8895000219345093,0.3092313710689545,0.5094000101089478,2.8846663915658297
0.8931999802589417,0.30302391459941863,0.5084999799728394,2.9365041195591792
0.8997750282287598,0.2847072089314461,0.5041999816894531,3.0706647317620774
0.9067249894142151,0.26085428034067154,0.5127999782562256,3.007188475584682
0.9151750206947327,0.24290458941459656,0.49050000309944153,3.2767435297181335
0.9148250222206116,0.24076157007217408,0.47839999198913574,3.5888041906718966
0.9149249792098999,0.23930894412994386,0.4950000047683716,3.291047781328612
0.915024995803833,0.2421756247282028,0.5012999773025513,3.5086837780626516
0.9238499999046326,0.21706822409629822,0.5081999897956848,3.442799212057379
0.930899977684021,0.1993249280810356,0.510699987411499,3.406925168218492
0.9399999976158142,0.17443022581338882,0.5012999773025513,3.710630208631105
0.9486250281333923,0.1534831104516983,0.492000013589859,4.007294965695731
0.9483749866485596,0.150278471326828,0.4977000057697296,4.050488420679599
0.9514750242233276,0.14423185997009277,0.49939998984336853,4.212117288686052
0.949275016784668,0.14727740390896799,0.5097000002861023,4.076315798336947
0.9481499791145325,0.14701889905929566,0.5077999830245972,4.189439592482168
0.9502999782562256,0.1416150083899498,0.506600022315979,4.339157575293433
0.9542499780654907,0.13272406351566315,0.5008000135421753,4.462669861467579
0.9511500000953674,0.1406294488310814,0.49570000171661377,4.5099991786329054
0.9575999975204468,0.12607857252061366,0.5098000168800354,4.451738580872741
0.957099974155426,0.12130975092053413,0.5078999996185303,4.442012940781026
0.9599000215530396,0.1149164096057415,0.49889999628067017,4.506286144256592
0.9577249884605408,0.12055913347899914,0.5048999786376953,4.550056373016743
0.9601500034332275,0.11658860537409782,0.5011000037193298,4.39436119417601
0.9641249775886536,0.10523064105510711,0.5044999718666077,4.695087444933155
0.9646750092506409,0.10329091538190842,0.49880000948905945,4.63396596304978
0.9659249782562256,0.0990766229391098,0.4896000027656555,5.003985311411604
0.9692749977111816,0.0895087135285139,0.47440001368522644,5.3200273906128315
0.9688000082969666,0.09263352342247963,0.49549999833106995,5.030099693732925
0.9674249887466431,0.0914580836802721,0.49810001254081726,4.958333899703207
0.97017502784729,0.08603126316666602,0.4968999922275543,5.1480443477630615
0.9720249772071838,0.0823015656337142,0.4945000112056732,5.227047784419
0.9726499915122986,0.07954117266908288,0.5016999840736389,5.081276709520364
0.9729750156402588,0.07656069146990777,0.5001000165939331,5.168808288212064
0.9739750027656555,0.07638282892033457,0.51419997215271,5.0698036936265005
0.9726750254631042,0.08156992980316281,0.513700008392334,5.197722736793228
0.9746249914169312,0.07411899582743645,0.5052000284194946,5.3023947371712215
0.9764249920845032,0.06877891328632832,0.5045999884605408,5.283752239203151
0.9755250215530396,0.06880142514705657,0.5019999742507935,5.221878332427785
0.9778249859809875,0.06666001699268818,0.5009999871253967,5.709112384651281
0.9746249914169312,0.07319043781757355,0.49869999289512634,5.388085938707182
0.9764999747276306,0.07159663811028004,0.5040000081062317,5.389464951768706
0.9764750003814697,0.06783763868510723,0.5051000118255615,5.663897019398363
0.9762499928474426,0.06834344889521599,0.5062999725341797,5.65344764612898
0.9763249754905701,0.07115997647196054,0.5052000284194946,5.783839153338082
0.9778000116348267,0.06589622223190963,0.5026999711990356,5.8375887025760695
0.979574978351593,0.0593864116422832,0.5049999952316284,5.888315629355515
0.9804750084877014,0.05785575501322746,0.5085999965667725,5.85248261463793
0.9818750023841858,0.0525755664974451,0.5103999972343445,6.044169359569308
0.9819750189781189,0.05321865537986159,0.5037000179290771,6.097829142703286
0.9827749729156494,0.050139782026410104,0.4999000132083893,6.371434881717344
0.9840750098228455,0.04596367100477219,0.5060999989509583,6.032347154013718
0.98294997215271,0.05098413831591606,0.5116999745368958,6.166680583470984
0.98294997215271,0.049622096982598306,0.5054000020027161,6.12437334543542
0.9793999791145325,0.0618058904632926,0.511900007724762,5.99987309492087
0.9814000129699707,0.055278600640594956,0.5120999813079834,6.106166139433656
0.9845250248908997,0.04819653410390019,0.5073000192642212,6.459381025048751
0.9832000136375427,0.049587704265117646,0.4984999895095825,6.153014696097072
0.9849500060081482,0.04607967795580625,0.5037000179290771,6.473507995846905
0.984125018119812,0.04698314474001527,0.5058000087738037,6.263168190099016
0.9848499894142151,0.041948862156271936,0.507099986076355,6.275087229813201
0.9850000143051147,0.04137465208470821,0.5069000124931335,6.413559889491601
0.9847249984741211,0.043759662995487454,0.5134000182151794,6.2195386464082745
0.9851999878883362,0.044486090790480375,0.5047000050544739,6.537588270404671
0.9853500127792358,0.04222029310464859,0.5062000155448914,6.283335287359696
