epoch,scaling,scale,wavelength,sigma
0.0,0.10000000149011612,0.10000000149011612,0.10000000149011612,0.33000001311302185
1.0,0.055792808532714844,0.14327922463417053,0.05639707297086716,0.3453979194164276
2.0,0.04764515534043312,0.15345916152000427,0.047484662383794785,0.3301216661930084
3.0,0.040163762867450714,0.16305583715438843,0.03934779390692711,0.31019464135169983
4.0,0.036203086376190186,0.16878537833690643,0.03494516760110855,0.2939470410346985
5.0,0.03330891206860542,0.17324846982955933,0.031730733811855316,0.2824416756629944
6.0,0.029651576653122902,0.17834053933620453,0.02784266322851181,0.2645778954029083
7.0,0.02712608128786087,0.18262313306331635,0.025146659463644028,0.25209006667137146
8.0,0.021196752786636353,0.19010373950004578,0.01921234466135502,0.22577236592769623
9.0,0.019296692684292793,0.19467341899871826,0.017356283962726593,0.21379686892032623
10.0,0.01629633828997612,0.19976304471492767,0.014566943980753422,0.19667069613933563
11.0,0.014909543097019196,0.2050260454416275,0.013459281995892525,0.18583892285823822
12.0,0.012187124229967594,0.21175557374954224,0.010987192392349243,0.17873594164848328
13.0,0.01042058877646923,0.21851836144924164,0.009458111599087715,0.16153129935264587
14.0,0.00983243528753519,0.2257319539785385,0.008962340652942657,0.15199477970600128
15.0,0.008619849570095539,0.23343327641487122,0.007884873077273369,0.14938928186893463
16.0,0.009109173901379108,0.2415732741355896,0.00836021639406681,0.14980296790599823
17.0,0.00793290976434946,0.25179845094680786,0.007209216244518757,0.14060229063034058
18.0,0.007221110165119171,0.2588827908039093,0.006580958142876625,0.1309720128774643
19.0,0.006065967492759228,0.26890426874160767,0.005523279309272766,0.11859999597072601
20.0,0.004857858642935753,0.2830793261528015,0.004412524867802858,0.1126939132809639
21.0,0.005301305558532476,0.29597774147987366,0.004823838826268911,0.10391829907894135
22.0,0.004107610788196325,0.3090248703956604,0.003713067155331373,0.099674291908741
23.0,0.0055746217258274555,0.3203260600566864,0.0050566717982292175,0.1035880520939827
24.0,0.0059873368591070175,0.32965874671936035,0.005424325354397297,0.09547272324562073
25.0,0.005914763081818819,0.3421865701675415,0.005382450297474861,0.09673312306404114
26.0,0.005795162636786699,0.35129112005233765,0.005242201965302229,0.10234738886356354
27.0,0.004591099452227354,0.3605056703090668,0.004150680266320705,0.09544450044631958
28.0,0.006589251104742289,0.3684203326702118,0.0059853787533938885,0.09945827722549438
29.0,0.006989675108343363,0.37722617387771606,0.0063455188646912575,0.10446687787771225
30.0,0.006874464452266693,0.3841976523399353,0.0062521654181182384,0.09815266728401184
31.0,0.006287589203566313,0.3921111524105072,0.005721323657780886,0.09015753120183945
32.0,0.0056009176187217236,0.40261194109916687,0.005103225354105234,0.08875317871570587
33.0,0.00673450343310833,0.4110225439071655,0.006180292461067438,0.08487840741872787
34.0,0.0071929870173335075,0.4223517179489136,0.0065650539472699165,0.09661118686199188
35.0,0.007272474933415651,0.4286705553531647,0.006638957653194666,0.09347590059041977
36.0,0.005643822252750397,0.44019895792007446,0.0051564848981797695,0.0841815397143364
37.0,0.006470204796642065,0.44764426350593567,0.005919485818594694,0.08835845440626144
38.0,0.007096459623426199,0.45291587710380554,0.0065091801807284355,0.08862604945898056
39.0,0.006591913755983114,0.4614306390285492,0.006066496483981609,0.08392263948917389
40.0,0.006391133181750774,0.47005143761634827,0.005878453142940998,0.08395243436098099
41.0,0.007469333708286285,0.47608959674835205,0.006890092510730028,0.08917278796434402
42.0,0.0071961404755711555,0.48339414596557617,0.006645333021879196,0.08604496717453003
43.0,0.00701140146702528,0.4902290105819702,0.006483579520136118,0.08448075503110886
44.0,0.007286092732101679,0.49649372696876526,0.006750050466507673,0.08532793074846268
45.0,0.006980820093303919,0.5028637051582336,0.006478260736912489,0.08455542474985123
46.0,0.007166948169469833,0.5104848742485046,0.006669392343610525,0.08471570163965225
47.0,0.0076950653456151485,0.5166656970977783,0.007179527077823877,0.08389108628034592
48.0,0.007019984535872936,0.5237720608711243,0.0065443068742752075,0.08268225193023682
49.0,0.007069883402436972,0.5298429727554321,0.0065952748991549015,0.08323108404874802
50.0,0.007875832729041576,0.5368537306785583,0.007378717884421349,0.08437631279230118
51.0,0.007299699354916811,0.5441144704818726,0.006835350766777992,0.0803699865937233
52.0,0.00816161185503006,0.5521187782287598,0.007643823977559805,0.08466103672981262
53.0,0.007956234738230705,0.5586681365966797,0.007452161051332951,0.0801144614815712
54.0,0.008892112411558628,0.5665498971939087,0.008352094329893589,0.08454453945159912
55.0,0.008019733242690563,0.5736087560653687,0.007516409270465374,0.07932188361883163
56.0,0.008509241044521332,0.5805249810218811,0.007999246940016747,0.08102649450302124
57.0,0.008660207502543926,0.5883477926254272,0.008140434511005878,0.08156740665435791
58.0,0.008766240440309048,0.5951545238494873,0.008245247416198254,0.08173305541276932
59.0,0.008900731801986694,0.601896345615387,0.008359313011169434,0.08148982375860214
60.0,0.009868157096207142,0.6089091897010803,0.00930736679583788,0.08508392423391342
61.0,0.00991148129105568,0.6155970692634583,0.009358665905892849,0.08016493171453476
62.0,0.009324888698756695,0.623441219329834,0.00878561194986105,0.08021833747625351
63.0,0.008696201257407665,0.6323065757751465,0.008213993161916733,0.07948135584592819
64.0,0.00988417211920023,0.6445674300193787,0.009430338628590107,0.07923871278762817
65.0,0.009298467077314854,0.6497345566749573,0.008806988596916199,0.07531654089689255
66.0,0.009997016750276089,0.6552644371986389,0.009481076151132584,0.07942315936088562
67.0,0.010240823961794376,0.6607816219329834,0.009710804559290409,0.07638368755578995
68.0,0.009413083083927631,0.666681170463562,0.00892246887087822,0.07635825872421265
69.0,0.010090465657413006,0.6724846363067627,0.009578008204698563,0.08161100745201111
70.0,0.010178172960877419,0.6790065169334412,0.009644725359976292,0.07830330729484558
71.0,0.01011115126311779,0.6843858361244202,0.009581477381289005,0.07792292535305023
72.0,0.010225440375506878,0.6911103129386902,0.009716031141579151,0.07727419584989548
73.0,0.01116944756358862,0.6956860423088074,0.01061848271638155,0.07533584535121918
74.0,0.011258967220783234,0.701224684715271,0.010709023103117943,0.0807872861623764
75.0,0.012417448684573174,0.7059880495071411,0.011827521957457066,0.07848724722862244
76.0,0.012215618044137955,0.7122170925140381,0.011639392003417015,0.07867079228162766
77.0,0.011346511542797089,0.7181565165519714,0.010796674527227879,0.07766905426979065
78.0,0.01244981400668621,0.7224149703979492,0.011867687106132507,0.07977075129747391
79.0,0.012269781902432442,0.7290009260177612,0.011705468408763409,0.0763089656829834
80.0,0.01149279996752739,0.7349222898483276,0.010960948653519154,0.07376627624034882
81.0,0.011270166374742985,0.7418720722198486,0.010740566067397594,0.07462494820356369
82.0,0.012854621745646,0.7476762533187866,0.012274888344109058,0.07904426008462906
83.0,0.013135397806763649,0.7521188259124756,0.012528513558208942,0.08005540072917938
84.0,0.013048749417066574,0.7586628198623657,0.012459949590265751,0.07872536778450012
85.0,0.013244381174445152,0.7640329599380493,0.01263265497982502,0.08090869337320328
86.0,0.014115341007709503,0.7676705121994019,0.0134765999391675,0.07951945811510086
87.0,0.013622481375932693,0.7736473679542542,0.013018171302974224,0.07798092812299728
88.0,0.01337165292352438,0.7824305295944214,0.012784473598003387,0.07925029844045639
89.0,0.013216705061495304,0.7868479490280151,0.012630391865968704,0.07500626146793365
90.0,0.012615993618965149,0.7914860844612122,0.01206137239933014,0.07524276524782181
91.0,0.013924072496592999,0.7942022085189819,0.013339320197701454,0.07532723993062973
92.0,0.014725761488080025,0.7981700897216797,0.014128301292657852,0.07712104916572571
93.0,0.013142867013812065,0.805131196975708,0.012592160142958164,0.07407227903604507
94.0,0.013303042389452457,0.8103073239326477,0.012765624560415745,0.07339335978031158
95.0,0.01373329758644104,0.8172283172607422,0.01319381408393383,0.0715700313448906
96.0,0.013821507804095745,0.8215291500091553,0.013277371414005756,0.07983431220054626
97.0,0.01509757712483406,0.8255936503410339,0.01450306922197342,0.07694205641746521
98.0,0.014676492661237717,0.8311396837234497,0.014084729366004467,0.07207798212766647
99.0,0.013920702040195465,0.8359962105751038,0.013366911560297012,0.07100237160921097
100.0,0.014071692712605,0.8428096175193787,0.013530758209526539,0.07380884885787964
