epoch,scaling,scale,wavelength,sigma
0.0,0.10000000149011612,0.10000000149011612,0.10000000149011612,0.33000001311302185
1.0,0.055302198976278305,0.1433074176311493,0.056310269981622696,0.36407670378685
2.0,0.04337101802229881,0.15925627946853638,0.04288363456726074,0.3310687839984894
3.0,0.040652353316545486,0.16520321369171143,0.039288442581892014,0.312153160572052
4.0,0.03409956395626068,0.17357449233531952,0.03233474865555763,0.29194375872612
5.0,0.031377989798784256,0.17842282354831696,0.02928723767399788,0.2729915678501129
6.0,0.02664831466972828,0.18483977019786835,0.024416733533143997,0.25489160418510437
7.0,0.022775709629058838,0.19049586355686188,0.02052679844200611,0.24026064574718475
8.0,0.020370112732052803,0.19502437114715576,0.018162228167057037,0.22492535412311554
9.0,0.016568923369050026,0.20109915733337402,0.014604580588638783,0.20697718858718872
10.0,0.01378538180142641,0.20657789707183838,0.012170564383268356,0.19035416841506958
11.0,0.011446100659668446,0.2132236212491989,0.010240649804472923,0.1691630333662033
12.0,0.009256196208298206,0.22260595858097076,0.008387360721826553,0.15602171421051025
13.0,0.007676425389945507,0.23091773688793182,0.00699112843722105,0.1458466351032257
14.0,0.007307644002139568,0.23944008350372314,0.006696091033518314,0.14246763288974762
15.0,0.005902099888771772,0.2504941523075104,0.005407038610428572,0.13057354092597961
16.0,0.006098115351051092,0.2616899609565735,0.0055657802149653435,0.1287461221218109
17.0,0.005421759560704231,0.2718452215194702,0.004943667910993099,0.12305391579866409
18.0,0.005374812986701727,0.28380951285362244,0.004885643254965544,0.11667419970035553
19.0,0.004742692224681377,0.2957547903060913,0.004309480078518391,0.10964682698249817
20.0,0.004688027780503035,0.3085850179195404,0.004246881231665611,0.10685832053422928
21.0,0.004219365771859884,0.3191865384578705,0.003821533638983965,0.10156849026679993
22.0,0.005436788313090801,0.3290397822856903,0.0049304296262562275,0.10459529608488083
23.0,0.0054219989106059074,0.3376319706439972,0.004925925750285387,0.10020505636930466
24.0,0.004132795613259077,0.3482416868209839,0.003737685037776828,0.09671739488840103
25.0,0.005059486720710993,0.3598858714103699,0.004587105475366116,0.09451591968536377
26.0,0.004689308349043131,0.3702518343925476,0.004250493366271257,0.0924982950091362
27.0,0.005145393777638674,0.38102924823760986,0.004678517580032349,0.088174968957901
28.0,0.005690079182386398,0.3916863203048706,0.0051799644716084,0.08791417628526688
29.0,0.005101849790662527,0.40184810757637024,0.004646664950996637,0.088201142847538
30.0,0.005331430584192276,0.4125525653362274,0.004872553050518036,0.08235111087560654
31.0,0.004732211586087942,0.42234134674072266,0.00430856691673398,0.08101010322570801
32.0,0.005473259836435318,0.4347001314163208,0.00500024389475584,0.0775124803185463
33.0,0.005342679098248482,0.4481527507305145,0.004870441742241383,0.08075779676437378
34.0,0.005065092351287603,0.458222359418869,0.004612616263329983,0.077908955514431
35.0,0.006445218808948994,0.46790406107902527,0.005893501453101635,0.08080341666936874
36.0,0.005560663528740406,0.48284611105918884,0.005102281924337149,0.08155673742294312
37.0,0.005677880719304085,0.4915603995323181,0.005171990022063255,0.07714149355888367
38.0,0.006775025278329849,0.49946755170822144,0.006185994483530521,0.08373455703258514
39.0,0.00650209654122591,0.5080235004425049,0.0059294141829013824,0.08147960156202316
40.0,0.006487434729933739,0.5172419548034668,0.005962697323411703,0.07206171751022339
41.0,0.005801979452371597,0.5297269821166992,0.005331739317625761,0.06848987191915512
42.0,0.005998818203806877,0.5406070351600647,0.005502885207533836,0.07607894390821457
43.0,0.006592763587832451,0.5491041541099548,0.006079300306737423,0.07413329184055328
44.0,0.0063868118450045586,0.5593934059143066,0.00589756341651082,0.07698877155780792
45.0,0.007091803941875696,0.5677352547645569,0.006558684166520834,0.07376954704523087
46.0,0.005880279000848532,0.5778951048851013,0.00543681625276804,0.07023248821496964
47.0,0.0065828547812998295,0.5852473378181458,0.006097822915762663,0.07309357076883316
48.0,0.006249058060348034,0.5936570763587952,0.005785156507045031,0.07203645259141922
49.0,0.0068725598976016045,0.603407621383667,0.006387200206518173,0.07573527842760086
50.0,0.007314376533031464,0.6113958954811096,0.0067958952859044075,0.07525292783975601
51.0,0.006898260209709406,0.6220608949661255,0.006423217710107565,0.06919194757938385
52.0,0.007152447942644358,0.6299439668655396,0.00666059460490942,0.0691995918750763
53.0,0.007735114544630051,0.6362003087997437,0.007220336236059666,0.072463259100914
54.0,0.007820460945367813,0.6441004276275635,0.007313441019505262,0.06903152167797089
55.0,0.0076392958872020245,0.6526614427566528,0.007169707678258419,0.0671197697520256
56.0,0.007104542572051287,0.6635441184043884,0.006649960298091173,0.06956697255373001
57.0,0.008578859269618988,0.6690658926963806,0.008052349090576172,0.06792789697647095
58.0,0.008189696818590164,0.6767363548278809,0.007703992538154125,0.06816240400075912
59.0,0.008025825954973698,0.6848652958869934,0.007570216432213783,0.06465649604797363
60.0,0.0077658286318182945,0.6938208937644958,0.007312897592782974,0.06536348909139633
61.0,0.009283727034926414,0.6997451186180115,0.00877715926617384,0.07211604714393616
62.0,0.008837384171783924,0.7083770036697388,0.00834943912923336,0.06874291598796844
63.0,0.009923504665493965,0.7207108736038208,0.00938269030302763,0.0714494064450264
64.0,0.009716499596834183,0.727164089679718,0.009172491729259491,0.06871511042118073
65.0,0.00908717978745699,0.7344256639480591,0.008589843288064003,0.07169156521558762
66.0,0.010571806691586971,0.7398118376731873,0.010018611326813698,0.0702577456831932
67.0,0.010542011819779873,0.7462660074234009,0.009979603812098503,0.06940799206495285
68.0,0.011018693447113037,0.7542914152145386,0.010451747104525566,0.07035574316978455
69.0,0.01346922479569912,0.7634435296058655,0.012840240262448788,0.08297180384397507
70.0,0.01018952764570713,0.7718040347099304,0.009664474055171013,0.06865336745977402
71.0,0.010089500807225704,0.7767372727394104,0.009571059606969357,0.07013284415006638
72.0,0.010838148184120655,0.7821739315986633,0.01030139159411192,0.07284995168447495
73.0,0.011278849095106125,0.7877258658409119,0.010750235989689827,0.0709686428308487
74.0,0.010749135166406631,0.7951570153236389,0.010243789292871952,0.06875298917293549
75.0,0.010864079929888248,0.8016468286514282,0.010360059328377247,0.06818537414073944
76.0,0.009946485981345177,0.8093308210372925,0.009477897547185421,0.06811315566301346
77.0,0.011782382614910603,0.8150882124900818,0.01126373466104269,0.06997238844633102
78.0,0.010165330953896046,0.8231191039085388,0.009723554365336895,0.06720252335071564
79.0,0.01030625682324171,0.8295820355415344,0.009849200956523418,0.06662695854902267
80.0,0.009822957217693329,0.8361231684684753,0.009392390958964825,0.0652581974864006
81.0,0.009989375248551369,0.8422609567642212,0.009561724960803986,0.06602136045694351
82.0,0.010408089496195316,0.8478459715843201,0.009977270849049091,0.06563869118690491
83.0,0.011612102389335632,0.852276086807251,0.011151453480124474,0.07004329562187195
84.0,0.01277614664286375,0.8562450408935547,0.012272943742573261,0.07065688818693161
85.0,0.010801994241774082,0.8626627922058105,0.010348893702030182,0.06493481993675232
86.0,0.00943210069090128,0.8698482513427734,0.00902668945491314,0.060115694999694824
87.0,0.011107569560408592,0.8741313815116882,0.010683979839086533,0.06616371870040894
88.0,0.010995181277394295,0.8799267411231995,0.010566245764493942,0.06472790241241455
89.0,0.01163838803768158,0.8851981163024902,0.011202669702470303,0.06579811125993729
90.0,0.012005727738142014,0.8902556896209717,0.011557824909687042,0.06713221222162247
91.0,0.012181890197098255,0.8944804668426514,0.01172564271837473,0.06732625514268875
92.0,0.012844732031226158,0.8983297944068909,0.012377657927572727,0.06746561825275421
93.0,0.011645056307315826,0.9044070243835449,0.011213095858693123,0.06558558344841003
94.0,0.013609115034341812,0.9075924158096313,0.013128284364938736,0.06806377321481705
95.0,0.013287203386425972,0.913185179233551,0.012815618887543678,0.0691453069448471
96.0,0.013007685542106628,0.9189885854721069,0.012537228874862194,0.06725852191448212
97.0,0.013908746652305126,0.9240076541900635,0.013408686965703964,0.06865948438644409
98.0,0.012252227403223515,0.9307906031608582,0.011795046739280224,0.0652199313044548
99.0,0.013322988525032997,0.9362928867340088,0.012868039309978485,0.06507294625043869
100.0,0.01230291835963726,0.9420796632766724,0.011864441446959972,0.06317080557346344
