accuracy,loss,val_accuracy,val_loss
0.581250011920929,0.8290802812576294,0.6050000190734863,0.8225250641504923
0.6435714364051819,0.7834653878211975,0.5208333134651184,0.8513549407323201
0.6864285469055176,0.7462230280467442,0.6466666460037231,0.7787533704439799
0.7133928537368774,0.7228615583692278,0.6775000095367432,0.7353358427683513
0.7287499904632568,0.6980666838373457,0.6850000023841858,0.7279873387018839
0.7387499809265137,0.6788911632129124,0.7333333492279053,0.7006477578481038
0.7503571510314941,0.6657574369226184,0.7191666960716248,0.6852808666229248
0.7598214149475098,0.6487762820720673,0.7433333396911621,0.6681144682566325
0.7799999713897705,0.636288731609072,0.7391666769981384,0.6591153160730998
0.7760714292526245,0.6300820130961282,0.7450000047683716,0.6730537660916647
0.7778571248054504,0.6214223544938223,0.7300000190734863,0.6575330193837484
0.789642870426178,0.6078851565292903,0.75,0.6499028976758321
0.7930356860160828,0.6011507976055145,0.7516666650772095,0.6410029824574789
0.7982142567634583,0.5917786661216191,0.7549999952316284,0.6351494224866231
0.801964282989502,0.5865602200371879,0.7308333516120911,0.6563795661926269
0.8069642782211304,0.5800102971281325,0.7383333444595337,0.6439878733952841
0.8155357241630554,0.5643786697728294,0.7441666722297668,0.634576477209727
0.8192856907844543,0.5512509523119246,0.762499988079071,0.6288999597231547
0.8232142925262451,0.542831278869084,0.7333333492279053,0.6635636576016744
0.8274999856948853,0.5368392968177795,0.7566666603088379,0.6510224493344625
0.8357142806053162,0.5263780055727277,0.7516666650772095,0.6232649556795756
0.8385714292526245,0.5122749885490963,0.7674999833106995,0.6394920976956685
0.8507142663002014,0.4995313308920179,0.7599999904632568,0.6294945764541626
0.852142870426178,0.49380567567689077,0.6675000190734863,0.7980823477109273
0.856071412563324,0.4793402918747493,0.7316666841506958,0.6896742637952169
0.8721428513526917,0.4606301442214421,0.7716666460037231,0.6443429271380107
0.8733928799629211,0.4470622306210654,0.6974999904632568,0.7652378757794698
0.883392870426178,0.434284987279347,0.7674999833106995,0.6474161275227864
0.8898214101791382,0.4213443568774632,0.7616666555404663,0.6516752632459005
0.9049999713897705,0.3993254256248474,0.7683333158493042,0.6464984560012818
0.9125000238418579,0.39062624403408597,0.7441666722297668,0.6567845034599304
0.9164285659790039,0.37125632362706323,0.7558333277702332,0.6660700257619222
0.9303571581840515,0.35204044197286877,0.73416668176651,0.7291907294591268
0.9316071271896362,0.3425701977525439,0.7491666674613953,0.6668411254882812
0.9433928728103638,0.32348565212317876,0.7516666650772095,0.6877645818392436
0.9541071653366089,0.3030641781432288,0.753333330154419,0.7287281958262125
0.9553571343421936,0.2988222087281091,0.6783333420753479,0.8590804743766784
0.960357129573822,0.2838281907354082,0.753333330154419,0.7242215577761332
0.9698214530944824,0.26739839366504126,0.721666693687439,0.8109227522214254
0.9739285707473755,0.25484734339373455,0.7333333492279053,0.9000112207730612
0.9730356931686401,0.2434674929721015,0.7416666746139526,0.78551242907842
0.9833928346633911,0.229063207251685,0.7433333396911621,0.7962477397918701
0.9882143139839172,0.21897416370255607,0.7491666674613953,0.8153164601325988
0.9891071319580078,0.21316067363534655,0.7441666722297668,0.8542927694320679
0.9892857074737549,0.2058131628377097,0.7308333516120911,1.04377760330836
0.991607129573822,0.19736495878015245,0.7433333396911621,0.8600457000732422
0.9926785826683044,0.1924723505973816,0.73416668176651,0.8953375538190206
0.9921428561210632,0.18750195554324559,0.7450000047683716,0.8611298084259034
0.9951785802841187,0.17850237948553901,0.7316666841506958,0.9170484908421834
0.9964285492897034,0.17436712997300285,0.7300000190734863,0.9153035672505697
0.9950000047683716,0.17363774691309247,0.7408333420753479,0.948265950679779
0.9957143068313599,0.16796494356223515,0.7383333444595337,1.0442791763941448
0.9978571534156799,0.16306441954204015,0.7516666650772095,0.956506929397583
0.9967857003211975,0.16109422743320465,0.7358333468437195,1.1068626848856609
0.9975000023841858,0.15705805676324028,0.7416666746139526,1.0120258076985678
0.9971428513526917,0.15513817489147186,0.715833306312561,1.3917730331420899
0.9985714554786682,0.15429232818739755,0.7391666769981384,1.137919274965922
0.9992856979370117,0.14888280315058572,0.7458333373069763,1.0639323345820109
0.9983928799629211,0.14895972345556532,0.7241666913032532,1.0896440521876016
0.9982143044471741,0.15052330655711038,0.7333333492279053,1.0955265712738038
0.9983928799629211,0.14822696353707995,0.7316666841506958,1.1049203777313232
0.9978571534156799,0.1489447923217501,0.7250000238418579,1.1231775840123495
0.9962499737739563,0.1487381878920964,0.7041666507720947,1.2299608294169109
0.9985714554786682,0.1457001770394189,0.7366666793823242,1.1704946970939636
0.9973214268684387,0.14598265758582524,0.7008333206176758,1.2885466655095419
0.9978571534156799,0.14376825749874114,0.7258333563804626,1.2932101996739704
0.9994642734527588,0.13920075910431998,0.7408333420753479,1.1440612951914468
0.9991071224212646,0.13743684896400996,0.7350000143051147,1.2142447964350382
0.9971428513526917,0.1442353630065918,0.7116666436195374,1.8936446078618367
1.0,0.13572144619056156,0.7450000047683716,1.245934149424235
0.9992856979370117,0.13536003163882665,0.7241666913032532,1.4574207226435343
0.9992856979370117,0.13560529019151416,0.7141666412353516,1.2680563084284464
0.9987499713897705,0.13431446739605496,0.7475000023841858,1.2855086533228557
0.9969642758369446,0.14044786580971308,0.6991666555404663,1.4283339309692382
0.9992856979370117,0.13365052717072623,0.7174999713897705,1.3074963156382242
0.9989285469055176,0.13360850070204053,0.7300000190734863,1.2817513926823934
0.9996428489685059,0.13094443023204805,0.7391666769981384,1.2812385495503744
0.9989285469055176,0.1318309955937522,0.7308333516120911,1.2971041552225748
0.9976785778999329,0.13510853733335224,0.746666669845581,1.3346496494611104
0.9992856979370117,0.13113553975309644,0.7433333396911621,1.3577620855967203
0.9985714554786682,0.13235248514584133,0.699999988079071,2.029736614227295
0.9989285469055176,0.13143700616700307,0.7408333420753479,1.3374783897399902
0.9996428489685059,0.1279925533277648,0.7416666746139526,1.3514498456319173
1.0,0.1261785548073905,0.7383333444595337,1.343603728612264
0.9998214244842529,0.1255839617763247,0.7391666769981384,1.3940352789560955
0.9998214244842529,0.12518188038042613,0.7366666793823242,1.5200828552246093
1.0,0.123863579588277,0.7433333396911621,1.3714490365982055
0.9996428489685059,0.12475306642907007,0.715833306312561,1.7477647511164347
0.9989285469055176,0.12639651856252127,0.6866666674613953,1.7893598143259684
1.0,0.12271652234452111,0.7408333420753479,1.5092814127604166
0.9994642734527588,0.12350571798426764,0.7400000095367432,1.4270385630925497
0.9998214244842529,0.12184950713600431,0.7333333492279053,1.5810821374257407
1.0,0.1205092305796487,0.7541666626930237,1.4535226599375406
0.9998214244842529,0.12063309171370097,0.7350000143051147,1.4027156448364257
1.0,0.12049863189458847,0.7383333444595337,1.4567493788401287
0.9998214244842529,0.12036744351897921,0.7391666769981384,1.460279548962911
0.9951785802841187,0.13198985069990157,0.6974999904632568,1.4990541172027587
0.9964285492897034,0.13085646105664117,0.7358333468437195,1.5119888830184935
1.0,0.11861050197056362,0.7416666746139526,1.541474192937215
0.9998214244842529,0.11861790048224585,0.7458333373069763,1.4715346193313599
