accuracy,loss,val_accuracy,val_loss
0.5533928275108337,0.9455061973844255,0.47833332419395447,0.8339253807067871
0.581250011920929,0.6793891215324401,0.6108333468437195,0.6494515577952067
0.5801785588264465,0.7096264444078718,0.6583333611488342,0.6230859025319417
0.6098214387893677,0.6699079176357814,0.574999988079071,0.6930583747227986
0.6364285945892334,0.6329544832025256,0.6499999761581421,0.613676176071167
0.6485714316368103,0.6208876764774323,0.6616666913032532,0.6051526912053427
0.7049999833106995,0.5540241857937404,0.5983333587646484,0.6817690102259318
0.7333928346633911,0.5238002186162131,0.7049999833106995,0.5653397917747498
0.7810714244842529,0.4619295574937548,0.6349999904632568,0.6575878016153971
0.8383928537368774,0.4002018213272095,0.7083333134651184,0.5578213516871134
0.8826785683631897,0.33734770911080497,0.6966666579246521,0.5631190109252929
0.912678599357605,0.2771702252967017,0.7233333587646484,0.5450123127301534
0.9541071653366089,0.1958756699732372,0.6858333349227905,0.5981242561340332
0.979107141494751,0.13768265260117393,0.7225000262260437,0.5695294165611267
0.9898214340209961,0.09794049754738808,0.7166666388511658,0.5934992822011312
0.9975000023841858,0.06138076131897313,0.6974999904632568,0.6522013858954112
0.9991071224212646,0.03710377095001084,0.7116666436195374,0.6438057557741801
0.9998214244842529,0.024694033712148667,0.7141666412353516,0.6685971307754517
1.0,0.016185216818537032,0.7016666531562805,0.741201422214508
1.0,0.012181180941739252,0.7074999809265137,0.7309871093432109
1.0,0.007765930058168513,0.7116666436195374,0.7565897496541342
1.0,0.005823661051690579,0.715833306312561,0.7549172536532084
1.0,0.0047234298488391295,0.7124999761581421,0.7682373690605163
1.0,0.0035325581966234106,0.7091666460037231,0.7927669151624044
1.0,0.0029678758792579174,0.7166666388511658,0.8050624752044677
1.0,0.00233574239736689,0.7133333086967468,0.8180440521240234
1.0,0.001967290341188865,0.7124999761581421,0.8354832927385966
1.0,0.0015790491444723947,0.7166666388511658,0.847717886765798
1.0,0.0013810614380054176,0.7133333086967468,0.8700966660181682
1.0,0.0012726516705671592,0.7058333158493042,0.8823631040255229
1.0,0.0009984590113162994,0.7074999809265137,0.8920692308743795
1.0,0.0008758443183199103,0.7183333039283752,0.901838796933492
1.0,0.0007208872559879507,0.7124999761581421,0.9140227739016215
1.0,0.0006536071108920234,0.7149999737739563,0.923271300792694
1.0,0.0005533070027429078,0.7074999809265137,0.9557431062062581
1.0,0.0005064786215578871,0.7066666483879089,0.9492264890670776
1.0,0.0004477286907578153,0.7074999809265137,0.9596295054753622
1.0,0.00039675862819422037,0.7049999833106995,0.976914529800415
1.0,0.00033857762514214433,0.7099999785423279,0.9819616874059042
1.0,0.0002789608832348936,0.7041666507720947,1.0029597489039104
1.0,0.0002512333336718647,0.7066666483879089,1.0068562237421672
1.0,0.00022482040097072188,0.70333331823349,1.022558226585388
1.0,0.00021230567371406192,0.7049999833106995,1.0430954376856485
1.0,0.0001806767557614616,0.7149999737739563,1.0393908071517943
1.0,0.00016019658576364496,0.7108333110809326,1.0496946732203165
1.0,0.0001356732180491755,0.7083333134651184,1.0697547968228658
1.0,0.00012812487893305453,0.7058333158493042,1.07127995967865
1.0,0.0001075711491284892,0.7124999761581421,1.0799392644564312
1.0,9.844640508942705e-05,0.7108333110809326,1.0880881841977437
1.0,8.556707475301144e-05,0.7133333086967468,1.099991963704427
1.0,7.666859603237494e-05,0.7041666507720947,1.1081654731432597
1.0,6.858733536708833e-05,0.70333331823349,1.1248773805300394
1.0,6.274774728808553e-05,0.70333331823349,1.128536154429118
1.0,5.7442566716677645e-05,0.7058333158493042,1.1430668449401855
1.0,5.023905703897721e-05,0.7016666531562805,1.1531391127904256
1.0,4.61344716417703e-05,0.7083333134651184,1.166160639921824
1.0,4.147429581540304e-05,0.70333331823349,1.1750945266087849
1.0,3.972095122402866e-05,0.7058333158493042,1.1817887131373088
1.0,3.1935375518514774e-05,0.7083333134651184,1.193906502723694
1.0,3.066371012079929e-05,0.699999988079071,1.2242666172981262
1.0,2.598586921521928e-05,0.7058333158493042,1.210353376865387
1.0,2.2444006717705633e-05,0.699999988079071,1.2331402198473613
1.0,2.1512392314824476e-05,0.7024999856948853,1.2389833196004232
1.0,1.933900634737386e-05,0.7083333134651184,1.2457711911201477
1.0,1.6849901299532835e-05,0.6991666555404663,1.261134135723114
1.0,1.4870346260847457e-05,0.70333331823349,1.259756362438202
1.0,1.3751792586325402e-05,0.7016666531562805,1.2777281872431436
1.0,1.2703724169114138e-05,0.7041666507720947,1.2777709555625916
1.0,1.1095805797854804e-05,0.699999988079071,1.3132125186920165
1.0,1.0442994831204748e-05,0.70333331823349,1.298690570195516
1.0,9.013868122045616e-06,0.7058333158493042,1.3077635844548543
1.0,8.448906844153368e-06,0.7099999785423279,1.320829026699066
1.0,7.2803417320496266e-06,0.7008333206176758,1.3313366127014161
1.0,6.61767880696321e-06,0.70333331823349,1.339805663426717
1.0,5.877062367289909e-06,0.70333331823349,1.3474446193377176
1.0,5.485568203117249e-06,0.7108333110809326,1.3592801904678344
1.0,4.806980892421312e-06,0.7008333206176758,1.3675541957219441
1.0,4.370487654991198e-06,0.7024999856948853,1.378619260787964
1.0,4.121043289809937e-06,0.7091666460037231,1.3877604794502258
1.0,3.624436162031738e-06,0.7016666531562805,1.3954282474517823
1.0,3.3704577910092276e-06,0.7099999785423279,1.4116778326034547
1.0,2.9225544111406114e-06,0.7066666483879089,1.4172576729456583
1.0,2.6025010954201986e-06,0.7091666460037231,1.4267820405960083
1.0,2.4628134860904538e-06,0.70333331823349,1.4406037982304891
1.0,2.1461662644079687e-06,0.7024999856948853,1.445437502861023
1.0,1.9935578062099273e-06,0.7066666483879089,1.4558877833684285
1.0,1.8216628307397644e-06,0.70333331823349,1.4657334725062052
1.0,1.672162258208638e-06,0.7074999809265137,1.4734454512596131
1.0,1.5336670955028758e-06,0.7024999856948853,1.4825540208816528
1.0,1.4233559704734943e-06,0.7049999833106995,1.5159579054514567
1.0,1.2338993701632717e-06,0.70333331823349,1.5021580648422241
1.0,1.0705193936441253e-06,0.70333331823349,1.511941065788269
1.0,9.774512152814298e-07,0.7083333134651184,1.5229462281862896
1.0,8.973469968103538e-07,0.7024999856948853,1.5303233138720194
1.0,8.210957553598876e-07,0.7024999856948853,1.5470108540852865
1.0,7.394801233268871e-07,0.7049999833106995,1.5494407749176025
1.0,6.754691079484993e-07,0.70333331823349,1.5582464933395386
1.0,6.775551852505097e-07,0.7066666483879089,1.5678638752301535
1.0,5.605813120317699e-07,0.7041666507720947,1.5791415270169575
1.0,5.082995909333477e-07,0.7066666483879089,1.586286826133728
