accuracy,loss,val_accuracy,val_loss
0.520714282989502,2.1707510454314094,0.5533333420753479,0.6811768786112468
0.5148214101791382,1.3098668486731393,0.4808333218097687,0.8433681488037109
0.533214271068573,1.1148089051246644,0.5216666460037231,1.6840579636891684
0.510535717010498,1.3513786353383745,0.5808333158493042,0.7028715856870016
0.5469642877578735,0.9000830824034555,0.5316666960716248,0.9423022977511089
0.5371428728103638,1.5711892410687038,0.5366666913032532,0.67771293481191
0.533214271068573,0.9307070568629674,0.5525000095367432,0.7680913503964742
0.5360714197158813,0.8794220706394741,0.5616666674613953,0.763652994632721
0.5641071200370789,0.7699722405842372,0.47833332419395447,0.984313014348348
0.5789285898208618,0.7136889910697937,0.5691666603088379,0.7411142698923747
0.5666071176528931,0.8322273131779262,0.6100000143051147,0.6628442509969076
0.5762500166893005,0.7523939531190055,0.47833332419395447,1.8850270175933839
0.5858928561210632,0.7523317011765072,0.5216666460037231,1.2772940929730734
0.585178554058075,0.7872146582603454,0.47833332419395447,1.173627978960673
0.5717856884002686,0.7300402024814061,0.5099999904632568,0.7017678705851237
0.5773214101791382,0.7343100881576539,0.6066666841506958,0.635613181591034
0.5944643020629883,0.687365871156965,0.5233333110809326,0.6896369997660319
0.5703571438789368,0.7063468783242361,0.4808333218097687,0.8162830710411072
0.5575000047683716,0.7353197823251997,0.5183333158493042,0.6773414945602417
0.5716071724891663,0.696197339126042,0.5041666626930237,0.6921507668495178
0.5525000095367432,0.7089205115182059,0.6183333396911621,0.6522490191459656
0.5678571462631226,0.7082042295592171,0.5308333039283752,0.7553784465789795
0.5619642734527588,0.7028759516988482,0.6241666674613953,0.6462165991465251
0.5657142996788025,0.7022989235605512,0.5291666388511658,0.7895213119188944
0.5980356931686401,0.6722385827132634,0.5649999976158142,0.6982983056704203
0.6098214387893677,0.6580161935942513,0.5066666603088379,0.6935912227630615
0.6005356907844543,0.6604100636073521,0.6108333468437195,0.6398112575213114
0.6046428680419922,0.6522122502326966,0.6083333492279053,0.6440532763799032
0.5966071486473083,0.6691507686887469,0.6225000023841858,0.6385863248507182
0.6057142615318298,0.6561253227506365,0.48249998688697815,0.7749503461519877
0.6096428632736206,0.6516569903918675,0.6075000166893005,0.6410147992769877
0.6008928418159485,0.6655607666288104,0.6075000166893005,0.634231653213501
0.5787500143051147,0.6799222568103246,0.6641666889190674,0.6323236719767252
0.585357129573822,0.6732175479616438,0.6233333349227905,0.6426926112174988
0.5692856907844543,0.7090355736868722,0.5824999809265137,0.6625151292483011
0.6078571677207947,0.6457935326439994,0.612500011920929,0.6518216403325399
0.5796428322792053,0.696212089402335,0.6566666960716248,0.6255434115727743
0.5953571200370789,0.6747682402815137,0.6025000214576721,0.639588139851888
0.6114285588264465,0.6642311719485692,0.5391666889190674,0.6726434429486593
0.6251785755157471,0.6567335624354226,0.6449999809265137,0.6297402143478393
0.6192857027053833,0.6489985067503793,0.57833331823349,0.6829188934961955
0.5996428728103638,0.6568186289923532,0.6666666865348816,0.6289475727081298
0.5905357003211975,0.6618875067574638,0.6175000071525574,0.6475728130340577
0.5755357146263123,0.6698520840917315,0.5391666889190674,0.7014888286590576
0.5760714411735535,0.6794044123377119,0.6499999761581421,0.6469086122512817
0.5780357122421265,0.6714212536811829,0.5699999928474426,0.6699419895807902
0.5930356979370117,0.6640585698400225,0.5575000047683716,0.658937578201294
0.5807142853736877,0.677384900024959,0.47833332419395447,0.6912253952026367
0.606249988079071,0.6546901055744716,0.6616666913032532,0.6472433892885844
0.5950000286102295,0.6570203166348594,0.596666693687439,0.6628194038073222
0.6244642734527588,0.6405301346097674,0.6524999737739563,0.629068341255188
0.6180357336997986,0.6443614814962659,0.659166693687439,0.6358735672632854
0.6057142615318298,0.6507936448710305,0.49916666746139526,0.6681933927536011
0.5987499952316284,0.6659376682553972,0.5683333277702332,0.7015769616762797
0.6175000071525574,0.6584384744507926,0.5733333230018616,0.6595965671539307
0.6162499785423279,0.6525505008016314,0.6700000166893005,0.6323754485448202
0.6217857003211975,0.6480784099442618,0.653333306312561,0.6278992207845052
0.6285714507102966,0.6429701852798462,0.6466666460037231,0.6202284558614095
0.6173214316368103,0.6443003463745117,0.6691666841506958,0.6240708430608114
0.6123214364051819,0.6474423449380057,0.6383333206176758,0.6306855551401774
0.6212499737739563,0.6447326592036656,0.4833333194255829,0.7725666777292888
0.6317856907844543,0.632486242055893,0.637499988079071,0.6284200509389242
0.6349999904632568,0.6290145986420768,0.6008333563804626,0.6506802956263225
0.6248214244842529,0.6424471133095877,0.6324999928474426,0.6290912222862244
0.6110714077949524,0.6568814189093454,0.6558333039283752,0.6211576453844706
0.6387500166893005,0.6210595641817366,0.6458333134651184,0.6224188319842021
0.6396428346633911,0.6283735574994769,0.6050000190734863,0.6427024046579997
0.6301785707473755,0.6337076776368278,0.6341666579246521,0.622601683139801
0.6396428346633911,0.6213575046403067,0.6725000143051147,0.6179358228047689
0.6239285469055176,0.6416714242526463,0.5433333516120911,0.6520931935310363
0.6303571462631226,0.6322207094941821,0.6741666793823242,0.6129053592681885
0.6401785612106323,0.6278303556782858,0.6299999952316284,0.6298281200726827
0.6535714268684387,0.6125298173086984,0.5450000166893005,0.7308223605155945
0.6428571343421936,0.6262211271694729,0.5833333134651184,0.6716650493939718
0.5994642972946167,0.6526390034811838,0.4833333194255829,0.6819001078605652
0.5975000262260437,0.6538544259752546,0.6583333611488342,0.6356708733240763
0.6278571486473083,0.6450169507094792,0.5991666913032532,0.6454407246907552
0.6294642686843872,0.6381556357656206,0.675000011920929,0.6221486155192057
0.6326785683631897,0.6272471182686942,0.6549999713897705,0.6112113833427429
0.6510714292526245,0.615693153653826,0.6616666913032532,0.6095746843020121
0.6473214030265808,0.609702263219016,0.6558333039283752,0.610868886311849
0.6578571200370789,0.6094813215732574,0.6575000286102295,0.6091573572158814
0.6641071438789368,0.6008842979158674,0.6133333444595337,0.6399851210912069
0.6492857336997986,0.6248588664191109,0.6083333492279053,0.6406465578079223
0.673035740852356,0.6031076577731541,0.6133333444595337,0.6441921671231587
0.6696428656578064,0.5998656780379159,0.637499988079071,0.6207950433095296
0.5658928751945496,0.670408433675766,0.47833332419395447,0.6957951943079631
0.5030357241630554,0.6936118268966674,0.47833332419395447,0.6947973378499349
0.5030357241630554,0.6933537752287728,0.47833332419395447,0.6943888799349467
0.5030357241630554,0.6932402338300433,0.47833332419395447,0.6940432818730672
0.5030357241630554,0.6932252577372959,0.47833332419395447,0.6938445750872294
0.5030357241630554,0.6931788836206708,0.47833332419395447,0.6937538886070251
0.5030357241630554,0.6931736295563834,0.47833332419395447,0.6936277055740356
0.5030357241630554,0.6931652811595371,0.47833332419395447,0.693584696451823
0.5030357241630554,0.6931564903259277,0.47833332419395447,0.6935209131240845
0.5030357241630554,0.6931687743323189,0.47833332419395447,0.6934899910291036
0.5030357241630554,0.6931577086448669,0.47833332419395447,0.6935205173492431
0.5030357241630554,0.6931616531099591,0.47833332419395447,0.693475182056427
0.5030357241630554,0.6931547525950841,0.47833332419395447,0.693458723227183
0.5030357241630554,0.6931547938074385,0.47833332419395447,0.6934495957692465
