accuracy,loss,val_accuracy,val_loss
0.5701785683631897,0.7997057577541896,0.5641666650772095,0.6853035847345988
0.6094642877578735,0.6903970107010433,0.6200000047683716,0.6528160516421
0.6710714101791382,0.595378999199186,0.5975000262260437,0.669584444363912
0.7044642567634583,0.558505198104041,0.596666693687439,0.6645665796597798
0.7524999976158142,0.5095588641507285,0.6358333230018616,0.6352140855789185
0.8014285564422607,0.4568050585474287,0.6200000047683716,0.667463161945343
0.804107129573822,0.42334779688290186,0.6341666579246521,0.6543937349319457
0.8726785778999329,0.3395522117614746,0.6341666579246521,0.6892823100090026
0.9155356884002686,0.26262733314718517,0.6116666793823242,0.7829943307240804
0.9469642639160156,0.19898290093455995,0.6499999761581421,0.7847450836499532
0.9651785492897034,0.15206464503492628,0.6391666531562805,0.7976274593671163
0.977321445941925,0.11418780252337456,0.5975000262260437,0.9592747863133748
0.989642858505249,0.08018396899104119,0.6324999928474426,0.8628620386123658
0.9933928847312927,0.05701814175716468,0.6299999952316284,0.9394863375027974
0.9955357313156128,0.04856145219079086,0.6358333230018616,0.9493849150339763
0.9955357313156128,0.03730575782912118,0.6416666507720947,1.0022873989741008
0.9969642758369446,0.03258781357535294,0.6458333134651184,1.0835984484354655
0.9996428489685059,0.013468892912247352,0.6266666650772095,1.1168218151728313
0.9998214244842529,0.009479395221652729,0.6324999928474426,1.131957820256551
1.0,0.006772878590439047,0.6416666507720947,1.1828911288579305
1.0,0.005789279720879027,0.6391666531562805,1.1880825861295063
1.0,0.0044728024902620485,0.6466666460037231,1.319704260826111
1.0,0.003552698367940528,0.6291666626930237,1.2776783974965413
1.0,0.0027594100185004728,0.6358333230018616,1.3026873993873596
1.0,0.0022212771878444724,0.6258333325386047,1.3466604582468669
1.0,0.00192630462913907,0.6358333230018616,1.40464990456899
1.0,0.00169144496887124,0.6358333230018616,1.417012775739034
1.0,0.001776303396327421,0.6349999904632568,1.4075092450777689
1.0,0.001092477730209274,0.6366666555404663,1.441956753730774
1.0,0.0009296401425464345,0.6341666579246521,1.4603635183970134
1.0,0.0008260939180451844,0.6324999928474426,1.4925248177846273
1.0,0.0006885336311201432,0.64083331823349,1.5304675579071045
1.0,0.0005924410782089191,0.6366666555404663,1.5498032188415527
1.0,0.0004982081531280918,0.6366666555404663,1.5840134477615357
1.0,0.0003943907601725576,0.6391666531562805,1.6095620234807333
1.0,0.0003206630772495243,0.6391666531562805,1.6528909238179526
1.0,0.00026565894156062444,0.637499988079071,1.7074731890360515
1.0,0.00021228914369463123,0.6341666579246521,1.733231930732727
1.0,0.000174164248247897,0.6391666531562805,1.7474212741851807
1.0,0.00014776507039122018,0.6391666531562805,1.784233620961507
1.0,0.00012297484861587042,0.6341666579246521,1.8310199610392253
1.0,0.00010750007354155449,0.6366666555404663,1.8430896774927774
1.0,8.94256252338112e-05,0.6358333230018616,1.8711144383748373
1.0,7.699728793730693e-05,0.6399999856948853,1.898927305539449
1.0,6.505193668999709e-05,0.64083331823349,1.9157921473185222
1.0,5.574880838269434e-05,0.6391666531562805,1.942340612411499
1.0,4.944707784618783e-05,0.6358333230018616,1.9911765400568644
1.0,4.1966561402659865e-05,0.6399999856948853,1.9948071114222208
1.0,3.64941424985383e-05,0.637499988079071,2.022750120162964
1.0,3.14229814830469e-05,0.6391666531562805,2.0483132505416872
1.0,2.7694274057077043e-05,0.6383333206176758,2.07096565246582
1.0,2.4958051705782834e-05,0.6366666555404663,2.093645248413086
1.0,2.1325191768742765e-05,0.6358333230018616,2.127075505256653
1.0,1.89633448670585e-05,0.637499988079071,2.1488818486531573
1.0,1.6295960371540528e-05,0.6391666531562805,2.1691502157847085
1.0,1.4340652833197964e-05,0.6391666531562805,2.1898419920603436
1.0,1.3090342482818025e-05,0.6399999856948853,2.2058786010742186
1.0,1.1286463198173026e-05,0.6383333206176758,2.2309173647562663
1.0,1.0153460072095705e-05,0.6366666555404663,2.251928623517354
1.0,8.940422766110195e-06,0.6416666507720947,2.2727926127115885
1.0,7.968578170870647e-06,0.6399999856948853,2.299800883928935
1.0,7.057536810992003e-06,0.6358333230018616,2.313689699172974
1.0,6.526833120525615e-06,0.6416666507720947,2.336047140757243
1.0,5.757964537614108e-06,0.637499988079071,2.3707401100794474
1.0,5.0141339449640195e-06,0.637499988079071,2.385040616989136
1.0,4.404118570684139e-06,0.6358333230018616,2.4044037818908692
1.0,4.0101170614954235e-06,0.6366666555404663,2.4245142777760824
1.0,3.601749772964727e-06,0.637499988079071,2.4473338985443114
1.0,3.1523373185596676e-06,0.6366666555404663,2.4611652135849
1.0,2.8486774941224473e-06,0.6349999904632568,2.4943553098042806
1.0,2.5772023540022408e-06,0.6341666579246521,2.514272683461507
1.0,2.287017046000983e-06,0.6399999856948853,2.5165323702494304
1.0,2.0740812484681165e-06,0.6324999928474426,2.558887111345927
1.0,1.8166347800680731e-06,0.637499988079071,2.5594278081258137
1.0,1.647763551123457e-06,0.6383333206176758,2.578070453008016
1.0,1.4698450331707136e-06,0.6383333206176758,2.5968934440612794
1.0,1.3334791326867291e-06,0.6341666579246521,2.619757153193156
1.0,1.2216996585071425e-06,0.637499988079071,2.6349489307403564
1.0,1.0825024790912202e-06,0.6349999904632568,2.6635196685791014
1.0,9.761937440089242e-07,0.6341666579246521,2.683070241610209
1.0,8.781447067056953e-07,0.6391666531562805,2.6929943545659385
1.0,8.013614686725694e-07,0.637499988079071,2.711250475247701
1.0,7.174469768805076e-07,0.64083331823349,2.726793802579244
1.0,6.517542876086476e-07,0.6391666531562805,2.7508086808522543
1.0,5.927246604642278e-07,0.6416666507720947,2.7716188732783
1.0,5.260953821561998e-07,0.6358333230018616,2.789518054326375
1.0,4.764746454709114e-07,0.6316666603088379,2.829733446439107
1.0,4.290677908004779e-07,0.6324999928474426,2.8353891468048094
1.0,3.8983524405011847e-07,0.6433333158493042,2.840272205670675
1.0,3.5326361480006847e-07,0.6358333230018616,2.8671128368377685
1.0,3.16479096958184e-07,0.64083331823349,2.877930758794149
1.0,2.931268752653133e-07,0.637499988079071,2.897539652188619
1.0,2.590032672498767e-07,0.6308333277702332,2.931627933184306
1.0,2.3562977686099526e-07,0.64083331823349,2.9344436422983806
1.0,2.1466173332588108e-07,0.6366666555404663,2.9566628487904865
1.0,1.953754005918589e-07,0.6399999856948853,2.9709719610214234
1.0,1.7764303685956813e-07,0.637499988079071,2.987382303873698
1.0,1.6108147467061177e-07,0.637499988079071,3.0083716328938803
1.0,1.4569071903939142e-07,0.6391666531562805,3.026607311566671
1.0,1.3217324846794198e-07,0.64083331823349,3.039243931770325
