accuracy,loss,val_accuracy,val_loss
0.5060714483261108,3.197898336478642,0.47833332419395447,0.9778643941879273
0.5153571367263794,1.1330568180765423,0.49000000953674316,0.7552938922246297
0.5316071510314941,1.0741764266150338,0.5216666460037231,1.6465736103057862
0.5428571701049805,1.2820430036953518,0.534166693687439,0.9201088205973307
0.5498214364051819,1.2619528688703265,0.5224999785423279,1.1476236923535665
0.5441071391105652,0.9542691826820373,0.5016666650772095,0.7728228823343912
0.5592857003211975,0.9038074272019523,0.47833332419395447,1.2429931211471557
0.5198214054107666,1.2877763972963605,0.49166667461395264,0.7775008392333984
0.5425000190734863,0.8977434464863369,0.47833332419395447,0.9923404757181803
0.5830357074737549,0.7315392102513995,0.4950000047683716,0.779400839805603
0.5680357217788696,0.8644068375655583,0.6183333396911621,0.6303760647773743
0.5789285898208618,0.7788138147762843,0.5699999928474426,0.7541333500544231
0.581428587436676,0.7972144436836243,0.6050000190734863,0.6784641273816426
0.572857141494751,0.7869062467983791,0.6516666412353516,0.6163534784317016
0.5973214507102966,0.7173959643500192,0.5041666626930237,0.7481523084640503
0.5876785516738892,0.7491518076828548,0.54666668176651,0.8615334415435791
0.5639285445213318,0.9132442557811737,0.528333306312561,0.6924404374758403
0.5973214507102966,0.6980931305885315,0.48249998688697815,0.8234891605377197
0.595714271068573,0.6809828812735421,0.6566666960716248,0.6152064689000447
0.5951785445213318,0.7165748742648533,0.6625000238418579,0.6179844156901042
0.6205357313156128,0.6530139912877764,0.5241666436195374,1.1247481854756674
0.5935714244842529,0.7017564254147666,0.47999998927116394,0.8266853825251261
0.585357129573822,0.6799557396343776,0.5616666674613953,0.735864675839742
0.5807142853736877,0.7016832191603525,0.5199999809265137,0.6792142748832702
0.6030356884002686,0.6592068961688451,0.612500011920929,0.6522001234690348
0.5782142877578735,0.7046406170300075,0.5258333086967468,0.6682071153322856
0.5798214077949524,0.6644078356879098,0.6399999856948853,0.6324944567680358
0.5874999761581421,0.6737810162135532,0.5049999952316284,0.6870064576466878
0.5808928608894348,0.70842803137643,0.5550000071525574,0.7404184563954671
0.5733928680419922,0.7071002956799098,0.47833332419395447,0.8715510050455729
0.5941071510314941,0.6811257127353123,0.6258333325386047,0.6337971949577331
0.5753571391105652,0.7468646665981837,0.6583333611488342,0.6333263325691223
0.5762500166893005,0.7095921606676919,0.5358333587646484,0.6684460433324179
0.5987499952316284,0.663425339290074,0.6466666460037231,0.6338484462102254
0.5776785612106323,0.6952449062892369,0.5216666460037231,0.8775034936269125
0.5669642686843872,0.8024691915512085,0.4891666769981384,0.8025261322657268
0.574821412563324,0.7603755249295916,0.5699999928474426,0.7552235110600789
0.5791071653366089,0.7647209930419921,0.5649999976158142,0.7002025922139485
0.5839285850524902,0.7052134551320757,0.6291666626930237,0.6337218046188354
0.5842857360839844,0.7046984512465341,0.6700000166893005,0.6251627779006959
0.6028571724891663,0.6600486176354544,0.6449999809265137,0.6255516910552978
0.6162499785423279,0.6807807057244437,0.6349999904632568,0.6213986158370972
0.6255357265472412,0.6513813419001443,0.47999998927116394,0.948164431254069
0.595714271068573,0.6765109634399414,0.6516666412353516,0.6208679135640462
0.6169642806053162,0.6574693981238774,0.48750001192092896,0.7254344526926676
0.6291071176528931,0.6440197060789381,0.67166668176651,0.6068618027369181
0.5924999713897705,0.6947374984196254,0.5216666460037231,1.093027024269104
0.5955356955528259,0.696277836731502,0.47833332419395447,0.9208074728647868
0.5960714221000671,0.7034349182673864,0.6058333516120911,0.6317536115646363
0.5966071486473083,0.674542921100344,0.6474999785423279,0.6172576888402304
0.6367856860160828,0.6267059373855591,0.5149999856948853,0.696070130666097
0.6160714030265808,0.6677971816062928,0.5666666626930237,0.772167010307312
0.6296428442001343,0.6460131795065743,0.47833332419395447,1.15943217754364
0.6046428680419922,0.6715923615864345,0.6775000095367432,0.6391945441563924
0.6155357360839844,0.6458794249807085,0.5841666460037231,0.6620398330688476
0.6441071629524231,0.6325446946280343,0.60916668176651,0.6391470177968344
0.6050000190734863,0.6533520354543414,0.5758333206176758,0.6844825561841329
0.606071412563324,0.6562055001940046,0.5333333611488342,0.670275141398112
0.6360714435577393,0.6313409944943019,0.6575000286102295,0.6245768324534098
0.6128571629524231,0.6749718270983015,0.574999988079071,0.6510441589355469
0.6274999976158142,0.645992637021201,0.5049999952316284,0.7096899962425232
0.6016071438789368,0.669124834878104,0.6491666436195374,0.63204447666804
0.621071457862854,0.6494614097050259,0.5333333611488342,0.8000316476821899
0.6103571653366089,0.6507352534362248,0.5774999856948853,0.7096636883417765
0.6176785826683044,0.6464434426171439,0.5450000166893005,0.774162925084432
0.6280357241630554,0.6421177853856768,0.6033333539962769,0.6585693796475728
0.6403571367263794,0.6345464328357152,0.6341666579246521,0.6272604290644328
0.6117857098579407,0.647603303364345,0.6399999856948853,0.6311468346913656
0.6369642615318298,0.6245535053525653,0.612500011920929,0.6485615515708923
0.6392857432365417,0.6260804486274719,0.6816666722297668,0.6092760833104451
0.6398214101791382,0.6357976021085466,0.6725000143051147,0.6343671369552613
0.631428599357605,0.6356872974123273,0.48750001192092896,0.7880074127515158
0.647857129573822,0.6217440138544356,0.5191666483879089,0.6963583938280742
0.6383928656578064,0.6294331768580845,0.6658333539962769,0.6081526088714599
0.649821400642395,0.6240643765245165,0.5641666650772095,0.9087636168797811
0.6360714435577393,0.6334899803570339,0.67166668176651,0.608326210975647
0.6671428680419922,0.6045854025227683,0.5433333516120911,0.6918828956286113
0.6430357098579407,0.6263825408049992,0.47999998927116394,0.8309567578633626
0.6575000286102295,0.6111031683853695,0.67166668176651,0.5994962294896443
0.6419642567634583,0.6278359660080501,0.5483333468437195,0.6765892044703166
0.664642870426178,0.6064524917943137,0.6633333563804626,0.6057786003748575
0.6414285898208618,0.6395208876473563,0.675000011920929,0.6104037268956503
0.6505357027053833,0.6221606491293226,0.512499988079071,0.7087255613009135
0.649821400642395,0.6184582650661469,0.5,0.700729509194692
0.6521428823471069,0.6182600128650665,0.503333330154419,0.8139067872365315
0.6441071629524231,0.6259348152365003,0.6858333349227905,0.5896017622947692
0.6548214554786682,0.6124270582199096,0.659166693687439,0.6147465928395589
0.675000011920929,0.589985407931464,0.5174999833106995,0.7306472516059875
0.643928587436676,0.6446211774008614,0.67166668176651,0.6040936120351156
0.6276785731315613,0.633324727501188,0.6891666650772095,0.6180453109741211
0.6775000095367432,0.6039798312527793,0.5099999904632568,0.7701900227864583
0.675000011920929,0.597130937746593,0.5649999976158142,0.8968470319112142
0.6650000214576721,0.6065112558432988,0.6108333468437195,0.644704422156016
0.6614285707473755,0.6106669141565051,0.596666693687439,0.6819169807434082
0.6483928561210632,0.6163994700568063,0.690833330154419,0.5979340267181397
0.6787499785423279,0.5821637810979571,0.625,0.6728372931480407
0.6926785707473755,0.5806251069477626,0.4791666567325592,1.0675303792953492
0.6491071581840515,0.6374675405025482,0.6041666865348816,0.6890000359217325
0.6710714101791382,0.600148298740387,0.6150000095367432,0.6312348739306132
0.6898214221000671,0.5828838678768703,0.6949999928474426,0.5852605764071147
