accuracy,loss,val_accuracy,val_loss
0.5694642663002014,0.8363762957709177,0.5258333086967468,0.9292272265752156
0.6198214292526245,0.7994641624178205,0.612500011920929,0.8044208971659342
0.6567857265472412,0.7730131162915911,0.6241666674613953,0.7937244510650635
0.6796428561210632,0.752126008783068,0.6549999713897705,0.7604885752995809
0.7008928656578064,0.7286124927656991,0.6825000047683716,0.7340402555465698
0.7223214507102966,0.7028026853288923,0.6924999952316284,0.7189794262250264
0.7392857074737549,0.6820750176906586,0.7024999856948853,0.6998484555880229
0.7532142996788025,0.6655730981486184,0.7099999785423279,0.6962201817830403
0.7616071701049805,0.6472673695428031,0.715833306312561,0.6774586884180704
0.7676785588264465,0.6382576782362802,0.7250000238418579,0.6713815991083781
0.7780357003211975,0.6266813375268664,0.7358333468437195,0.6588847239812216
0.7862499952316284,0.6109177838053023,0.7425000071525574,0.6552144543329874
0.7905356884002686,0.6017085811070033,0.7391666769981384,0.6533253987630209
0.791607141494751,0.5943055330004011,0.7300000190734863,0.6697017820676168
0.7975000143051147,0.5893725025653839,0.7458333373069763,0.6445759995778402
0.8035714030265808,0.5807037484645844,0.7491666674613953,0.6437043833732605
0.8094642758369446,0.5693152192660741,0.7408333420753479,0.6468827358881633
0.8199999928474426,0.5571081079755511,0.753333330154419,0.6403755434354146
0.8221428394317627,0.550821430512837,0.7475000023841858,0.6425018938382466
0.8362500071525574,0.5386950375352587,0.7583333253860474,0.6257781354586284
0.8355357050895691,0.5283978852203914,0.7549999952316284,0.6261051925023396
0.8433928489685059,0.5194003781250545,0.7599999904632568,0.6287898715337118
0.845714271068573,0.50824266740254,0.7608333230018616,0.6228356822331746
0.8610714077949524,0.49311715722084043,0.75,0.6389257677396138
0.8628571629524231,0.4793849042483738,0.7591666579246521,0.6357981355985006
0.8751785755157471,0.465647577217647,0.7641666531562805,0.6276368769009908
0.8799999952316284,0.45117348960467746,0.7641666531562805,0.6368774151802064
0.893750011920929,0.42802454335348944,0.7616666555404663,0.6378320733706156
0.9037500023841858,0.41109139817101614,0.7266666889190674,0.6906155562400818
0.9103571176528931,0.3965169979844774,0.753333330154419,0.6492677267392476
0.9242857098579407,0.36970273988587515,0.7491666674613953,0.6857315572102864
0.9323214292526245,0.3535739879948752,0.7524999976158142,0.6729499276479085
0.9449999928474426,0.3318108309166772,0.715833306312561,0.7564322217305501
0.9551785588264465,0.314214700460434,0.7483333349227905,0.7181681315104167
0.9599999785423279,0.2970905098744801,0.75,0.7206275780995687
0.9674999713897705,0.2752292398044041,0.7416666746139526,0.749240517616272
0.9766071438789368,0.2586744418314525,0.7308333516120911,0.802229437828064
0.9841071367263794,0.2416610997915268,0.7350000143051147,0.7745781326293946
0.9880357384681702,0.22739010759762354,0.7258333563804626,0.8214724644025166
0.9910714030265808,0.21612876900604794,0.7266666889190674,0.8286617581049601
0.9923214316368103,0.20601978072098323,0.7258333563804626,0.8738168390591939
0.9951785802841187,0.1955247062444687,0.7275000214576721,0.86731316725413
0.9964285492897034,0.18753889049802508,0.7350000143051147,0.9094909954071045
0.9971428513526917,0.17985755358423505,0.7283333539962769,0.9486703221003214
0.9983928799629211,0.17138356064047133,0.7208333611488342,0.9063930527369182
0.9978571534156799,0.16853742105620248,0.7141666412353516,1.1300350443522136
0.9982143044471741,0.16315911676202502,0.7316666841506958,0.9548021157582601
0.9991071224212646,0.16044283390045166,0.7141666412353516,0.9929649670918782
0.9991071224212646,0.1560105028322765,0.7325000166893005,1.0134698136647542
0.9987499713897705,0.1547716439621789,0.7141666412353516,1.0719692881902059
0.9991071224212646,0.14942036245550427,0.7241666913032532,1.0022710235913594
0.9983928799629211,0.1498002984694072,0.7166666388511658,1.0541916052500406
0.9996428489685059,0.14488092618329185,0.7250000238418579,1.0764980737368266
0.9989285469055176,0.14669268548488618,0.7091666460037231,1.0744849554697673
0.9989285469055176,0.14372902035713195,0.7183333039283752,1.090076752503713
0.9998214244842529,0.14041944248335703,0.7141666412353516,1.1615454006195067
0.9983928799629211,0.14214922606945038,0.6933333277702332,1.2984358755747478
1.0,0.13769266511712755,0.7133333086967468,1.1865925232569376
0.9998214244842529,0.1367487392255238,0.7191666960716248,1.1792324447631837
1.0,0.13428798292364394,0.7183333039283752,1.1643787304560342
0.9994642734527588,0.13439207000391823,0.7250000238418579,1.192534319559733
0.9982143044471741,0.13737983584403993,0.7266666889190674,1.2214129559199016
1.0,0.13119149029254915,0.7116666436195374,1.216172040303548
0.9998214244842529,0.13020671282495772,0.715833306312561,1.2307630133628846
0.9998214244842529,0.12980425485542843,0.7149999737739563,1.2238055276870727
0.9996428489685059,0.12948516322033746,0.721666693687439,1.3053760250409445
0.9996428489685059,0.12803262110267366,0.7166666388511658,1.2593027273813884
0.9998214244842529,0.12729294474635805,0.7141666412353516,1.3066570091247558
1.0,0.12486354896000454,0.7074999809265137,1.3719885245958965
0.9992856979370117,0.12776065077100482,0.7108333110809326,1.2762396597862244
0.9985714554786682,0.1275410601922444,0.7133333086967468,1.2780380821228028
1.0,0.12328403059925352,0.7124999761581421,1.3249006152153016
1.0,0.12193953199045998,0.721666693687439,1.390255168279012
0.9998214244842529,0.12198945999145508,0.7108333110809326,1.3050269556045533
1.0,0.12018999172108515,0.7166666388511658,1.3531760088602702
0.9998214244842529,0.12029497427599771,0.7208333611488342,1.303048624197642
1.0,0.11920613876410893,0.7074999809265137,1.5773769640922546
0.9989285469055176,0.12170971265860966,0.7099999785423279,1.4521928564707438
0.9998214244842529,0.11831385663577489,0.7174999713897705,1.420120399792989
0.9998214244842529,0.11698106399604252,0.7133333086967468,1.5927103773752849
0.9989285469055176,0.11958030475037439,0.7233333587646484,1.3894457324345906
0.9994642734527588,0.11708467858178274,0.7074999809265137,1.524294130007426
0.9998214244842529,0.1152262943983078,0.7149999737739563,1.5009142112731935
0.9996428489685059,0.11568684326750892,0.7108333110809326,1.3861479059855144
1.0,0.11356121131352016,0.70333331823349,1.5321385542551675
1.0,0.11289603476013456,0.7133333086967468,1.4643511414527892
0.9973214268684387,0.11937628324542726,0.6983333230018616,1.5941778699556985
0.9985714554786682,0.11651272944041662,0.6725000143051147,2.1469665638605755
0.9998214244842529,0.1131101273213114,0.7116666436195374,1.5047878821690877
1.0,0.11184135500873839,0.7241666913032532,1.4761415592829386
0.9994642734527588,0.11369898089340755,0.7024999856948853,1.727012809117635
0.9994642734527588,0.11212199998753411,0.7083333134651184,1.5350686144828796
1.0,0.10992464227335794,0.715833306312561,1.4718309211730958
0.9985714554786682,0.11422063742365156,0.7058333158493042,1.55252863407135
0.9991071224212646,0.11174174909080778,0.7091666460037231,1.8041664854685466
1.0,0.11012094476393292,0.7183333039283752,1.5692715581258139
1.0,0.10865364134311677,0.7066666483879089,1.4645825695991517
1.0,0.10789008838789804,0.7141666412353516,1.477669030825297
0.9989285469055176,0.10984167124543871,0.7133333086967468,1.6434791056315103
1.0,0.10835459032229015,0.70333331823349,1.5288812621434529
