epoch,scaling,scale,wavelength,sigma
0.0,1.0,1.0,1.0,0.33000001311302185
1.0,1.0028477907180786,1.0058177709579468,1.0028436183929443,0.32742050290107727
2.0,1.0015596151351929,1.0033223628997803,1.0015597343444824,0.32891348004341125
3.0,1.002915382385254,1.0044816732406616,1.0029150247573853,0.3277438282966614
4.0,1.0035780668258667,1.0052214860916138,1.0035789012908936,0.3265579640865326
5.0,1.0032833814620972,1.0046329498291016,1.0032844543457031,0.3265930414199829
6.0,1.0018523931503296,1.0030486583709717,1.0018537044525146,0.3276381492614746
7.0,1.0022096633911133,1.0031588077545166,1.0022116899490356,0.32741639018058777
8.0,1.0031392574310303,1.003950834274292,1.0031417608261108,0.3266543745994568
9.0,1.003790259361267,1.0045688152313232,1.0037928819656372,0.3259984254837036
10.0,1.004433035850525,1.005245566368103,1.0044361352920532,0.32542163133621216
11.0,1.0059559345245361,1.0069873332977295,1.0059584379196167,0.3247348368167877
12.0,1.006047010421753,1.0070009231567383,1.0060498714447021,0.3247409164905548
13.0,1.005890965461731,1.0066652297973633,1.0058947801589966,0.32455337047576904
14.0,1.0071247816085815,1.0081613063812256,1.0071285963058472,0.3236347436904907
15.0,1.009528398513794,1.0116602182388306,1.0095244646072388,0.3208984434604645
16.0,1.007928490638733,1.0092613697052002,1.0079317092895508,0.3218834102153778
17.0,1.0088902711868286,1.0104265213012695,1.0088903903961182,0.3206738531589508
18.0,1.010573387145996,1.0126956701278687,1.010567545890808,0.3186463713645935
19.0,1.0081440210342407,1.0100690126419067,1.0081424713134766,0.32095062732696533
20.0,1.0082414150238037,1.0100756883621216,1.0082403421401978,0.32050102949142456
21.0,1.009604811668396,1.0113494396209717,1.0096039772033691,0.3190358877182007
22.0,1.011425256729126,1.0134419202804565,1.0114203691482544,0.3175022304058075
23.0,1.0130409002304077,1.0155264139175415,1.0130306482315063,0.31626182794570923
24.0,1.0134246349334717,1.0159907341003418,1.0134124755859375,0.3161450922489166
25.0,1.0133293867111206,1.0158179998397827,1.0133185386657715,0.3162594139575958
26.0,1.013238549232483,1.0156785249710083,1.0132287740707397,0.31636422872543335
27.0,1.0134837627410889,1.0159777402877808,1.0134732723236084,0.316314160823822
28.0,1.0130211114883423,1.0153919458389282,1.0130120515823364,0.3163805305957794
29.0,1.0130836963653564,1.0154380798339844,1.0130740404129028,0.31650838255882263
30.0,1.013278841972351,1.015626311302185,1.0132685899734497,0.3163292407989502
31.0,1.0145055055618286,1.0171058177947998,1.014492154121399,0.31510522961616516
32.0,1.013585090637207,1.0159494876861572,1.0135761499404907,0.31662195920944214
33.0,1.0137959718704224,1.016111969947815,1.0137872695922852,0.3166200816631317
34.0,1.0134965181350708,1.0157674551010132,1.0134884119033813,0.31711527705192566
35.0,1.0148990154266357,1.0173306465148926,1.014888048171997,0.31589213013648987
36.0,1.0170987844467163,1.0199248790740967,1.0170810222625732,0.31435611844062805
37.0,1.0146722793579102,1.0170587301254272,1.0146619081497192,0.3170835077762604
38.0,1.0143871307373047,1.0166707038879395,1.014378547668457,0.31833019852638245
39.0,1.014682650566101,1.0169609785079956,1.0146739482879639,0.3181285262107849
40.0,1.0142329931259155,1.0164821147918701,1.0142252445220947,0.3188779652118683
41.0,1.013241171836853,1.015486240386963,1.0132333040237427,0.3197115361690521
42.0,1.0147372484207153,1.0169297456741333,1.0147302150726318,0.3180427551269531
43.0,1.014822006225586,1.016978144645691,1.0148154497146606,0.3177867829799652
44.0,1.0137591361999512,1.0158214569091797,1.013753890991211,0.3187929689884186
45.0,1.0134025812149048,1.0154746770858765,1.0133976936340332,0.3191104233264923
46.0,1.0157519578933716,1.017778992652893,1.015748143196106,0.31629541516304016
47.0,1.0181275606155396,1.0204267501831055,1.018120288848877,0.3145507574081421
48.0,1.0199882984161377,1.0226974487304688,1.019974708557129,0.3127377927303314
49.0,1.0210306644439697,1.02397620677948,1.021011471748352,0.3118816018104553
50.0,1.0232113599777222,1.0266661643981934,1.0231821537017822,0.3098781704902649
51.0,1.0229721069335938,1.026318073272705,1.0229463577270508,0.3100531995296478
52.0,1.0229918956756592,1.0263246297836304,1.0229655504226685,0.3103656470775604
53.0,1.0244317054748535,1.028059720993042,1.0243979692459106,0.30905672907829285
54.0,1.0253093242645264,1.029152274131775,1.0252690315246582,0.30826491117477417
55.0,1.0255169868469238,1.0293868780136108,1.0254755020141602,0.3080499470233917
56.0,1.0266177654266357,1.0307615995407104,1.0265693664550781,0.3072035610675812
57.0,1.0235726833343506,1.027424693107605,1.0235340595245361,0.31059587001800537
58.0,1.0233286619186401,1.0271695852279663,1.0232900381088257,0.31064000725746155
59.0,1.0240894556045532,1.0279051065444946,1.0240505933761597,0.3100738227367401
60.0,1.0249958038330078,1.0287895202636719,1.024957537651062,0.30942124128341675
61.0,1.0248624086380005,1.028632640838623,1.024825096130371,0.30946084856987
62.0,1.024222493171692,1.0279713869094849,1.0241858959197998,0.31001490354537964
63.0,1.0236153602600098,1.0273654460906982,1.0235791206359863,0.31036096811294556
64.0,1.023366928100586,1.0271077156066895,1.0233306884765625,0.310456782579422
65.0,1.0240246057510376,1.0277204513549805,1.0239893198013306,0.3100220263004303
66.0,1.0239347219467163,1.0276143550872803,1.0238999128341675,0.30994799733161926
67.0,1.0241047143936157,1.02775239944458,1.0240702629089355,0.31013408303260803
68.0,1.0254793167114258,1.0291329622268677,1.025444746017456,0.308846652507782
69.0,1.0271052122116089,1.0308599472045898,1.0270681381225586,0.30726391077041626
70.0,1.0271186828613281,1.030851125717163,1.027082085609436,0.3072417676448822
71.0,1.0282328128814697,1.0320483446121216,1.0281929969787598,0.30594804883003235
72.0,1.0294997692108154,1.0334373712539673,1.0294570922851562,0.30488336086273193
73.0,1.0294792652130127,1.0333428382873535,1.0294387340545654,0.30500900745391846
74.0,1.0298892259597778,1.033756971359253,1.0298476219177246,0.30444368720054626
75.0,1.0292363166809082,1.0330175161361694,1.0291979312896729,0.3046063780784607
76.0,1.0325316190719604,1.036454439163208,1.0324888229370117,0.30106401443481445
77.0,1.0328587293624878,1.036795973777771,1.0328150987625122,0.30054065585136414
78.0,1.0333657264709473,1.0373355150222778,1.033321499824524,0.30013373494148254
79.0,1.0339102745056152,1.037918210029602,1.0338650941848755,0.2995043694972992
80.0,1.033519983291626,1.037479281425476,1.0334750413894653,0.3000442683696747
81.0,1.0330474376678467,1.0369529724121094,1.0330039262771606,0.30001258850097656
82.0,1.0335445404052734,1.0374665260314941,1.033500075340271,0.2993053197860718
83.0,1.0333806276321411,1.037285327911377,1.0333380699157715,0.2993285059928894
84.0,1.0350526571273804,1.0390616655349731,1.0350064039230347,0.29755571484565735
85.0,1.033964991569519,1.0378881692886353,1.0339220762252808,0.2987750172615051
86.0,1.0325663089752197,1.0364494323730469,1.0325253009796143,0.30033838748931885
87.0,1.034082055091858,1.0379372835159302,1.0340417623519897,0.2984660565853119
88.0,1.0357695817947388,1.039689540863037,1.0357275009155273,0.2963758707046509
89.0,1.036903977394104,1.0409040451049805,1.0368599891662598,0.29513612389564514
90.0,1.036637783050537,1.0406049489974976,1.0365941524505615,0.2954084873199463
91.0,1.0378879308700562,1.0419412851333618,1.0378409624099731,0.29441037774086
92.0,1.0379847288131714,1.0420315265655518,1.0379375219345093,0.29381394386291504
93.0,1.0397387742996216,1.043911337852478,1.039685606956482,0.29149752855300903
94.0,1.0399510860443115,1.0441211462020874,1.0398974418640137,0.2910022735595703
95.0,1.0394953489303589,1.0436112880706787,1.0394431352615356,0.2909930646419525
96.0,1.0398476123809814,1.0439558029174805,1.0397952795028687,0.28973451256752014
97.0,1.0392510890960693,1.0433194637298584,1.0392001867294312,0.28941312432289124
98.0,1.0388996601104736,1.042937994003296,1.03885018825531,0.28912612795829773
99.0,1.0387604236602783,1.0427876710891724,1.0387111902236938,0.2889779210090637
100.0,1.0383495092391968,1.0423482656478882,1.0383025407791138,0.2889464795589447
