epoch,scaling,scale,wavelength,sigma
0.0,1.0,1.0,1.0,0.33000001311302185
1.0,1.0034236907958984,1.0042376518249512,1.0034211874008179,0.32666751742362976
2.0,1.0053786039352417,1.006641149520874,1.0053733587265015,0.3252008855342865
3.0,1.0012849569320679,1.0030196905136108,1.0012809038162231,0.32966166734695435
4.0,1.003548264503479,1.0042917728424072,1.003546953201294,0.3274827301502228
5.0,1.0005407333374023,1.001914620399475,1.0005366802215576,0.3307541608810425
6.0,1.0018433332443237,1.0022767782211304,1.001842737197876,0.3297303318977356
7.0,1.0028209686279297,1.0029164552688599,1.0028212070465088,0.3287827670574188
8.0,1.0024235248565674,1.0023894309997559,1.002423882484436,0.3291531801223755
9.0,1.0026673078536987,1.002410650253296,1.002669334411621,0.3292042315006256
10.0,1.0033292770385742,1.002997875213623,1.0033318996429443,0.3287182152271271
11.0,1.0036029815673828,1.003190517425537,1.0036062002182007,0.3290426731109619
12.0,1.0033111572265625,1.0025850534439087,1.0033154487609863,0.32913318276405334
13.0,1.00502347946167,1.0045580863952637,1.005028247833252,0.32764965295791626
14.0,1.0045886039733887,1.0036845207214355,1.0045959949493408,0.328523725271225
15.0,1.006418228149414,1.006172776222229,1.0064244270324707,0.32723116874694824
16.0,1.0077886581420898,1.008459448814392,1.0077898502349854,0.3260939121246338
17.0,1.007715106010437,1.0081955194473267,1.0077180862426758,0.32640087604522705
18.0,1.0078247785568237,1.0082781314849854,1.007827639579773,0.3264206349849701
19.0,1.0078765153884888,1.0083235502243042,1.0078797340393066,0.32647237181663513
20.0,1.0079766511917114,1.008398413658142,1.007979393005371,0.326175332069397
21.0,1.0074841976165771,1.007704257965088,1.0074881315231323,0.32692068815231323
22.0,1.0075037479400635,1.007692575454712,1.0075079202651978,0.32705673575401306
23.0,1.0082846879959106,1.008567452430725,1.0082892179489136,0.3265770375728607
24.0,1.0084691047668457,1.0087425708770752,1.0084726810455322,0.326354444026947
25.0,1.0085126161575317,1.0087313652038574,1.008516788482666,0.3264409303665161
26.0,1.0078349113464355,1.0078837871551514,1.0078411102294922,0.3270440399646759
27.0,1.0069717168807983,1.0069050788879395,1.0069783926010132,0.32835569977760315
28.0,1.007124900817871,1.00697922706604,1.0071321725845337,0.3282160460948944
29.0,1.0073424577713013,1.007122278213501,1.007350206375122,0.3282265067100525
30.0,1.0075428485870361,1.0072684288024902,1.0075517892837524,0.3283311128616333
31.0,1.0083433389663696,1.0080289840698242,1.0083526372909546,0.32769641280174255
32.0,1.008571982383728,1.008238673210144,1.0085813999176025,0.32819199562072754
33.0,1.0088989734649658,1.008528232574463,1.0089094638824463,0.32817238569259644
34.0,1.0094883441925049,1.0091246366500854,1.009499430656433,0.3277365267276764
35.0,1.011971354484558,1.0122634172439575,1.011976718902588,0.32561391592025757
36.0,1.0132362842559814,1.0140082836151123,1.0132368803024292,0.3245723843574524
37.0,1.0136905908584595,1.014488697052002,1.013690710067749,0.3243383467197418
38.0,1.0178678035736084,1.0201281309127808,1.0178457498550415,0.3211752772331238
39.0,1.0184621810913086,1.020886778831482,1.018437147140503,0.3212875425815582
40.0,1.0184895992279053,1.0208585262298584,1.0184667110443115,0.3220788836479187
41.0,1.0201481580734253,1.0230005979537964,1.0201138257980347,0.32095465064048767
42.0,1.0210036039352417,1.0241384506225586,1.0209633111953735,0.3202860653400421
43.0,1.0200121402740479,1.022827386856079,1.019979476928711,0.32125142216682434
44.0,1.0212653875350952,1.0243637561798096,1.0212265253067017,0.32027173042297363
45.0,1.0211293697357178,1.0241833925247192,1.0210920572280884,0.32064032554626465
46.0,1.0214893817901611,1.0246106386184692,1.0214509963989258,0.3204573094844818
47.0,1.021590232849121,1.0247105360031128,1.0215530395507812,0.32060113549232483
48.0,1.0227130651474,1.026050090789795,1.0226701498031616,0.3199169337749481
49.0,1.0222970247268677,1.0255054235458374,1.0222574472427368,0.3209518790245056
50.0,1.0203661918640137,1.0233219861984253,1.0203328132629395,0.32304275035858154
51.0,1.0221368074417114,1.0251703262329102,1.0221006870269775,0.32173824310302734
52.0,1.0228137969970703,1.0258935689926147,1.0227758884429932,0.3209956884384155
53.0,1.0228631496429443,1.0259180068969727,1.0228257179260254,0.32071051001548767
54.0,1.0212329626083374,1.0241671800613403,1.0211981534957886,0.32254692912101746
55.0,1.0204803943634033,1.0233690738677979,1.0204479694366455,0.32348570227622986
56.0,1.0232630968093872,1.0262130498886108,1.0232290029525757,0.32127952575683594
57.0,1.0228731632232666,1.0257525444030762,1.0228384733200073,0.3220613896846771
58.0,1.0211085081100464,1.0239179134368896,1.0210750102996826,0.3237399160861969
59.0,1.0215963125228882,1.0243803262710571,1.0215632915496826,0.32328614592552185
60.0,1.0201245546340942,1.022889256477356,1.0200923681259155,0.32528069615364075
61.0,1.0206680297851562,1.0233585834503174,1.0206362009048462,0.3249198794364929
62.0,1.0202717781066895,1.0229473114013672,1.020240306854248,0.32552477717399597
63.0,1.0196043252944946,1.0222558975219727,1.0195727348327637,0.3263903856277466
64.0,1.0213817358016968,1.0239468812942505,1.0213518142700195,0.3250575363636017
65.0,1.0221103429794312,1.024677038192749,1.022080659866333,0.3246135413646698
66.0,1.0233596563339233,1.0259809494018555,1.0233283042907715,0.3233039975166321
67.0,1.0264304876327515,1.0294603109359741,1.0263899564743042,0.3206576108932495
68.0,1.0271646976470947,1.0302934646606445,1.0271215438842773,0.3205600380897522
69.0,1.0268532037734985,1.0298763513565063,1.026813268661499,0.3212108612060547
70.0,1.0299010276794434,1.0333659648895264,1.0298497676849365,0.3189113438129425
71.0,1.029254674911499,1.032583475112915,1.029209017753601,0.31996795535087585
72.0,1.0307196378707886,1.0342706441879272,1.0306679010391235,0.31892091035842896
73.0,1.0300415754318237,1.03363835811615,1.0299896001815796,0.3197927474975586
74.0,1.0309885740280151,1.0345653295516968,1.0309371948242188,0.31887492537498474
75.0,1.0302050113677979,1.0337669849395752,1.0301547050476074,0.32006531953811646
76.0,1.030560851097107,1.0341103076934814,1.030510663986206,0.3198254704475403
77.0,1.0305910110473633,1.0341346263885498,1.0305408239364624,0.31985241174697876
78.0,1.0318399667739868,1.0353906154632568,1.0317896604537964,0.31881317496299744
79.0,1.0333781242370605,1.0369967222213745,1.0333253145217896,0.3176646828651428
80.0,1.0343787670135498,1.0380728244781494,1.0343230962753296,0.31678199768066406
81.0,1.0361679792404175,1.0400530099868774,1.0361062288284302,0.31535792350769043
82.0,1.0368454456329346,1.0408059358596802,1.0367828607559204,0.3148129880428314
83.0,1.0393109321594238,1.0433952808380127,1.0392429828643799,0.3128928542137146
84.0,1.0395028591156006,1.0435945987701416,1.0394351482391357,0.31317099928855896
85.0,1.041281819343567,1.0455764532089233,1.041205883026123,0.31085461378097534
86.0,1.0419235229492188,1.0462983846664429,1.041844367980957,0.30990567803382874
87.0,1.042697548866272,1.047173261642456,1.0426138639450073,0.30906304717063904
88.0,1.042697548866272,1.047173261642456,1.0426138639450073,0.30906304717063904
89.0,1.042697548866272,1.047173261642456,1.0426138639450073,0.30906304717063904
90.0,1.042697548866272,1.047173261642456,1.0426138639450073,0.30906304717063904
91.0,1.042697548866272,1.047173261642456,1.0426138639450073,0.30906304717063904
92.0,1.042697548866272,1.047173261642456,1.0426138639450073,0.30906304717063904
93.0,1.042697548866272,1.047173261642456,1.0426138639450073,0.30906304717063904
94.0,1.042697548866272,1.047173261642456,1.0426138639450073,0.30906304717063904
95.0,1.042697548866272,1.047173261642456,1.0426138639450073,0.30906304717063904
96.0,1.042697548866272,1.047173261642456,1.0426138639450073,0.30906304717063904
97.0,1.042697548866272,1.047173261642456,1.0426138639450073,0.30906304717063904
98.0,1.042697548866272,1.047173261642456,1.0426138639450073,0.30906304717063904
99.0,1.042697548866272,1.047173261642456,1.0426138639450073,0.30906304717063904
100.0,1.042697548866272,1.047173261642456,1.0426138639450073,0.30906304717063904
