epoch,scaling,scale,wavelength,sigma
0.0,1.0,1.0,1.0,0.33000001311302185
1.0,1.0042564868927002,1.0066795349121094,1.0042498111724854,0.3256329596042633
2.0,1.0040736198425293,1.006462812423706,1.0040669441223145,0.3262265920639038
3.0,1.007464051246643,1.0105719566345215,1.0074528455734253,0.32340702414512634
4.0,1.0073827505111694,1.0102516412734985,1.007371187210083,0.32425642013549805
5.0,1.0078831911087036,1.010684847831726,1.0078723430633545,0.3236115276813507
6.0,1.0098621845245361,1.0129696130752563,1.0098484754562378,0.3212037980556488
7.0,1.0092811584472656,1.0121564865112305,1.009270191192627,0.321821391582489
8.0,1.0096553564071655,1.012488603591919,1.0096443891525269,0.32150450348854065
9.0,1.0107805728912354,1.0137983560562134,1.0107673406600952,0.3202511668205261
10.0,1.00947105884552,1.0122218132019043,1.0094614028930664,0.3209613263607025
11.0,1.0105688571929932,1.0133769512176514,1.0105578899383545,0.31987324357032776
12.0,1.009782314300537,1.0124446153640747,1.0097720623016357,0.3202941417694092
13.0,1.0114704370498657,1.0142900943756104,1.0114587545394897,0.3189501464366913
14.0,1.0095324516296387,1.0121164321899414,1.0095226764678955,0.32024186849594116
15.0,1.0091440677642822,1.0117223262786865,1.0091345310211182,0.3211299777030945
16.0,1.009680986404419,1.0121928453445435,1.0096720457077026,0.32100340723991394
17.0,1.0104928016662598,1.0129810571670532,1.0104843378067017,0.3205976188182831
18.0,1.0132430791854858,1.0159580707550049,1.0132324695587158,0.3179408013820648
19.0,1.0141522884368896,1.0170986652374268,1.014138102531433,0.3172776401042938
20.0,1.0156548023223877,1.0190080404281616,1.0156357288360596,0.31570208072662354
21.0,1.0161948204040527,1.019742727279663,1.0161734819412231,0.3154255151748657
22.0,1.0159788131713867,1.0194400548934937,1.0159595012664795,0.31582388281822205
23.0,1.0165941715240479,1.0202614068984985,1.0165719985961914,0.3152427077293396
24.0,1.0168322324752808,1.0205657482147217,1.0168089866638184,0.3154129385948181
25.0,1.017067551612854,1.0208778381347656,1.0170419216156006,0.31521856784820557
26.0,1.0178545713424683,1.02195143699646,1.0178250074386597,0.314614862203598
27.0,1.0183303356170654,1.0226061344146729,1.0182979106903076,0.3145492672920227
28.0,1.0176516771316528,1.0216842889785767,1.0176236629486084,0.3155580163002014
29.0,1.018405795097351,1.0226764678955078,1.0183727741241455,0.31505507230758667
30.0,1.0193371772766113,1.023923635482788,1.0192983150482178,0.31441205739974976
31.0,1.019105315208435,1.0235673189163208,1.0190684795379639,0.3148934543132782
32.0,1.0194218158721924,1.0239646434783936,1.0193835496902466,0.31480661034584045
33.0,1.0194156169891357,1.023948311805725,1.0193766355514526,0.31512942910194397
34.0,1.0194157361984253,1.0239484310150146,1.0193769931793213,0.3151354491710663
35.0,1.0194166898727417,1.0239497423171997,1.0193779468536377,0.31513330340385437
36.0,1.0194166898727417,1.0239497423171997,1.0193779468536377,0.31513330340385437
37.0,1.0194166898727417,1.0239497423171997,1.0193779468536377,0.31513330340385437
38.0,1.0194166898727417,1.0239497423171997,1.0193779468536377,0.31513330340385437
39.0,1.0194166898727417,1.0239497423171997,1.0193779468536377,0.31513330340385437
40.0,1.0194166898727417,1.0239497423171997,1.0193779468536377,0.31513330340385437
41.0,1.0194166898727417,1.0239497423171997,1.0193779468536377,0.31513330340385437
42.0,1.0194166898727417,1.0239497423171997,1.0193779468536377,0.31513330340385437
43.0,1.0194166898727417,1.0239497423171997,1.0193779468536377,0.31513330340385437
44.0,1.0194166898727417,1.0239497423171997,1.0193779468536377,0.31513330340385437
45.0,1.0194166898727417,1.0239497423171997,1.0193779468536377,0.31513330340385437
46.0,1.0194166898727417,1.0239497423171997,1.0193779468536377,0.31513330340385437
47.0,1.0194166898727417,1.0239497423171997,1.0193779468536377,0.31513330340385437
48.0,1.0194166898727417,1.0239497423171997,1.0193779468536377,0.31513330340385437
49.0,1.0194166898727417,1.0239497423171997,1.0193779468536377,0.31513330340385437
50.0,1.0194166898727417,1.0239497423171997,1.0193779468536377,0.31513330340385437
51.0,1.0194166898727417,1.0239497423171997,1.0193779468536377,0.31513330340385437
52.0,1.0194166898727417,1.0239497423171997,1.0193779468536377,0.31513330340385437
53.0,1.0194166898727417,1.0239497423171997,1.0193779468536377,0.31513330340385437
54.0,1.0194166898727417,1.0239497423171997,1.0193779468536377,0.31513330340385437
55.0,1.0194166898727417,1.0239497423171997,1.0193779468536377,0.31513330340385437
56.0,1.0194166898727417,1.0239497423171997,1.0193779468536377,0.31513330340385437
57.0,1.0194166898727417,1.0239497423171997,1.0193779468536377,0.31513330340385437
58.0,1.0194166898727417,1.0239497423171997,1.0193779468536377,0.31513330340385437
59.0,1.0194166898727417,1.0239497423171997,1.0193779468536377,0.31513330340385437
60.0,1.0194166898727417,1.0239497423171997,1.0193779468536377,0.31513330340385437
61.0,1.0194166898727417,1.0239497423171997,1.0193779468536377,0.31513330340385437
62.0,1.0194166898727417,1.0239497423171997,1.0193779468536377,0.31513330340385437
63.0,1.0194166898727417,1.0239497423171997,1.0193779468536377,0.31513330340385437
64.0,1.0194166898727417,1.0239497423171997,1.0193779468536377,0.31513330340385437
65.0,1.0194166898727417,1.0239497423171997,1.0193779468536377,0.31513330340385437
66.0,1.0194166898727417,1.0239497423171997,1.0193779468536377,0.31513330340385437
67.0,1.0194166898727417,1.0239497423171997,1.0193779468536377,0.31513330340385437
68.0,1.0194166898727417,1.0239497423171997,1.0193779468536377,0.31513330340385437
69.0,1.0194166898727417,1.0239497423171997,1.0193779468536377,0.31513330340385437
70.0,1.0194166898727417,1.0239497423171997,1.0193779468536377,0.31513330340385437
71.0,1.0194166898727417,1.0239497423171997,1.0193779468536377,0.31513330340385437
72.0,1.0194166898727417,1.0239497423171997,1.0193779468536377,0.31513330340385437
73.0,1.0194166898727417,1.0239497423171997,1.0193779468536377,0.31513330340385437
74.0,1.0194166898727417,1.0239497423171997,1.0193779468536377,0.31513330340385437
75.0,1.0194166898727417,1.0239497423171997,1.0193779468536377,0.31513330340385437
76.0,1.0194166898727417,1.0239497423171997,1.0193779468536377,0.31513330340385437
77.0,1.0194166898727417,1.0239497423171997,1.0193779468536377,0.31513330340385437
78.0,1.0194166898727417,1.0239497423171997,1.0193779468536377,0.31513330340385437
79.0,1.0194166898727417,1.0239497423171997,1.0193779468536377,0.31513330340385437
80.0,1.0194166898727417,1.0239497423171997,1.0193779468536377,0.31513330340385437
81.0,1.0194166898727417,1.0239497423171997,1.0193779468536377,0.31513330340385437
82.0,1.0194166898727417,1.0239497423171997,1.0193779468536377,0.31513330340385437
83.0,1.0194166898727417,1.0239497423171997,1.0193779468536377,0.31513330340385437
84.0,1.0194166898727417,1.0239497423171997,1.0193779468536377,0.31513330340385437
85.0,1.0194166898727417,1.0239497423171997,1.0193779468536377,0.31513330340385437
86.0,1.0194166898727417,1.0239497423171997,1.0193779468536377,0.31513330340385437
87.0,1.0194166898727417,1.0239497423171997,1.0193779468536377,0.31513330340385437
88.0,1.0194166898727417,1.0239497423171997,1.0193779468536377,0.31513330340385437
89.0,1.0194166898727417,1.0239497423171997,1.0193779468536377,0.31513330340385437
90.0,1.0194166898727417,1.0239497423171997,1.0193779468536377,0.31513330340385437
91.0,1.0194166898727417,1.0239497423171997,1.0193779468536377,0.31513330340385437
92.0,1.0194166898727417,1.0239497423171997,1.0193779468536377,0.31513330340385437
93.0,1.0194166898727417,1.0239497423171997,1.0193779468536377,0.31513330340385437
94.0,1.0194166898727417,1.0239497423171997,1.0193779468536377,0.31513330340385437
95.0,1.0194166898727417,1.0239497423171997,1.0193779468536377,0.31513330340385437
96.0,1.0194166898727417,1.0239497423171997,1.0193779468536377,0.31513330340385437
97.0,1.0194166898727417,1.0239497423171997,1.0193779468536377,0.31513330340385437
98.0,1.0194166898727417,1.0239497423171997,1.0193779468536377,0.31513330340385437
99.0,1.0194166898727417,1.0239497423171997,1.0193779468536377,0.31513330340385437
100.0,1.0194166898727417,1.0239497423171997,1.0193779468536377,0.31513330340385437
