acc,loss,val_acc,val_loss
0.6656249761581421,1.1308833581209183,0.9165833592414856,0.29833230851812564
0.921916663646698,0.25849261025587716,0.9409166574478149,0.1960847315160518
0.9383958578109741,0.19790289558966956,0.9381666779518127,0.20158531841762523
0.9455416798591614,0.17301490350564322,0.9578333497047424,0.13888415381153849
0.9492291808128357,0.1639631564716498,0.965499997138977,0.11471438615959376
0.9531041383743286,0.1486958829065164,0.9595833420753479,0.1318650748778848
0.9553124904632568,0.13754143424828846,0.9595833420753479,0.12912886046824304
0.9570208191871643,0.13470916431148847,0.9623333215713501,0.12159841658270105
0.9620416760444641,0.12026454539100329,0.9625833630561829,0.116632800034069
0.9628750085830688,0.11496439535419146,0.9635833501815796,0.11773589354484006
0.9637083411216736,0.11179838871210813,0.956416666507721,0.1420689940531837
0.9652500152587891,0.10892658830930789,0.9512500166893005,0.15722058245793302
0.9682708382606506,0.09827745109796523,0.9633333086967468,0.11501527918463057
0.9681875109672546,0.10140301634122928,0.9609166383743286,0.12974559472120822
0.9687708616256714,0.09563015212863683,0.9628333449363708,0.11844833405252467
0.9685208201408386,0.09865492563446362,0.9666666388511658,0.11135462173161671
0.9680833220481873,0.09784934579581023,0.9524999856948853,0.15111920503067208
0.9700833559036255,0.09063366767267386,0.9548333287239075,0.15139847050638908
0.9710416793823242,0.09003887795656919,0.9549166560173035,0.14694387945247459
0.9717708230018616,0.08520752947032452,0.9434999823570251,0.18486601201460717
0.973645806312561,0.08194017388174932,0.96875,0.10250404015421233
0.9715833067893982,0.08846633957574765,0.9723333120346069,0.09120591761583978
0.9745000004768372,0.07679695997138818,0.9639999866485596,0.11835253369459446
0.9764166474342346,0.07243341083700458,0.972083330154419,0.09655127241375282
0.9781249761581421,0.06705018049106001,0.9713333249092102,0.09663033657806351
0.9736875295639038,0.08190769725168745,0.9695833325386047,0.09756317425598489
0.9762916564941406,0.07381758164117734,0.9708333611488342,0.09997584388413011
0.9777083396911621,0.06690692686786254,0.9751666784286499,0.0859129611561273
0.9782083630561829,0.06548072528839112,0.9692500233650208,0.10412598423104971
0.9765833616256714,0.07129342276106278,0.9666666388511658,0.11519065604327207
0.9782291650772095,0.06785145224568745,0.9668333530426025,0.11028221501235633
0.9779583215713501,0.06625367814612886,0.9761666655540466,0.086066421022282
0.9782291650772095,0.0665139961000532,0.9729999899864197,0.08748902450811039
0.9787083268165588,0.06533527632802724,0.9617499709129333,0.1283374418643244
0.9789999723434448,0.06409699281863868,0.9587500095367432,0.13824369441321555
0.9793124794960022,0.06162666987006863,0.956166684627533,0.14868728927475341
0.9817291498184204,0.055191083611920475,0.9629999995231628,0.13443979418816718
0.9817291498184204,0.05473244759937127,0.9635833501815796,0.11815926741729392
0.9815624952316284,0.055171653920784595,0.9627500176429749,0.13402341609384785
0.9807708263397217,0.058842284886166454,0.9650833606719971,0.11933125527773766
0.9818333387374878,0.05332735004834831,0.9631666541099548,0.11805750699119365
0.9817291498184204,0.0539022542660435,0.965833306312561,0.1229247893305852
0.9809791445732117,0.056055884879703324,0.9552500247955322,0.16795221662664034
0.9781041741371155,0.06537395792702834,0.9692500233650208,0.11359090839532461
0.9825624823570251,0.05219810648448765,0.9664166569709778,0.11953637455689146
0.9819791913032532,0.053050949031487105,0.9710000157356262,0.09972605346999269
0.9813541769981384,0.055832188318793975,0.9621666669845581,0.13514464124640885
0.9816250205039978,0.05487564487755298,0.9522500038146973,0.16884889314941903
0.9850208163261414,0.044437830611752965,0.965416669845581,0.13042443814350568
0.9851458072662354,0.045515917249023916,0.9559166431427002,0.16225231050493868
0.9835208058357239,0.04853111503707866,0.9702500104904175,0.11531466110906702
0.9835625290870667,0.050298971098537246,0.9697499871253967,0.11955872524846742
0.9834583401679993,0.04987790074385703,0.9554166793823242,0.18040025485877662
0.9851874709129333,0.0441326231265751,0.9626666903495789,0.14535967014888498
0.9852916598320007,0.04360276317968965,0.9574166536331177,0.1588919412820263
0.9848541617393494,0.04509251943246151,0.9632499814033508,0.13997703006966633
0.9845208525657654,0.043286558347443736,0.95333331823349,0.17387094786588816
0.9858750104904175,0.04164351055553804,0.9614999890327454,0.15432737708250258
0.9835625290870667,0.048477978941984474,0.9634166955947876,0.1369688926125936
0.9848541617393494,0.04475111248747756,0.9603333473205566,0.14593567120585035
0.9848958253860474,0.04392405670074125,0.9605000019073486,0.16766219715924657
0.984291672706604,0.046785778092220426,0.9520000219345093,0.2149101767015267
0.9829791784286499,0.05073245513128738,0.9510833621025085,0.19932879636341588
0.9836875200271606,0.048893324708410846,0.9549999833106995,0.2016043764281463
0.9851666688919067,0.04370319701855381,0.9559999704360962,0.17663033223374092
0.9852916598320007,0.04267983064241707,0.9590833187103271,0.16035405641540568
0.9869999885559082,0.037084867604076865,0.9609166383743286,0.14405656332506778
0.9860833287239075,0.04099493645333375,0.9645833373069763,0.14123072313699633
0.9869583249092102,0.03765016190769772,0.9550833106040955,0.17514021238906585
0.9891666769981384,0.03080539061004917,0.9608333110809326,0.15013030498348018
0.9895416498184204,0.02963207901486506,0.9542499780654907,0.18988800875129216
0.9854583144187927,0.043568221770847834,0.9614166617393494,0.15647757912371704
0.9869166612625122,0.03722314049280249,0.9652500152587891,0.13310753397564304
0.9865000247955322,0.03996283184364438,0.956416666507721,0.17673475834283423
0.9862499833106995,0.03879501451831311,0.9628333449363708,0.14375666223783443
0.989062488079071,0.03138307104911655,0.972083330154419,0.11076819940787205
0.9862291812896729,0.03993209580549349,0.9692500233650208,0.13019760561353982
0.9856458306312561,0.04287408566505958,0.9709166884422302,0.1239742185534077
0.9889583587646484,0.03371280907839537,0.9752500057220459,0.10315667313989252
0.987333357334137,0.036279320873475324,0.9670833349227905,0.13275476311274031
0.9869375228881836,0.03754859633774807,0.9768333435058594,0.10288652562427315
0.9886875152587891,0.0330940782467369,0.9641666412353516,0.16198531336131247
0.9907291531562805,0.02686147150816396,0.9798333048820496,0.0848765704289148
0.9895416498184204,0.030518044168828057,0.9580833315849304,0.18274198732081245
0.9884166717529297,0.03363749942742288,0.9740833044052124,0.11246402563646118
0.9905208349227905,0.02722597788926214,0.9741666913032532,0.10858185795145704
0.9878333210945129,0.03546405480119089,0.971833348274231,0.11293849332178844
0.9901250004768372,0.02806304341337333,0.9753333330154419,0.10888715736825574
0.9910625219345093,0.025458760860531282,0.9809166789054871,0.08524642495978425
0.9907916784286499,0.02625148446043022,0.9650833606719971,0.1511664033094619
0.9888749718666077,0.03245897565727743,0.9741666913032532,0.10259260268426164
0.9903333187103271,0.028187997279533496,0.9766666889190674,0.10265727840522502
0.9882708191871643,0.032753956732728205,0.9711666703224182,0.11745461874066833
0.9886875152587891,0.03156971855958303,0.9710833430290222,0.1200221998176161
0.9903541803359985,0.02790453723736573,0.9745000004768372,0.11945102716786192
0.9926458597183228,0.02129795841042263,0.9694166779518127,0.14040211501947425
0.9898541569709778,0.028318054489791394,0.965583324432373,0.15030988354850164
0.9905208349227905,0.02657248599935944,0.9760000109672546,0.10588703704428205
0.9883958101272583,0.03339945657892773,0.9793333411216736,0.09251697240719334
0.9903958439826965,0.027577950215743233,0.965833306312561,0.1568513845955517
