acc,loss,val_acc,val_loss
0.675125002861023,0.9505283727645873,0.9445000290870667,0.173041461392286
0.953249990940094,0.14798698816696804,0.9626666903495789,0.11647612496497149
0.9660208225250244,0.10819594644010067,0.9676666855812073,0.1009417819255527
0.9728124737739563,0.08673847674330075,0.971666693687439,0.08682145519142455
0.9780208468437195,0.07059793800363938,0.972000002861023,0.09030893062578237
0.9826041460037231,0.05680385085567832,0.9769166707992554,0.07526293340475952
0.9862499833106995,0.04648517696062724,0.9787499904632568,0.07364628869703317
0.987666666507721,0.04075820347480476,0.9786666631698608,0.07033499555682089
0.9902499914169312,0.03192389262095094,0.9789999723434448,0.07408516506287963
0.9919166564941406,0.0267704469615904,0.9807500243186951,0.07301402525193593
0.9928541779518127,0.023352777204165856,0.9780833125114441,0.08484676061198115
0.9930833578109741,0.02100808904902078,0.9789999723434448,0.08448754552196949
0.9941874742507935,0.018205202959807744,0.9773333072662354,0.09719900078848599
0.9947500228881836,0.015568834907763326,0.9799166917800903,0.0889809963796808
0.9960416555404663,0.01240530044065478,0.9782500267028809,0.0928104258925119
0.9972500205039978,0.009370322787707362,0.9803333282470703,0.09319962420720022
0.9962291717529297,0.011517807056351255,0.981083333492279,0.08772023567623964
0.9981874823570251,0.005673545332678866,0.981333315372467,0.09536557399429087
0.9978749752044678,0.0065797196727605,0.9777500033378601,0.12529382588260712
0.9971458315849304,0.00792368360188751,0.9794166684150696,0.10572596215144509
0.9962083101272583,0.010208741968352114,0.9804999828338623,0.09688021980679316
0.9955624938011169,0.013388528092065826,0.9821666479110718,0.09122104782882355
0.9959999918937683,0.011087325957293311,0.9792500138282776,0.09711090642056351
0.9975000023841858,0.006744972526857358,0.9816666841506958,0.09593078556211734
0.9991875290870667,0.002435995246754828,0.9816666841506958,0.11065337871711582
0.9985416531562805,0.004437410613692009,0.981083333492279,0.11040804760178868
0.9976875185966492,0.007956490209155164,0.9837499856948853,0.08338682142764695
0.9987499713897705,0.0035021340744642655,0.9831666946411133,0.09627442215485721
0.9994375109672546,0.002140059220270814,0.9824166893959045,0.10382484719206757
0.9988750219345093,0.003679419528502573,0.9830833077430725,0.10223420955267973
0.9972708225250244,0.007709711891811822,0.9795833230018616,0.11048851429083523
0.9986875057220459,0.003941009625176624,0.9810000061988831,0.10441301767299437
0.9991458058357239,0.0026667384235087564,0.9806666374206543,0.11961065044507702
0.9960833191871643,0.012030436241620616,0.9801666736602783,0.10477536821123609
0.9961458444595337,0.011642966093776826,0.981249988079071,0.09584356191756323
0.9989791512489319,0.002671174424246298,0.9829166531562805,0.0957569938559863
0.999666690826416,0.0012901301953370421,0.984333336353302,0.10435927557703875
0.9999374747276306,0.00028181853434284675,0.984083354473114,0.10388453617755697
1.0,8.713276070185809e-05,0.984499990940094,0.10764839218617009
1.0,2.1479859839132588e-05,0.98458331823349,0.11061925710589307
1.0,1.423374728839614e-05,0.984499990940094,0.11234351035667753
1.0,1.1293389478206942e-05,0.9849166870117188,0.1142331788810515
1.0,8.789304666189915e-06,0.9850000143051147,0.11564490758575359
1.0,7.558409446119185e-06,0.9849166870117188,0.11725849760710225
1.0,5.772041768333717e-06,0.9848333597183228,0.11870654411467647
1.0,4.695416507255838e-06,0.9850000143051147,0.1200392915832205
1.0,3.824851150757998e-06,0.9852499961853027,0.12120945268303486
1.0,3.108366690170783e-06,0.9854999780654907,0.12269170591335228
1.0,2.501377305340687e-06,0.9854999780654907,0.12415991083322839
1.0,2.2108508928463757e-06,0.9853333234786987,0.12541161588191282
1.0,1.9384557637541396e-06,0.9855833053588867,0.12795816371726687
1.0,1.4620525180670067e-06,0.9856666922569275,0.13023481390650596
1.0,1.2099229906053683e-06,0.9855833053588867,0.13196895570995656
1.0,9.84879355595325e-07,0.9856666922569275,0.13322026692924524
1.0,8.179161092816874e-07,0.9856666922569275,0.13451044629700265
1.0,6.814085723926648e-07,0.9856666922569275,0.1366157767003468
1.0,5.580726260028257e-07,0.9858333468437195,0.13809232555390638
1.0,4.634970140047952e-07,0.9858333468437195,0.13987867537221935
1.0,3.77471359246299e-07,0.9857500195503235,0.14183767830816074
1.0,3.1155990707694887e-07,0.9857500195503235,0.14341836557828852
1.0,2.5731427965218025e-07,0.9856666922569275,0.14511154185811392
1.0,2.130839539541777e-07,0.9855833053588867,0.14684081486986658
1.0,1.7716554792279738e-07,0.9855833053588867,0.14859923685664514
1.0,1.4718746048947295e-07,0.9854999780654907,0.15031231967790556
1.0,1.2158271305488337e-07,0.9855833053588867,0.152069881482311
1.0,1.0139685894087572e-07,0.9855833053588867,0.1537966086715874
1.0,8.403222714766419e-08,0.9855833053588867,0.15550734225148324
1.0,6.987624369007387e-08,0.9854999780654907,0.1571868262557318
1.0,5.7918148703262065e-08,0.9855833053588867,0.1588829407606546
1.0,4.8505636226418386e-08,0.9858333468437195,0.16048613959014318
1.0,4.033983997982678e-08,0.9858333468437195,0.16219985753766794
1.0,3.352506985102958e-08,0.9858333468437195,0.16372326618035787
1.0,2.7902383420060536e-08,0.9857500195503235,0.16537777893960479
1.0,2.3340156987424383e-08,0.9857500195503235,0.1670368827780478
1.0,1.9830941287620382e-08,0.9856666922569275,0.16880966464217143
1.0,1.675385660974508e-08,0.9855833053588867,0.17065998693196574
1.0,1.373389367860985e-08,0.9856666922569275,0.17223313276632118
1.0,1.160303050366333e-08,0.9857500195503235,0.1737602569992704
1.0,9.847179080442932e-09,0.9856666922569275,0.17514495683461795
1.0,8.217986966485569e-09,0.9856666922569275,0.17660059145684762
1.0,7.169938999407321e-09,0.9857500195503235,0.17818734701911532
1.0,5.967913244475653e-09,0.9857500195503235,0.17965146278368743
1.0,5.068876999173947e-09,0.9857500195503235,0.18098431984055466
1.0,4.415709750441957e-09,0.9858333468437195,0.18243875552913774
1.0,3.7451577861169485e-09,0.9857500195503235,0.18364720172721816
1.0,3.2310678859855577e-09,0.9857500195503235,0.18491224471537687
1.0,2.7343626712491206e-09,0.9857500195503235,0.18627757600160974
1.0,2.381701939816831e-09,0.9858333468437195,0.18722868030806694
1.0,2.0737446827882402e-09,0.9859166741371155,0.18831122909544143
1.0,1.8030403146814441e-09,0.9859166741371155,0.18923131200300944
1.0,1.5745558841947134e-09,0.9859166741371155,0.19018770201890817
1.0,1.3634561328856875e-09,0.9856666922569275,0.1912186135583588
1.0,1.4553464960561276e-09,0.9859166741371155,0.19080447223621405
0.9960416555404663,0.017409620348427433,0.9732499718666077,0.12767342632101414
0.996708333492279,0.009655732582387524,0.981083333492279,0.12216127015802912
0.9988124966621399,0.003578367014081664,0.9815833568572998,0.11340948978574894
0.9992916584014893,0.0027009172738936132,0.9756666421890259,0.16194052179390442
0.9995416402816772,0.0014023268128154315,0.98458331823349,0.11312324610393494
0.999958336353302,0.00018881739722600817,0.98458331823349,0.11150214873454233
1.0,2.9198589171339033e-05,0.9850833415985107,0.11139705194236353
