acc,loss,val_acc,val_loss
0.8934791684150696,0.36816937758525214,0.9574999809265137,0.15027303094083957
0.9674166440963745,0.1137206461528937,0.9725833535194397,0.09680808408859562
0.9791458249092102,0.07286527515699466,0.9764999747276306,0.0795459926049126
0.9854999780654907,0.0512735645112892,0.9782500267028809,0.07343883470612321
0.9895416498184204,0.0367171800006181,0.9778333306312561,0.07027410751981462
0.9926666617393494,0.02646742495583991,0.9776666760444641,0.07853410757107145
0.9942708611488342,0.01980199463230868,0.9790833592414856,0.07804824528779755
0.9943333268165588,0.01721280984611561,0.9789166450500488,0.07767236694455781
0.995479166507721,0.01428912833922853,0.9797499775886536,0.07625221413005381
0.9971250295639038,0.009730792368645779,0.9802500009536743,0.08008744973290534
0.9985208511352539,0.005905268816122165,0.9806666374206543,0.08396757033095012
0.9983124732971191,0.006248025580192916,0.9787499904632568,0.0956872638440047
0.9980000257492065,0.0060333325129079945,0.9823333621025085,0.07985236277702225
0.9990000128746033,0.003898083988315193,0.981249988079071,0.08433244148661888
0.9989166855812073,0.003892892444537817,0.9802500009536743,0.09808191055236286
0.9979166388511658,0.006227927187901514,0.9768333435058594,0.10140237374171773
0.9981874823570251,0.005718850589861783,0.9817500114440918,0.09282262884873024
0.9977499842643738,0.006257457015162799,0.9815833568572998,0.09323042112853418
0.9990000128746033,0.0036757210643360546,0.9819999933242798,0.09450950107581794
0.999916672706604,0.0005323288778290589,0.9832500219345093,0.0922243016527531
1.0,0.00014364554646272153,0.9835833311080933,0.09402593383701775
0.999958336353302,0.00016383969058976315,0.9830833077430725,0.09337301387754547
0.9993333220481873,0.0020280707958439353,0.9708333611488342,0.14846942131902943
0.995395839214325,0.013041449374519289,0.9787499904632568,0.10060726403397449
0.9983124732971191,0.004759240447262224,0.9825000166893005,0.09206943335494601
0.9996458292007446,0.0012918239784618587,0.9831666946411133,0.08932809501919187
0.999875009059906,0.00046480839821924744,0.9832500219345093,0.08947168042891947
0.999916672706604,0.0004361137331658635,0.9836666584014893,0.09376219118232566
1.0,6.323170939443419e-05,0.984416663646698,0.09529943735663224
1.0,2.5743691658590252e-05,0.98458331823349,0.0966854796264515
1.0,1.7404078850707567e-05,0.984499990940094,0.0982948282508779
1.0,1.349646990089089e-05,0.984499990940094,0.0997146486979352
1.0,1.0802384121120668e-05,0.984416663646698,0.10110283347758207
1.0,8.771583568811062e-06,0.984333336353302,0.10243861796535636
1.0,7.192749636440491e-06,0.984333336353302,0.10369719392791864
1.0,5.934166470069613e-06,0.984333336353302,0.10497492901699747
1.0,4.929298986761903e-06,0.984250009059906,0.10628524490482263
1.0,4.1014725469589546e-06,0.984333336353302,0.10752147404824389
1.0,3.4195391061426033e-06,0.984499990940094,0.10887746418530754
1.0,2.8559119828723094e-06,0.984749972820282,0.11021827414492207
1.0,2.3924780532856478e-06,0.984749972820282,0.11152133071234548
1.0,2.0042616296554646e-06,0.984666645526886,0.11291982998297131
1.0,1.6808148352609465e-06,0.98458331823349,0.11429100446494363
1.0,1.4086979530236003e-06,0.984499990940094,0.1156620085334617
1.0,1.1816986000396194e-06,0.984416663646698,0.11701489352963883
1.0,9.91249925722452e-07,0.984499990940094,0.11834213255586176
1.0,8.31227259069441e-07,0.98458331823349,0.11970728308211194
1.0,6.971690150264406e-07,0.984416663646698,0.12101515447487513
1.0,5.849484398769237e-07,0.984416663646698,0.12244088371083675
1.0,4.902352727591542e-07,0.984416663646698,0.1237420514455075
1.0,4.112118729270679e-07,0.984416663646698,0.125082928624308
1.0,3.4541002519228315e-07,0.984499990940094,0.12637654456597994
1.0,2.8982490645039033e-07,0.984499990940094,0.1277838820511785
1.0,2.432347513766272e-07,0.984499990940094,0.12911249738692007
1.0,2.0434824955254765e-07,0.98458331823349,0.1305171743948991
1.0,1.716281788534483e-07,0.984416663646698,0.13188864811891496
1.0,1.4420534854172236e-07,0.984416663646698,0.1332958284711493
1.0,1.2131983920464033e-07,0.984416663646698,0.13470521813744993
1.0,1.021173422894132e-07,0.984416663646698,0.136051212854072
1.0,8.623776415047265e-08,0.984333336353302,0.1374305219716839
1.0,7.276717919957321e-08,0.984250009059906,0.138795285516777
1.0,6.144731013820366e-08,0.984250009059906,0.14017223047938174
1.0,5.2114248224525524e-08,0.984250009059906,0.14151091844130503
1.0,4.42340401554849e-08,0.98416668176651,0.14290155871497595
1.0,3.756578647307052e-08,0.98416668176651,0.14426956342383185
1.0,3.1953027378535855e-08,0.98416668176651,0.14558924823619876
1.0,2.7249235518815122e-08,0.98416668176651,0.14687648145941432
1.0,2.3255730060049256e-08,0.98416668176651,0.14818285151842184
1.0,1.994767650999781e-08,0.984083354473114,0.14942212510413688
1.0,1.7096590661698958e-08,0.984000027179718,0.1506302235635603
1.0,1.4699989448363481e-08,0.984000027179718,0.15186055399972562
1.0,1.2782708179948087e-08,0.984083354473114,0.15306526299271456
1.0,1.0984635917902589e-08,0.984083354473114,0.15420818500930916
1.0,9.524322930776208e-09,0.984000027179718,0.15539125050918423
1.0,8.314845989954023e-09,0.984000027179718,0.15660650316231403
1.0,7.1873252605788215e-09,0.984000027179718,0.15764030033330512
1.0,6.238618333339237e-09,0.984000027179718,0.15863634564651513
1.0,5.428988831971774e-09,0.984083354473114,0.15964893156939539
1.0,4.800656692764231e-09,0.984083354473114,0.1605640394101516
1.0,4.204610407546975e-09,0.984083354473114,0.16155744858786134
1.0,3.700454573577853e-09,0.984083354473114,0.16244577566344912
1.0,3.2310680799045126e-09,0.984083354473114,0.16328155868328115
1.0,2.8933084944190076e-09,0.98416668176651,0.16413046807189405
1.0,2.572933576564888e-09,0.984250009059906,0.16495519371077072
1.0,2.242624554652887e-09,0.984250009059906,0.16583775141035093
1.0,1.999238950389781e-09,0.984083354473114,0.16653224112318085
1.0,1.7806886124146122e-09,0.984083354473114,0.16715150677148563
1.0,1.5621382754756514e-09,0.984083354473114,0.16770189847370584
1.0,1.385807884298392e-09,0.984083354473114,0.1681678102799099
1.0,1.2343127608893667e-09,0.984000027179718,0.16847692979476786
1.0,1.1002023233193844e-09,0.984083354473114,0.16895917086345433
1.0,9.8596009623364e-10,0.984083354473114,0.16941877623718668
1.0,8.940696101985187e-10,0.984083354473114,0.16976305106311793
1.0,8.29497917020916e-10,0.984083354473114,0.17031107134782653
1.0,7.351239039721236e-10,0.984083354473114,0.17059545863052566
1.0,6.506839954253015e-10,0.9839166402816772,0.17108409241155095
1.0,5.761781953772527e-10,0.9839166402816772,0.17142641454505342
1.0,5.165735548947244e-10,0.9837499856948853,0.17182220509006307
1.0,4.842877071216852e-10,0.9838333129882812,0.17198722250418905
1.0,4.693865460758673e-10,0.9839166402816772,0.1725506513441745
