acc,loss,val_acc,val_loss
0.9269375205039978,0.24620540061593055,0.971666693687439,0.09588807424966325
0.9775833487510681,0.07251081044475237,0.9810000061988831,0.06471135878459887
0.9855416417121887,0.04529760953287284,0.9809166789054871,0.06762924647711693
0.9908124804496765,0.030449759951482216,0.9789999723434448,0.07491377514212373
0.9932500123977661,0.02122530111965413,0.9804166555404663,0.07306977487763668
0.9949583411216736,0.015998050693655386,0.9819166660308838,0.07141227329625412
0.9955833554267883,0.013127079616300762,0.9821666479110718,0.06710516282188844
0.9957291483879089,0.011528496789551961,0.9829166531562805,0.07610349808609054
0.996749997138977,0.010426104151294567,0.984000027179718,0.06662392078965725
0.9975625276565552,0.00776554636117847,0.9804166555404663,0.08164925233490686
0.9967708587646484,0.009394775930947313,0.9854166507720947,0.06353833148332728
0.9977499842643738,0.006171999990406523,0.98458331823349,0.07072487961232447
0.9989166855812073,0.003835810067373435,0.9858333468437195,0.06356373480942219
0.9984583258628845,0.004580967008383595,0.9823333621025085,0.08268268608206084
0.9974583387374878,0.007297912597379764,0.9834166765213013,0.08011523201926042
0.9991041421890259,0.0029856336529919644,0.9861666560173035,0.06628958408908418
0.9988124966621399,0.0037725418336667644,0.987500011920929,0.06151468876147734
0.9977708458900452,0.006383586968517193,0.9856666922569275,0.06609642500947341
0.9987083077430725,0.003917885969878019,0.9868333339691162,0.06215852277277241
0.9990000128746033,0.0029952982370135338,0.9850000143051147,0.0781623812931394
0.9990416765213013,0.0033355764207723647,0.984749972820282,0.07645209044951232
0.9982083439826965,0.005591433693368648,0.9819999933242798,0.09952495668016552
0.9990624785423279,0.002582712625192168,0.98458331823349,0.08324794519323908
0.9993333220481873,0.002488722514525155,0.9854999780654907,0.06982910119903805
0.9994583129882812,0.0016776078414335036,0.9869999885559082,0.07247230095244378
0.9990000128746033,0.003209542350650736,0.9863333106040955,0.08178481018141145
0.9981874823570251,0.0056232865575584585,0.9834166765213013,0.08873359847750684
0.9987499713897705,0.004151166013431672,0.9852499961853027,0.07738988013652294
0.9994791746139526,0.00145570333883749,0.9860833287239075,0.0840488158682034
0.9995208382606506,0.0014985485509597539,0.9854999780654907,0.09275149052010864
0.9994375109672546,0.0019052167871879532,0.9852499961853027,0.0820332324260562
0.9993125200271606,0.0022565038873900295,0.9850000143051147,0.0824395280156905
0.9991458058357239,0.0027334146704833984,0.984666645526886,0.08729041848791314
0.9996041655540466,0.0011957812995675946,0.9871666431427002,0.0758736886206518
0.9992708563804626,0.0024865502841932238,0.9869999885559082,0.0751585001471177
0.9992708563804626,0.0024174505382510082,0.987333357334137,0.07315589507669891
0.9995833039283752,0.001393750391712274,0.9859166741371155,0.07637525545594163
0.999958336353302,0.00014966589002693808,0.9858333468437195,0.08452705108140164
1.0,1.1591400422972242e-05,0.9864166378974915,0.08273301014103593
1.0,4.4548687439676844e-06,0.9866666793823242,0.08336012367792446
1.0,3.2066502684457987e-06,0.9866666793823242,0.0840501566674496
1.0,2.4576269410208813e-06,0.9865833520889282,0.08477042823678277
1.0,1.9363801209901037e-06,0.9865833520889282,0.08548921495835106
1.0,1.5448553130491167e-06,0.9865833520889282,0.0862245560895238
1.0,1.2423280504110975e-06,0.9866666793823242,0.08699380431079724
1.0,1.006474791698538e-06,0.9867500066757202,0.08778467989525374
1.0,8.183005348326352e-07,0.9867500066757202,0.08859149084431958
1.0,6.665616528927683e-07,0.9867500066757202,0.08942199956766458
1.0,5.438185292467127e-07,0.9867500066757202,0.09027165777345719
1.0,4.439940014645908e-07,0.9866666793823242,0.09114005011793354
1.0,3.625025242266489e-07,0.9866666793823242,0.0920420315069834
1.0,2.959575183106485e-07,0.9865833520889282,0.0929605232964082
1.0,2.4159794754223064e-07,0.9866666793823242,0.0938939706295756
1.0,1.9728839661888504e-07,0.9865833520889282,0.09482620026515275
1.0,1.6119382734898953e-07,0.9866666793823242,0.09576047716604215
1.0,1.3179450217630045e-07,0.9866666793823242,0.09671196118335715
1.0,1.0775936977225342e-07,0.9866666793823242,0.09766710250231823
1.0,8.828384059815046e-08,0.9866666793823242,0.09863508085326178
1.0,7.235717378032784e-08,0.9866666793823242,0.0996057565290512
1.0,5.935107014387597e-08,0.9867500066757202,0.10058711077053982
1.0,4.8649636959829935e-08,0.9868333339691162,0.10157569061132737
1.0,3.9972250238218265e-08,0.9869166612625122,0.1025710377765563
1.0,3.2904170418272356e-08,0.9869166612625122,0.10358223197338587
1.0,2.7040588394052398e-08,0.9869166612625122,0.10459090902275497
1.0,2.229706888086843e-08,0.9869166612625122,0.10559461817169759
1.0,1.8358206624361866e-08,0.9869166612625122,0.10660573999285575
1.0,1.521655258655367e-08,0.9869999885559082,0.10762350436206641
1.0,1.2531865314950134e-08,0.9870833158493042,0.10863878383123814
1.0,1.040596980894648e-08,0.9870833158493042,0.10965428752578714
1.0,8.620316395961207e-09,0.9870833158493042,0.11067797439091856
1.0,7.1475866144273446e-09,0.9871666431427002,0.11169480171080996
1.0,5.933143129244201e-09,0.9871666431427002,0.11270102313608761
1.0,4.969535482531503e-09,0.9871666431427002,0.11373552617747892
1.0,4.120169811105967e-09,0.9871666431427002,0.11472492815250385
1.0,3.4347167821024983e-09,0.9871666431427002,0.11570818297168033
1.0,2.878407009928215e-09,0.9871666431427002,0.11669141490540369
1.0,2.4090206075892223e-09,0.9871666431427002,0.11764131026788807
1.0,2.0563599041345528e-09,0.9871666431427002,0.1186247992823663
1.0,1.7210838631302277e-09,0.9871666431427002,0.11958002700223617
1.0,1.4156101316350108e-09,0.9871666431427002,0.12046767771408382
1.0,1.2243785979156503e-09,0.9871666431427002,0.12137224641730096
1.0,1.0331470677490036e-09,0.9871666431427002,0.12222675973175302
1.0,8.617837442178219e-10,0.9870833158493042,0.12300083113601151
1.0,7.525085751562226e-10,0.9870833158493042,0.12384401456281127
1.0,6.208816657841491e-10,0.9870833158493042,0.12456219466480842
1.0,5.389252891359794e-10,0.9870833158493042,0.12520667183206452
1.0,4.569689096752446e-10,0.9870833158493042,0.12570147207201054
1.0,4.023313238121773e-10,0.9870833158493042,0.12614609374689345
1.0,3.452102104913498e-10,0.9869999885559082,0.12647841765253048
1.0,3.1540789047213025e-10,0.9869999885559082,0.1268096919851921
1.0,2.7318793730894225e-10,0.9869999885559082,0.12694892539055486
1.0,2.582867767072135e-10,0.9869999885559082,0.12707863480444853
1.0,2.2848445639193452e-10,0.9869166612625122,0.12698415684573994
1.0,2.1606682354402551e-10,0.9869166612625122,0.12687029130315933
1.0,2.210338769792486e-10,0.9870833158493042,0.12689524510382855
1.0,2.0613271696963883e-10,0.9870833158493042,0.12674990119899499
1.0,2.061327172656983e-10,0.9870833158493042,0.12664121303755713
1.0,2.0116566383047522e-10,0.9870833158493042,0.12637469703041615
1.0,2.0364919025202728e-10,0.9871666431427002,0.12625545942761993
1.0,2.086162438352801e-10,0.9870833158493042,0.12620269957761343
