epoch,scaling,scale,wavelength,sigma
0.0,0.10000000149011612,0.10000000149011612,0.10000000149011612,0.33000001311302185
1.0,0.04568907618522644,-0.1433187872171402,0.31407004594802856,0.10524288564920425
2.0,0.06580802798271179,-0.12629863619804382,0.2995602488517761,0.1258658617734909
3.0,0.030484657734632492,-0.16187360882759094,0.3348803222179413,0.09431228041648865
4.0,0.05026950314640999,-0.15117418766021729,0.32714536786079407,0.10634228587150574
5.0,0.024249736219644547,-0.17703871428966522,0.3507950007915497,0.08235351741313934
6.0,0.035093165934085846,-0.17228618264198303,0.3480602502822876,0.08945538103580475
7.0,0.0158437117934227,-0.19197192788124084,0.36854326725006104,0.07284978032112122
8.0,0.0290568545460701,-0.18543168902397156,0.3637434244155884,0.07950001955032349
9.0,0.017717650160193443,-0.19306175410747528,0.3699208199977875,0.07403577864170074
10.0,0.03705538436770439,-0.18274402618408203,0.3623630404472351,0.08444206416606903
11.0,0.03918178007006645,-0.18208840489387512,0.36238786578178406,0.08748069405555725
12.0,0.04107660800218582,-0.18244294822216034,0.3639349043369293,0.09125296026468277
13.0,0.04343698173761368,-0.1833091676235199,0.3665353059768677,0.09177754074335098
14.0,0.03813960775732994,-0.19082042574882507,0.3748910427093506,0.08700913935899734
15.0,0.036920469254255295,-0.1943577527999878,0.3793656527996063,0.0883297398686409
16.0,0.043503765016794205,-0.19173403084278107,0.37825366854667664,0.09379778802394867
17.0,0.048740267753601074,-0.18947087228298187,0.3775361180305481,0.09726947546005249
18.0,0.07722525298595428,-0.15891049802303314,0.3461989760398865,0.12445548921823502
19.0,0.08244290947914124,-0.15405423939228058,0.34241026639938354,0.13364127278327942
20.0,0.08596652746200562,-0.14973285794258118,0.3379697799682617,0.14144209027290344
21.0,0.07143096625804901,-0.16947899758815765,0.35983818769454956,0.1204092800617218
22.0,0.07198618352413177,-0.1715019792318344,0.3631245493888855,0.12092084437608719
23.0,0.0789904072880745,-0.1657172441482544,0.3582669198513031,0.13016194105148315
24.0,0.04640047252178192,-0.20002929866313934,0.39217206835746765,0.09600163996219635
25.0,0.06704209744930267,-0.18333886563777924,0.37784603238105774,0.11068035662174225
26.0,0.06082722544670105,-0.1919945478439331,0.3872806429862976,0.10332132875919342
27.0,0.06323849409818649,-0.1918867975473404,0.38834908604621887,0.10554508864879608
28.0,0.08176460862159729,-0.17235606908798218,0.36868584156036377,0.12816573679447174
29.0,0.08542831242084503,-0.16856957972049713,0.3650737404823303,0.13783715665340424
30.0,0.09496426582336426,-0.16020643711090088,0.3580382764339447,0.1554475575685501
31.0,0.06046053022146225,-0.1993844360113144,0.39863619208335876,0.11734350770711899
32.0,0.07001720368862152,-0.19406923651695251,0.39535287022590637,0.12484493106603622
33.0,0.09141065180301666,-0.17470553517341614,0.37677788734436035,0.1425454169511795
34.0,0.08298179507255554,-0.18616603314876556,0.38968998193740845,0.12854556739330292
35.0,0.08418455719947815,-0.18562227487564087,0.38958993554115295,0.1314968317747116
36.0,0.10012274235486984,-0.17046646773815155,0.37536218762397766,0.14510111510753632
37.0,0.09321936219930649,-0.17954549193382263,0.38567349314689636,0.1350085735321045
38.0,0.1001460999250412,-0.17239873111248016,0.3786027133464813,0.14591671526432037
39.0,0.1036735251545906,-0.16886600852012634,0.37522757053375244,0.15212483704090118
40.0,0.11176939308643341,-0.16171894967556,0.3688924312591553,0.16454099118709564
41.0,0.10720358043909073,-0.16764700412750244,0.3756932318210602,0.16102033853530884
42.0,0.10497647523880005,-0.1728612184524536,0.3826722800731659,0.1534353494644165
43.0,0.10356441140174866,-0.17570005357265472,0.38645118474960327,0.15602020919322968
44.0,0.1293809562921524,-0.15066900849342346,0.3622744083404541,0.18463386595249176
45.0,0.1225871592760086,-0.15932698547840118,0.37227195501327515,0.1804887056350708
46.0,0.11125072091817856,-0.17247836291790009,0.3865722417831421,0.16974467039108276
47.0,0.10666456073522568,-0.17759034037590027,0.39197036623954773,0.1658758670091629
48.0,0.09074192494153976,-0.19310876727104187,0.40707987546920776,0.15569555759429932
49.0,0.07000789791345596,-0.21003185212612152,0.42185109853744507,0.14217524230480194
50.0,0.0883421078324318,-0.19807806611061096,0.41305601596832275,0.152454674243927
51.0,0.055761728435754776,-0.22880080342292786,0.442009299993515,0.12231799960136414
52.0,0.05568651482462883,-0.23218555748462677,0.44631922245025635,0.11613752692937851
53.0,0.07613389939069748,-0.2158360779285431,0.43238088488578796,0.1299668848514557
54.0,0.07823622226715088,-0.21433787047863007,0.43133029341697693,0.13465410470962524
55.0,0.07376256585121155,-0.2202955037355423,0.43813756108283997,0.130845844745636
56.0,0.10133969038724899,-0.1904950886964798,0.4080010652542114,0.16037783026695251
57.0,0.10644178092479706,-0.18446026742458344,0.40162456035614014,0.17953112721443176
58.0,0.09911438822746277,-0.19471146166324615,0.41365790367126465,0.1727561503648758
59.0,0.09600171446800232,-0.1993829607963562,0.41920238733291626,0.17635148763656616
60.0,0.10107733309268951,-0.19589796662330627,0.4168604612350464,0.181232750415802
61.0,0.08258931338787079,-0.21692940592765808,0.43889784812927246,0.155391663312912
62.0,0.02644745074212551,-0.26905256509780884,0.4877319633960724,0.10888265073299408
63.0,0.029967840760946274,-0.2705858051776886,0.4902569353580475,0.1044628918170929
64.0,0.056631900370121,-0.24983350932598114,0.4727715849876404,0.12069161981344223
65.0,0.05815328657627106,-0.2494620531797409,0.4731609523296356,0.12156622111797333
66.0,0.05728905647993088,-0.2513381838798523,0.47559964656829834,0.11948635429143906
67.0,0.0841343104839325,-0.21968978643417358,0.4424417316913605,0.14923487603664398
68.0,0.06785884499549866,-0.2417905628681183,0.4674307703971863,0.12637688219547272
69.0,0.09730643033981323,-0.20863458514213562,0.4332837164402008,0.16203667223453522
70.0,0.09394092112779617,-0.21399424970149994,0.44004395604133606,0.15840643644332886
71.0,0.09362105280160904,-0.2150517702102661,0.44167545437812805,0.15831142663955688
72.0,0.10222525149583817,-0.2065339833498001,0.4337467551231384,0.1677102893590927
73.0,0.08917152136564255,-0.22208259999752045,0.4503343105316162,0.16333326697349548
74.0,0.10654246807098389,-0.2035929262638092,0.4319498538970947,0.18446137011051178
75.0,0.09006219357252121,-0.22266317903995514,0.4520202577114105,0.1656794250011444
76.0,0.07970813661813736,-0.23458623886108398,0.4642237722873688,0.1538139432668686
77.0,0.03827255219221115,-0.27114418148994446,0.4982764720916748,0.1171136349439621
78.0,0.03737590089440346,-0.2743638753890991,0.5015487670898438,0.11152312904596329
79.0,0.06546439975500107,-0.2536301612854004,0.4850535988807678,0.1318589746952057
80.0,0.05813911557197571,-0.2636430263519287,0.49607473611831665,0.11602950841188431
81.0,0.06557811796665192,-0.2573706805706024,0.4906368851661682,0.11843001842498779
82.0,0.08308815956115723,-0.23945702612400055,0.47319495677948,0.13966992497444153
83.0,0.09851603955030441,-0.22359371185302734,0.4574328660964966,0.15601156651973724
84.0,0.09411454200744629,-0.22989502549171448,0.46504345536231995,0.1466749608516693
85.0,0.09431879222393036,-0.23076006770133972,0.466721773147583,0.14691193401813507
86.0,0.09290146082639694,-0.2328893393278122,0.4693349599838257,0.14306195080280304
87.0,0.07854066044092178,-0.24917617440223694,0.48634371161460876,0.12399408966302872
88.0,0.0974944531917572,-0.23009924590587616,0.46749165654182434,0.14298106729984283
89.0,0.09650630503892899,-0.2327476441860199,0.4712241291999817,0.14345890283584595
90.0,0.09128493815660477,-0.2396678626537323,0.47920143604278564,0.13883496820926666
91.0,0.11091136187314987,-0.21888065338134766,0.45803776383399963,0.16524642705917358
92.0,0.12037962675094604,-0.20887066423892975,0.44793781638145447,0.17625099420547485
93.0,0.06557075679302216,-0.2684815227985382,0.50928795337677,0.11526389420032501
94.0,0.07953167706727982,-0.2580450773239136,0.5009560585021973,0.12164122611284256
95.0,0.099146768450737,-0.23791299760341644,0.4815712869167328,0.14196550846099854
96.0,0.11643395572900772,-0.21693649888038635,0.4589734971523285,0.1633400321006775
97.0,0.11454706639051437,-0.22004032135009766,0.46297335624694824,0.16218282282352448
98.0,0.13186928629875183,-0.19761720299720764,0.4378806948661804,0.18713024258613586
99.0,0.11693721264600754,-0.21824444830417633,0.4619254767894745,0.17226360738277435
100.0,0.11214637756347656,-0.22495673596858978,0.469702810049057,0.1656683385372162
