epoch,scaling,scale,wavelength,sigma
0.0,0.10000000149011612,0.10000000149011612,0.10000000149011612,0.33000001311302185
1.0,0.18324801325798035,0.0035536945797502995,0.1950971782207489,0.21750347316265106
2.0,0.13013912737369537,-0.05549296364188194,0.24748489260673523,0.15401621162891388
3.0,0.10278350114822388,-0.07854373008012772,0.26740333437919617,0.1218726709485054
4.0,0.08802835643291473,-0.0940375104546547,0.2821224629878998,0.10265062004327774
5.0,0.08320711553096771,-0.10250794142484665,0.29138725996017456,0.09034227579832077
6.0,0.07310374826192856,-0.11530916392803192,0.3051985204219818,0.08097347617149353
7.0,0.05790718272328377,-0.12752802670001984,0.31567052006721497,0.06878653913736343
8.0,0.10082370042800903,-0.09206002205610275,0.2843896746635437,0.1044541746377945
9.0,0.09949278086423874,-0.09421451389789581,0.2870368957519531,0.1021491065621376
10.0,0.09120213240385056,-0.10534904897212982,0.2996163070201874,0.09194869548082352
11.0,0.09407725185155869,-0.10240968316793442,0.2967321276664734,0.09415847808122635
12.0,0.1027798056602478,-0.09281450510025024,0.28694459795951843,0.10504159331321716
13.0,0.07720965892076492,-0.12425538152456284,0.32055437564849854,0.07418965548276901
14.0,0.07769163697957993,-0.12406627833843231,0.32048606872558594,0.073822982609272
15.0,0.06409820169210434,-0.13820402324199677,0.3344668745994568,0.05961296707391739
16.0,0.07705733925104141,-0.1283131241798401,0.32597434520721436,0.06844193488359451
17.0,0.07659873366355896,-0.12882554531097412,0.32649487257003784,0.06752535700798035
18.0,0.07666978240013123,-0.12914156913757324,0.32696303725242615,0.06679607927799225
19.0,0.06962624192237854,-0.13654355704784393,0.3344607651233673,0.060993731021881104
20.0,0.06672975420951843,-0.13924114406108856,0.3369840681552887,0.05789073184132576
21.0,0.06830136477947235,-0.13856354355812073,0.33664757013320923,0.05772947520017624
22.0,0.08176206052303314,-0.12854009866714478,0.32837367057800293,0.06891636550426483
23.0,0.06887156516313553,-0.14100207388401031,0.34035345911979675,0.05557683855295181
24.0,0.0803980901837349,-0.13084180653095245,0.3310096859931946,0.0662040039896965
25.0,0.07632894814014435,-0.13805341720581055,0.3394911587238312,0.057775091379880905
26.0,0.08130627870559692,-0.13358575105667114,0.3353404700756073,0.0620604045689106
27.0,0.09016813337802887,-0.12636497616767883,0.3290174901485443,0.07038327306509018
28.0,0.09596575796604156,-0.1212887391448021,0.3245277404785156,0.07362286746501923
29.0,0.09992238879203796,-0.11826805770397186,0.3221849501132965,0.07733195275068283
30.0,0.11127884685993195,-0.10760390013456345,0.312093585729599,0.08187834918498993
31.0,0.11829955875873566,-0.10142063349485397,0.30669310688972473,0.08828577399253845
32.0,0.10004206746816635,-0.12349241971969604,0.33036327362060547,0.06643073260784149
33.0,0.10443872213363647,-0.12099752575159073,0.32887598872184753,0.07007138431072235
34.0,0.0939767062664032,-0.13290418684482574,0.3416859805583954,0.059870071709156036
35.0,0.1014576256275177,-0.12771247327327728,0.3374147117137909,0.06511085480451584
36.0,0.1067407950758934,-0.12397117167711258,0.3343154788017273,0.06810005009174347
37.0,0.11019060760736465,-0.12167497724294662,0.33252188563346863,0.0707687959074974
38.0,0.10670406371355057,-0.12457618117332458,0.33513838052749634,0.0680311843752861
39.0,0.10730993002653122,-0.12416068464517593,0.33480653166770935,0.06923779100179672
40.0,0.10854776203632355,-0.12351062893867493,0.3344002664089203,0.07058883458375931
41.0,0.09543381631374359,-0.1343310922384262,0.3440627157688141,0.0591672919690609
42.0,0.09125170856714249,-0.13760200142860413,0.34688684344291687,0.05557018890976906
43.0,0.09634211659431458,-0.13401035964488983,0.3439534604549408,0.05917999893426895
44.0,0.12547090649604797,-0.10889670252799988,0.3210895359516144,0.08427756279706955
45.0,0.16844315826892853,-0.0632251724600792,0.2747182846069336,0.12734904885292053
46.0,0.1688154637813568,-0.06299945712089539,0.2746213972568512,0.12609662115573883
47.0,0.16862449049949646,-0.06367047876119614,0.2755885720252991,0.1256905347108841
48.0,0.16297541558742523,-0.07265503704547882,0.28617024421691895,0.1156730055809021
49.0,0.1734417825937271,-0.060911793261766434,0.2741415202617645,0.13069431483745575
50.0,0.16370345652103424,-0.0778910219669342,0.29374170303344727,0.112910695374012
51.0,0.1618889570236206,-0.0799497440457344,0.2958572208881378,0.111455999314785
52.0,0.15852268040180206,-0.0831841453909874,0.2989669740200043,0.10799841582775116
53.0,0.1589444875717163,-0.08279969543218613,0.2986060082912445,0.10834526270627975
54.0,0.1589125692844391,-0.08282911777496338,0.29863402247428894,0.10831651836633682
55.0,0.1589142084121704,-0.08282768726348877,0.29863253235816956,0.10831985622644424
56.0,0.15890590846538544,-0.08283539116382599,0.29863953590393066,0.10831388086080551
57.0,0.15892097353935242,-0.08282160758972168,0.29862627387046814,0.10832720249891281
58.0,0.15890608727931976,-0.08283519744873047,0.29863929748535156,0.10831626504659653
59.0,0.1588718146085739,-0.0828668475151062,0.2986690104007721,0.10828950256109238
60.0,0.1588657945394516,-0.08287244290113449,0.2986743152141571,0.10828161984682083
61.0,0.1588640809059143,-0.08287407457828522,0.2986755073070526,0.10828199237585068
62.0,0.15886357426643372,-0.08287452161312103,0.29867568612098694,0.10828248411417007
63.0,0.15886346995830536,-0.08287475258111954,0.29867592453956604,0.10828308016061783
64.0,0.1589026302099228,-0.08283859491348267,0.2986421287059784,0.10831649601459503
65.0,0.15883958339691162,-0.08289670199155807,0.2986966669559479,0.10826775431632996
66.0,0.15885962545871735,-0.0828784704208374,0.29867956042289734,0.10828491300344467
67.0,0.15884624421596527,-0.08289087563753128,0.29869118332862854,0.10827172547578812
68.0,0.15885695815086365,-0.08288097381591797,0.2986818552017212,0.10828112810850143
69.0,0.15885528922080994,-0.08288261294364929,0.29868370294570923,0.10827962309122086
70.0,0.1588563770055771,-0.08288170397281647,0.29868289828300476,0.10827893018722534
71.0,0.15885485708713531,-0.08288315683603287,0.2986840009689331,0.10827777534723282
72.0,0.15885765850543976,-0.0828806534409523,0.2986815571784973,0.10828167200088501
73.0,0.1587674468755722,-0.08296354115009308,0.2987598478794098,0.10820337384939194
74.0,0.15866731107234955,-0.08305546641349792,0.29884663224220276,0.10810786485671997
75.0,0.1588628590106964,-0.08287602663040161,0.2986774146556854,0.10827917605638504
76.0,0.15884609520435333,-0.08289157599210739,0.29869183897972107,0.10826641321182251
77.0,0.15885859727859497,-0.0828801617026329,0.2986813485622406,0.1082782968878746
78.0,0.1588633805513382,-0.08287577331066132,0.2986772656440735,0.10828407853841782
79.0,0.15884704887866974,-0.08289069682359695,0.2986912131309509,0.10827261209487915
80.0,0.15884681046009064,-0.08289089053869247,0.2986915111541748,0.10827449709177017
81.0,0.1588548719882965,-0.08288349211215973,0.2986844480037689,0.10828337073326111
82.0,0.15885208547115326,-0.08288611471652985,0.2986866235733032,0.10828351229429245
83.0,0.15886364877223969,-0.0828755795955658,0.2986765503883362,0.1082952544093132
84.0,0.15886084735393524,-0.08287817984819412,0.29867905378341675,0.10828953236341476
85.0,0.15873825550079346,-0.08299095928668976,0.2987852394580841,0.10818299651145935
86.0,0.15873144567012787,-0.08299736678600311,0.2987911105155945,0.10817945003509521
87.0,0.15793001651763916,-0.08373256027698517,0.2994834780693054,0.10752079635858536
88.0,0.15793579816818237,-0.08372735232114792,0.2994782030582428,0.1075219064950943
89.0,0.15795408189296722,-0.08371114730834961,0.29946306347846985,0.10752086341381073
90.0,0.15797056257724762,-0.08369635790586472,0.2994493544101715,0.10751847922801971
91.0,0.1579771786928177,-0.08369038999080658,0.2994438409805298,0.10751424729824066
92.0,0.15788337588310242,-0.08377575874328613,0.29952380061149597,0.1074276715517044
93.0,0.15784962475299835,-0.0838065892457962,0.2995527982711792,0.10739748924970627
94.0,0.157820925116539,-0.08383288979530334,0.29957738518714905,0.10736631602048874
95.0,0.15782013535499573,-0.083833709359169,0.29957836866378784,0.10737092047929764
96.0,0.15808817744255066,-0.08358915895223618,0.2993491291999817,0.10761464387178421
97.0,0.15799769759178162,-0.08367215842008591,0.2994270622730255,0.10751103609800339
98.0,0.157863050699234,-0.08379566669464111,0.299543172121048,0.10738062858581543
99.0,0.15782763063907623,-0.08382856100797653,0.29957422614097595,0.10732630640268326
100.0,0.15855099260807037,-0.08316284418106079,0.2989484667778015,0.10793592780828476
