Model,Level,Test,Test_acc,Test_loss
mnist-10-A1C.h5,1.0,A1C,0.9746,3.030072602947832
mnist-100-A1C.h5,1.0,A1C,0.9843,0.1278152337439264
mnist-30-A1C.h5,1.0,A1C,0.9811,0.7423974466628006
mnist-70-A1C.h5,1.0,A1C,0.9853,0.19769971967728975
mnist-10-A1M6.h5,1.0,A1M6,0.9585,0.132056739417058
mnist-100-A1M6.h5,1.0,A1M6,0.9474,0.17544452515961248
mnist-30-A1M6.h5,1.0,A1M6,0.9738,0.08302855483385958
mnist-70-A1M6.h5,1.0,A1M6,0.9812,0.07558786337369983
mnist-10-A2C.h5,1.0,A2C,0.9851,1.1472365785877063
mnist-100-A2C.h5,1.0,A2C,0.9877,0.09889492575775026
mnist-30-A2C.h5,1.0,A2C,0.9859,0.50779680429935
mnist-70-A2C.h5,1.0,A2C,0.9888,0.12923995899679555
mnist-10-A2M6.h5,1.0,A2M6,0.9872,0.11645540525539874
mnist-100-A2M6.h5,1.0,A2M6,0.9859,0.10159027117492482
mnist-30-A2M6.h5,1.0,A2M6,0.9841,0.16145052952437186
mnist-70-A2M6.h5,1.0,A2M6,0.9869,0.11619000138627841
mnist-10-A1C.h5,0.7,A1C,0.9753,2.0346010145672317
mnist-100-A1C.h5,0.7,A1C,0.984,0.08843011788149287
mnist-30-A1C.h5,0.7,A1C,0.982,0.4656010268167257
mnist-70-A1C.h5,0.7,A1C,0.985,0.12336719326148358
mnist-10-A1M6.h5,0.7,A1M6,0.9571,0.13401735838078246
mnist-100-A1M6.h5,0.7,A1M6,0.9471,0.1723361212430121
mnist-30-A1M6.h5,0.7,A1M6,0.9756,0.07716109933732432
mnist-70-A1M6.h5,0.7,A1M6,0.9814,0.07261971101942885
mnist-10-A2C.h5,0.7,A2C,0.9859,0.8006437980082732
mnist-100-A2C.h5,0.7,A2C,0.9878,0.07314000028984796
mnist-30-A2C.h5,0.7,A2C,0.9872,0.32170699647531115
mnist-70-A2C.h5,0.7,A2C,0.9888,0.09216174139467045
mnist-10-A2M6.h5,0.7,A2M6,0.9867,0.1188428368677288
mnist-100-A2M6.h5,0.7,A2M6,0.9859,0.10342603741907014
mnist-30-A2M6.h5,0.7,A2M6,0.9848,0.16292869100710675
mnist-70-A2M6.h5,0.7,A2M6,0.9871,0.11753041999896376
mnist-10-A1C.h5,0.3,A1C,0.9791,0.7051563046078155
mnist-100-A1C.h5,0.3,A1C,0.9211,0.2586478605111943
mnist-30-A1C.h5,0.3,A1C,0.9843,0.15745039549948517
mnist-70-A1C.h5,0.3,A1C,0.9785,0.06696650130037643
mnist-10-A1M6.h5,0.3,A1M6,0.9626,0.12082238401038738
mnist-100-A1M6.h5,0.3,A1M6,0.9266,0.23261410983491548
mnist-30-A1M6.h5,0.3,A1M6,0.9767,0.07245520886646796
mnist-70-A1M6.h5,0.3,A1M6,0.9811,0.07747997561339996
mnist-10-A2C.h5,0.3,A2C,0.9866,0.33357865839565576
mnist-100-A2C.h5,0.3,A2C,0.9845,0.053389430093237114
mnist-30-A2C.h5,0.3,A2C,0.9891,0.11930015330652687
mnist-70-A2C.h5,0.3,A2C,0.975,0.1004149118836975
mnist-10-A2M6.h5,0.3,A2M6,0.9878,0.12597581768193025
mnist-100-A2M6.h5,0.3,A2M6,0.985,0.10622921482826699
mnist-30-A2M6.h5,0.3,A2M6,0.9848,0.16425766519059773
mnist-70-A2M6.h5,0.3,A2M6,0.9866,0.11897672996291522
mnist-10-A1C.h5,0.1,A1C,0.9827,0.17165418871207114
mnist-100-A1C.h5,0.1,A1C,0.3519,2.0273709538616713
mnist-30-A1C.h5,0.1,A1C,0.9182,0.3673261918976337
mnist-70-A1C.h5,0.1,A1C,0.1809,2.6026186098026325
mnist-10-A1M6.h5,0.1,A1M6,0.9637,0.11461647411313237
mnist-100-A1M6.h5,0.1,A1M6,0.9035,0.29593428606285327
mnist-30-A1M6.h5,0.1,A1M6,0.9702,0.0951701700510575
mnist-70-A1M6.h5,0.1,A1M6,0.9747,0.0968186549040713
mnist-10-A2C.h5,0.1,A2C,0.9882,0.12049529254123265
mnist-100-A2C.h5,0.1,A2C,0.8048,0.7254390203500096
mnist-30-A2C.h5,0.1,A2C,0.9326,0.2450748188774797
mnist-70-A2C.h5,0.1,A2C,0.4756,3.1497043175033377
mnist-10-A2M6.h5,0.1,A2M6,0.9871,0.13673405145376835
mnist-100-A2M6.h5,0.1,A2M6,0.9811,0.12019072981251779
mnist-30-A2M6.h5,0.1,A2M6,0.9837,0.16655043838815076
mnist-70-A2M6.h5,0.1,A2M6,0.9829,0.1301380554729884
