acc,loss,val_acc,val_loss
0.5008291006088257,1.938606612352747,0.514613151550293,0.6907887756824493
0.515629768371582,0.7131179032026751,0.499426931142807,0.7044714859553746
0.5260701179504395,0.7009708016354922,0.5882521271705627,0.6813162288495472
0.5952834486961365,0.6706640315694246,0.6148996949195862,0.661888097013746
0.643861711025238,0.6390226297297862,0.6025788187980652,0.6631349112306323
0.6947736740112305,0.589043491399018,0.6169054508209229,0.6670951864549092
0.7505987882614136,0.5182075634811959,0.5922636389732361,0.723361781665257
0.7977645397186279,0.44595924015741184,0.6174784898757935,0.706829017826489
0.8247866034507751,0.3969400929853202,0.5974212288856506,0.7628170273133686
0.8494135141372681,0.3532507690978945,0.6083094477653503,0.7925141411168235
0.8561689853668213,0.33564170405542293,0.5670487284660339,1.0233099865061897
0.84222811460495,0.3526798877390349,0.5719197988510132,0.9928969315120152
0.8678376078605652,0.30884219861139756,0.6011461615562439,1.0878782229764121
0.8693729639053345,0.30325034747602225,0.606876790523529,0.9287999932255063
0.8877971172332764,0.27250716408257886,0.5825214982032776,1.0948294869491033
0.9025363922119141,0.23847749333185575,0.6094555854797363,1.0236415501151765
0.9355155825614929,0.17404764898987077,0.5868194699287415,1.3141721614769526
0.9256893396377563,0.19481999885837883,0.5641833543777466,1.35133472936494
0.8903764486312866,0.2728925627876886,0.5845271944999695,0.9985788358109338
0.8868758678436279,0.2726817311596546,0.5936962962150574,0.959579348564148
0.8868144750595093,0.2670373611464691,0.5530086159706116,1.0098103838307517
0.9115642309188843,0.22783162779655364,0.5859599113464355,1.0249763237578529
0.9108272194862366,0.2236572717334351,0.5618911385536194,1.0709394152675356
0.9269176721572876,0.18768706661867823,0.5727793574333191,1.099491270525115
0.9540011286735535,0.1350046863169373,0.5765042901039124,1.2173346706799097
0.9453417658805847,0.15065448755641017,0.5724928379058838,1.1993848426001412
0.9586685299873352,0.12429469508916068,0.5713467001914978,1.2081553041934967
0.8864459991455078,0.26622851330095787,0.5696275234222412,1.1530147237437112
0.9325677156448364,0.18098615340420407,0.5644699335098267,1.2034613532679421
0.9596511721611023,0.11806666626984065,0.5567335486412048,1.1510070988110133
0.9571946263313293,0.12218714935525127,0.5518624782562256,1.2793614779199873
0.969907283782959,0.08672549578106749,0.5521489977836609,1.4928363519055503
0.9810845851898193,0.06421032817229544,0.5673352479934692,1.8514832385948725
0.9834796786308289,0.05628072521914405,0.5581662058830261,2.1255025267601013
0.9771540760993958,0.07374825595462192,0.5607450008392334,2.314121459211622
0.906712532043457,0.2178523568600656,0.5888252258300781,1.8003241121768951
0.9733464121818542,0.07843869584429235,0.5699140429496765,2.731771068913596
0.9458944797515869,0.1341885141981288,0.5848137736320496,2.796284718172891
0.9845237135887146,0.050122761038358624,0.5810888409614563,2.7190170117786954
0.9706442356109619,0.08143014339683814,0.5739254951477051,2.5024866546903337
0.9670822620391846,0.09186148650101221,0.5727793574333191,2.213146827050618
0.9783823490142822,0.06299939226163918,0.5532951354980469,2.302876706634249
0.9894982576370239,0.03309833150873374,0.5424068570137024,1.9537555490221297
0.986181914806366,0.04468453770545384,0.5595988631248474,1.2900769689253397
0.9839709997177124,0.04615056278928005,0.5724928379058838,2.8175655944006786
0.9917091727256775,0.026524346613692434,0.5435529947280884,4.520365757601602
0.9586071372032166,0.11862440964693777,0.5710601806640625,2.4354007244110107
0.9944727420806885,0.019932653321103562,0.5561604499816895,3.0096049393926347
0.9984646439552307,0.008541951231559123,0.5627506971359253,2.9829637237957547
0.999140202999115,0.004463016175525146,0.563610315322876,2.7355003527232578
0.9992630481719971,0.0038924403436319545,0.564756453037262,3.080358053956713
0.9985874891281128,0.006035195593170223,0.5704870820045471,3.161571672984532
0.9984646439552307,0.0050873645122707445,0.564756453037262,2.3805199691227505
0.9996315240859985,0.002973714349706829,0.5830945372581482,3.649034219128745
1.0,0.0009147265799965353,0.5810888409614563,3.779073945113591
1.0,0.0005705246680558777,0.5839541554450989,4.039014731134687
1.0,0.0005642892865196221,0.5819483995437622,4.150742615972247
1.0,0.00034038080184827755,0.5830945372581482,4.22869655915669
1.0,0.00029835846080734674,0.5836676359176636,4.285494131701333
1.0,0.00024140588628984242,0.5851002931594849,4.279143188680921
1.0,0.00020740541584992955,0.5851002931594849,4.338377944060734
1.0,0.00018445074901293564,0.5859599113464355,4.335192612239292
1.0,0.0001669513657449537,0.5839541554450989,4.459712045533316
1.0,0.00014511840365625576,0.5871059894561768,4.620330401829311
1.0,0.00012287230415615656,0.5859599113464355,4.929036481039865
1.0,0.00011029200396097598,0.5848137736320496,5.068613018308367
1.0,9.398240164375381e-05,0.5862464308738708,5.258445722716195
1.0,8.434957352011577e-05,0.5871059894561768,5.337665438652039
1.0,8.310878526181711e-05,0.5836676359176636,5.427668912070138
1.0,6.952526666274055e-05,0.5828080177307129,5.683545674596514
1.0,5.805875881272304e-05,0.5848137736320496,6.067296300615583
1.0,6.749426430624222e-05,0.5842406749725342,5.7041346515928
1.0,3.7127148475351384e-05,0.5842406749725342,5.756096124649048
1.0,2.483611463784211e-05,0.5848137736320496,5.598894204412188
1.0,2.2269107662206352e-05,0.5853868126869202,5.545971921512058
1.0,1.8934124010181222e-05,0.5848137736320496,5.53125126021249
1.0,1.3443465740773288e-05,0.5819483995437622,5.505782416888645
1.0,9.985406307179365e-06,0.5816618800163269,5.514599016734532
1.0,8.07728503688993e-06,0.5825214982032776,5.549754108701434
1.0,7.054921747814801e-06,0.5828080177307129,5.577660816056388
1.0,6.303940951354033e-06,0.5828080177307129,5.604503222874233
1.0,5.698158570781546e-06,0.5828080177307129,5.635111229760306
1.0,5.201448699425692e-06,0.5828080177307129,5.6645240272794455
1.0,4.773004771128849e-06,0.5830945372581482,5.691634927477155
1.0,4.398703708934727e-06,0.5830945372581482,5.718238387789045
1.0,4.059728334634347e-06,0.5825214982032776,5.748671020780291
1.0,3.7618049300560783e-06,0.5828080177307129,5.773503865514483
1.0,3.489380169004167e-06,0.5828080177307129,5.8010819128581455
1.0,3.2431399998687202e-06,0.5830945372581482,5.826475773538862
1.0,3.015873555941218e-06,0.5842406749725342,5.8509997980935236
1.0,2.806636462549072e-06,0.5842406749725342,5.877533503941128
1.0,2.6126000705079778e-06,0.5848137736320496,5.9032586472375055
1.0,2.4323103460813516e-06,0.5845271944999695,5.928795184407916
1.0,2.268281024963465e-06,0.5845271944999695,5.953014118330819
1.0,2.1168983609937683e-06,0.5842406749725342,5.978559221540179
1.0,1.9757617907122364e-06,0.5842406749725342,6.002819691385541
1.0,1.8460902233251827e-06,0.5845271944999695,6.02905992099217
1.0,1.7239754234277229e-06,0.5845271944999695,6.054376057216099
1.0,1.6085397416225351e-06,0.5845271944999695,6.079751031739371
1.0,1.5040528683407987e-06,0.5848137736320496,6.1047881330762594
