acc,loss,val_acc,val_loss
0.4954860806465149,8.081558564162727,0.499426931142807,3.0428208708763123
0.5122520327568054,1.3555099547022809,0.644412636756897,0.6650080936295646
0.5322729349136353,0.8019517077052871,0.5040114521980286,0.7045128792524338
0.5303077101707458,0.7858938422768544,0.6587392687797546,0.6472892420632499
0.5531535744667053,0.72419046906137,0.6008595824241638,0.6444344584430967
0.5282196402549744,0.8542322524055278,0.5661891102790833,0.6626779841525214
0.5571454763412476,0.712437458942631,0.504584550857544,0.7512136378458568
0.5709635615348816,0.6913613117510626,0.6252148747444153,0.6510418802499771
0.5932567715644836,0.6666785660374555,0.5232091546058655,0.8023570201226643
0.5771049857139587,0.6763155594406802,0.606876790523529,0.6456940684999738
0.6030215620994568,0.6717198102383285,0.5684813857078552,0.6706563234329224
0.5758766531944275,0.6761097631539099,0.6647564172744751,0.6453052035399846
0.5882208347320557,0.6625659778144051,0.6636103391647339,0.6346468840326581
0.6151200532913208,0.6473199612150056,0.6504297852516174,0.6337135859898159
0.624884843826294,0.6408344888755952,0.5598853826522827,0.7159168698957988
0.6104525923728943,0.656959888273702,0.6656160354614258,0.6272073749985013
0.6272799968719482,0.6471887310819397,0.6329512596130371,0.6328764983585903
0.6059694290161133,0.6496630739149544,0.6673352718353271,0.6151641543422427
0.597371518611908,0.6629753198047048,0.6684813499450684,0.6122327851397651
0.5352208018302917,0.6810270889651854,0.499426931142807,0.6932067658220019
0.5011975765228271,0.6931854292786049,0.499426931142807,0.693200443472181
0.5013204216957092,0.693183950945778,0.499426931142807,0.6931993663311005
0.501811683177948,0.6931843654145804,0.499426931142807,0.6931993748460498
0.5010747313499451,0.6931854303328416,0.499426931142807,0.6931997750486646
0.5013204216957092,0.6931851485953799,0.499426931142807,0.693199594105993
0.5010747313499451,0.6931857021172831,0.499426931142807,0.6931996920279094
0.5002149343490601,0.6931873828159871,0.499426931142807,0.6932004243135452
0.4996007978916168,0.6931892037757718,0.499426931142807,0.6932013375418526
0.49923232197761536,0.6931911181453287,0.499426931142807,0.6932022933449064
0.4998464584350586,0.6931930886383527,0.499426931142807,0.6932034151894706
0.4998464584350586,0.6931950993497783,0.499426931142807,0.6932045540639332
0.4980040490627289,0.6931971201203799,0.499426931142807,0.6932057440280914
0.4980040490627289,0.6931991416779987,0.499426931142807,0.6932069339922496
0.4980040490627289,0.6932011436297414,0.499426931142807,0.6932081452437809
0.4980040490627289,0.6932021469227374,0.499426931142807,0.693208594407354
0.4966529607772827,0.6932034789069985,0.499426931142807,0.6932097311530795
0.4966529607772827,0.6932052935889493,0.499426931142807,0.6932109126022884
0.4966529607772827,0.6932070342656736,0.499426931142807,0.6932121770722526
0.4966529607772827,0.6932086939162473,0.499426931142807,0.6932079579148974
0.4966529607772827,0.6932055484872994,0.499426931142807,0.6932109636919839
0.4966529607772827,0.6932068046946304,0.499426931142807,0.6932120387043271
0.4966529607772827,0.6932081077605905,0.499426931142807,0.693212954061372
0.4966529607772827,0.6932093078224912,0.499426931142807,0.6932137438229152
0.4966529607772827,0.6932104234246506,0.499426931142807,0.6932146144764764
0.4966529607772827,0.693211445419368,0.499426931142807,0.6932153957230704
0.4966529607772827,0.6932116731162125,0.499426931142807,0.6932152105229241
0.4966529607772827,0.6932120838109935,0.499426931142807,0.6932157427072525
0.4966529607772827,0.693212843081117,0.499426931142807,0.6932163919721331
0.4966529607772827,0.6932135353266721,0.499426931142807,0.693216819848333
0.4966529607772827,0.6932131082436336,0.499426931142807,0.6932161407811301
0.4966529607772827,0.6932130646538707,0.499426931142807,0.6932163919721331
0.4966529607772827,0.6932135477359176,0.499426931142807,0.6932167943034854
0.4966529607772827,0.6932122466063855,0.499426931142807,0.693215052996363
0.4966529607772827,0.693211597463741,0.499426931142807,0.6932151700769152
0.4966529607772827,0.6932119103707385,0.499426931142807,0.6932153808219093
0.4966529607772827,0.693212185079955,0.499426931142807,0.6932156320129123
0.4966529607772827,0.69321242279937,0.499426931142807,0.6932156490428107
0.4966529607772827,0.6932126112734811,0.499426931142807,0.6932157810245242
0.4966529607772827,0.6932127835716464,0.499426931142807,0.6932160343442645
0.4966529607772827,0.6932129164384271,0.499426931142807,0.6932160322155271
0.4966529607772827,0.6932130153243741,0.499426931142807,0.6932161045925957
0.4966529607772827,0.6932130923861551,0.499426931142807,0.6932161514248166
0.4966529607772827,0.6932131373413012,0.499426931142807,0.6932161556822913
0.4966529607772827,0.6932131788445538,0.499426931142807,0.6932162259306226
0.4966529607772827,0.6932131869087331,0.499426931142807,0.6932161769696644
0.4966529607772827,0.6932131781307477,0.499426931142807,0.6932161748409271
0.4966529607772827,0.6932121274300409,0.499426931142807,0.6932148869548526
0.4966529607772827,0.6932115016270275,0.499426931142807,0.6932147592306137
0.4966529607772827,0.6932114417295392,0.499426931142807,0.6932146804673331
0.4966529607772827,0.6932097244144094,0.499426931142807,0.6932128838130406
0.4966529607772827,0.69320867914229,0.499426931142807,0.6932126134634018
0.4966529607772827,0.6932085840303643,0.499426931142807,0.6932125240564346
0.4966529607772827,0.6932084807810485,0.499426931142807,0.6932124282632556
0.4966529607772827,0.6932083636729114,0.499426931142807,0.6932123473712376
0.4966529607772827,0.6932082470333241,0.499426931142807,0.693212228161948
0.4966529607772827,0.6932081105426042,0.499426931142807,0.6932121472699302
0.4966529607772827,0.6932079741507192,0.499426931142807,0.6932120131594794
0.4966529607772827,0.693207810681787,0.499426931142807,0.6932119024651391
0.4966529607772827,0.6932076391742994,0.499426931142807,0.693211766225951
0.4966529607772827,0.6932074716860895,0.499426931142807,0.6932116236005511
0.4975127577781677,0.6932046826184619,0.499426931142807,0.693208879658154
0.4975127577781677,0.6932029140666919,0.499426931142807,0.6932083389588765
0.4975127577781677,0.6932027114628794,0.499426931142807,0.6932082091059003
0.4975127577781677,0.693202506318649,0.499426931142807,0.693208077124187
0.4975127577781677,0.6932022959215375,0.499426931142807,0.6932079472712108
0.4975127577781677,0.6932020754140023,0.499426931142807,0.6932078110320228
0.4975127577781677,0.6932018563121161,0.499426931142807,0.6932076982089451
0.4975127577781677,0.6932016102320174,0.499426931142807,0.693207608801978
0.4980040490627289,0.6932013805511579,0.499426931142807,0.6932074172156197
0.4980040490627289,0.6932011398959861,0.499426931142807,0.6932072745902198
0.4980040490627289,0.69320089080692,0.499426931142807,0.6932070851325989
0.4980040490627289,0.6932006478089998,0.499426931142807,0.6932070233992168
0.4980040490627289,0.6932003864388072,0.499426931142807,0.6932068786450795
0.4980040490627289,0.6932001306912109,0.499426931142807,0.6932067509208407
0.4980040490627289,0.6931998851528729,0.499426931142807,0.6932066146816526
0.4980040490627289,0.6931996207737128,0.499426931142807,0.6932065103735242
0.4980040490627289,0.6931993767142347,0.499426931142807,0.6932063720055989
0.4980040490627289,0.6931991406201014,0.499426931142807,0.6932062272514615
0.4980040490627289,0.6931989108879941,0.499426931142807,0.6932061591318676
0.4980040490627289,0.6931986823638666,0.499426931142807,0.6932060250214168
