acc,loss,val_acc,val_loss
0.5020573735237122,0.7057627381698905,0.499426931142807,0.6931470228093011
0.5003377795219421,0.6932706133831574,0.499426931142807,0.6932188655648913
0.4986181855201721,0.6932398653298347,0.499426931142807,0.693180724978447
0.5002763867378235,0.693237541275807,0.499426931142807,0.6931208499840328
0.49696001410484314,0.6932577144299444,0.499426931142807,0.6931738193546023
0.5010133385658264,0.6932184808576224,0.499426931142807,0.6930624502045768
0.4996007978916168,0.6933001947404418,0.499426931142807,0.6931338735989162
0.4992937445640564,0.6931753445922073,0.499426931142807,0.6931141061442239
0.5029171705245972,0.6931755702025415,0.499426931142807,0.6931049206427166
0.49892526865005493,0.693169634428436,0.499426931142807,0.6931379373584475
0.5021187663078308,0.6934808534354123,0.499426931142807,0.6930659094027111
0.5019959211349487,0.6931881238822232,0.499426931142807,0.6930753482239587
0.500644862651825,0.6931595702337661,0.499426931142807,0.6931102062974658
0.5063562989234924,0.6931416640035396,0.499426931142807,0.6928728882755552
0.5015660524368286,0.6931494600150712,0.499426931142807,0.6930479002850396
0.500644862651825,0.693071487168382,0.499426931142807,0.6928412573678153
0.505987823009491,0.6932110082332269,0.499426931142807,0.6932725587061473
0.5069090723991394,0.6930950263798006,0.499426931142807,0.6926765527044024
0.5044524669647217,0.6930897754972165,0.4997134804725647,0.6932251432112285
0.49573174118995667,0.6932830280719676,0.499426931142807,0.693210203732763
0.4968985915184021,0.6932111851839441,0.499426931142807,0.6931879243680409
0.4976355731487274,0.6931920842691567,0.499426931142807,0.6931938316140857
0.5016274452209473,0.693184565679305,0.499426931142807,0.6931937038898468
0.4999693036079407,0.693181331401623,0.499426931142807,0.6931928672960826
0.50150465965271,0.6931790845667797,0.499426931142807,0.6931909386600766
0.5027329325675964,0.6931766460804728,0.499426931142807,0.6931912579706737
0.5032856464385986,0.6931754001812348,0.499426931142807,0.6931899785995483
0.5032856464385986,0.6931733424098502,0.499426931142807,0.6931884608098439
0.5032856464385986,0.6931713181617314,0.499426931142807,0.6931879328829902
0.5032856464385986,0.6931705774871736,0.499426931142807,0.6931870324271066
0.5032856464385986,0.6931697008966016,0.499426931142807,0.6931858509778976
0.5032856464385986,0.6931681764994837,0.499426931142807,0.6931801608630589
0.5032856464385986,0.6931653178705306,0.499426931142807,0.6931490983281817
0.5036541223526001,0.6933660329995193,0.499426931142807,0.6932082091059003
0.4966529607772827,0.6932061922965307,0.499426931142807,0.6931707433291844
0.5032856464385986,0.6931711974918846,0.499426931142807,0.6931881265980857
0.5032856464385986,0.6931715625726217,0.499426931142807,0.6931918156998498
0.5032856464385986,0.6931716293519335,0.499426931142807,0.6931926735809871
0.5032856464385986,0.6931716875619108,0.499426931142807,0.6931927864040647
0.5032856464385986,0.6931716515128694,0.499426931142807,0.6931926352637154
0.5032856464385986,0.6931714753235455,0.499426931142807,0.6931926927396229
0.5032856464385986,0.6931715977797379,0.499426931142807,0.6931930014065334
0.5032856464385986,0.6931716355931618,0.499426931142807,0.693193393094199
0.5032856464385986,0.6931716726049264,0.499426931142807,0.6931934058666229
0.5032856464385986,0.6931716867346278,0.499426931142807,0.6931933441332409
0.5032856464385986,0.693171701999098,0.499426931142807,0.6931934016091483
0.5032856464385986,0.6931717089285087,0.499426931142807,0.6931934505701065
0.5032856464385986,0.6931717172635683,0.499426931142807,0.6931934058666229
0.5032856464385986,0.6931717311223895,0.499426931142807,0.693193467600005
0.5032856464385986,0.6931717376820851,0.499426931142807,0.6931934633425304
0.5032856464385986,0.6931717395562838,0.499426931142807,0.6931934037378856
0.5032856464385986,0.693171747323959,0.499426931142807,0.6931934207677841
0.5032856464385986,0.6931717515409063,0.499426931142807,0.6931934484413692
0.5032856464385986,0.6931717590377012,0.499426931142807,0.6931934037378856
0.5032856464385986,0.6931717655973968,0.499426931142807,0.6931934016091483
0.5032856464385986,0.6931717645614627,0.499426931142807,0.6931934122528348
0.5032856464385986,0.693171770184059,0.499426931142807,0.6931934484413692
0.5032856464385986,0.6931717678413105,0.499426931142807,0.6931934718574796
0.5032856464385986,0.6931717725268074,0.499426931142807,0.6931934718574796
0.5032856464385986,0.6931717687784099,0.499426931142807,0.6931934718574796
0.5032856464385986,0.6931717767437545,0.499426931142807,0.6931934697287423
0.5032856464385986,0.693171788358662,0.499426931142807,0.6931934633425304
0.5032856464385986,0.693171778050569,0.499426931142807,0.6931933505194527
0.5032856464385986,0.6931717766449199,0.499426931142807,0.6931934548275811
0.5032856464385986,0.6931717836731651,0.499426931142807,0.6931934590850558
0.5032856464385986,0.6931717855473639,0.499426931142807,0.6931934910161155
0.5032856464385986,0.6931717777796886,0.499426931142807,0.6931934037378856
0.5032856464385986,0.6931717846102645,0.499426931142807,0.6931934505701065
0.5032856464385986,0.6931717911699601,0.499426931142807,0.6931934505701065
0.5032856464385986,0.6931717874215626,0.499426931142807,0.6931934697287423
0.5032856464385986,0.693171786953013,0.499426931142807,0.6931934697287423
0.5032856464385986,0.6931717874215626,0.499426931142807,0.6931934697287423
0.5032856464385986,0.6931717874215626,0.499426931142807,0.6931934697287423
0.5032856464385986,0.6931717921070595,0.499426931142807,0.6931934697287423
0.5032856464385986,0.6931717874215626,0.499426931142807,0.6931933952229363
0.5032856464385986,0.693171788358662,0.499426931142807,0.6931933952229363
0.5032856464385986,0.6931717855473639,0.499426931142807,0.6931933952229363
0.5032856464385986,0.6931717846102645,0.499426931142807,0.6931933952229363
0.5032856464385986,0.6931717874215626,0.499426931142807,0.693193467600005
0.5032856464385986,0.6931717860159136,0.499426931142807,0.693193467600005
0.5032856464385986,0.6931717930441589,0.499426931142807,0.693193467600005
0.5032856464385986,0.693171795855457,0.499426931142807,0.693193467600005
0.5032856464385986,0.6931717939812583,0.499426931142807,0.693193467600005
0.5032856464385986,0.6931717916385098,0.499426931142807,0.693193467600005
0.5032856464385986,0.6931717911699601,0.499426931142807,0.693193467600005
0.5032856464385986,0.6931717953869073,0.499426931142807,0.693193467600005
0.5032856464385986,0.6931717949183576,0.499426931142807,0.693193467600005
0.5032856464385986,0.6931717944498079,0.499426931142807,0.693193467600005
0.5032856464385986,0.693171795855457,0.499426931142807,0.693193467600005
0.5032856464385986,0.693171795855457,0.499426931142807,0.693193467600005
0.5032856464385986,0.6931717916385098,0.499426931142807,0.693193467600005
0.5032856464385986,0.6931717907014104,0.499426931142807,0.693193467600005
0.5032856464385986,0.693171789764311,0.499426931142807,0.693193467600005
0.5032856464385986,0.6931717921070595,0.499426931142807,0.693193467600005
0.5032856464385986,0.6931717921070595,0.499426931142807,0.693193467600005
0.5032856464385986,0.6931717902328608,0.499426931142807,0.693193467600005
0.5032856464385986,0.6931717907014104,0.499426931142807,0.693193467600005
0.5032856464385986,0.6931717888272116,0.499426931142807,0.693193467600005
0.5032856464385986,0.6931717921070595,0.499426931142807,0.693193467600005
0.5032856464385986,0.6931717907014104,0.499426931142807,0.693193467600005
