acc,loss,val_acc,val_loss
0.5557329654693604,1.7839144876568014,0.5670487284660339,0.6909757703542709
0.6301050186157227,0.6417324146928362,0.6461318135261536,0.6456502399274281
0.6777620911598206,0.5995885458781328,0.6553008556365967,0.6362172194889614
0.7234538793563843,0.5463560985832874,0.6647564172744751,0.6270796997206551
0.7726463079452515,0.4853525755510923,0.6713467240333557,0.6360671286072049
0.8263833522796631,0.40597047365257916,0.6699140667915344,0.7003874054976872
0.8784621953964233,0.3032956815968236,0.6309455633163452,0.7909318740878787
0.9057298898696899,0.2331105754850578,0.6441260576248169,0.8439301018204007
0.9174599051475525,0.20883711574935804,0.6515759229660034,1.0347482242754527
0.9404286742210388,0.15759356050270915,0.655587375164032,1.0119023621082306
0.9437450170516968,0.1496074802286775,0.6157593131065369,1.6662231939179557
0.9575017094612122,0.1122173755716523,0.6518624424934387,1.4796787798404694
0.9797948598861694,0.06255668671271479,0.6541547179222107,1.5341253280639648
0.9915863275527954,0.03171933259468005,0.6426934003829956,1.7496783350195204
0.9990173578262329,0.008837762561638514,0.6547278165817261,1.904934504202434
0.9996929168701172,0.0030759779787233495,0.6510028839111328,2.028156876564026
0.9998771548271179,0.001505447434070739,0.6521490216255188,2.178577014378139
1.0,0.0009310473051150813,0.6504297852516174,2.284088969230652
1.0,0.0006640225108108743,0.6484240889549255,2.380823586668287
1.0,0.0004752639573304191,0.6507163047790527,2.493783320699419
1.0,0.0003373958312261743,0.6515759229660034,2.6009912959166934
1.0,0.00024478155340971444,0.6530085802078247,2.7032701075077057
1.0,0.00018093837913495125,0.65329509973526,2.802506250994546
1.0,0.00013689458577718225,0.6535816788673401,2.896599041564124
1.0,0.00010594900922441825,0.6530085802078247,2.9851456710270474
1.0,8.38364987560832e-05,0.6535816788673401,3.067929199763707
1.0,6.756328618453187e-05,0.65329509973526,3.1466486113412038
1.0,5.539766903960486e-05,0.6530085802078247,3.2207145861216953
1.0,4.60368351542328e-05,0.65329509973526,3.2922495859009877
1.0,3.874811418011916e-05,0.65329509973526,3.359420563493456
1.0,3.294418186766925e-05,0.6527220606803894,3.4235056212970187
1.0,2.82526177735436e-05,0.6535816788673401,3.4846669350351607
1.0,2.4398972905269876e-05,0.6541547179222107,3.543164474623544
1.0,2.1216093238630844e-05,0.65329509973526,3.59913923059191
1.0,1.855437181193637e-05,0.65329509973526,3.652885300772531
1.0,1.6320341420778523e-05,0.6535816788673401,3.7049248473984853
1.0,1.4420425207121167e-05,0.6535816788673401,3.755618120942797
1.0,1.2788334279056797e-05,0.6535816788673401,3.804039810385023
1.0,1.1382670084910748e-05,0.6535816788673401,3.851712737764631
1.0,1.0168570194786547e-05,0.65329509973526,3.897913157939911
1.0,9.112310620649892e-06,0.6530085802078247,3.943102785519191
1.0,8.181857772093455e-06,0.6530085802078247,3.9869428873062134
1.0,7.36659183782238e-06,0.6524355411529541,4.0301207304000854
1.0,6.6482515422237125e-06,0.6524355411529541,4.072328073637826
1.0,6.01074709997112e-06,0.6521490216255188,4.113775917461941
1.0,5.444775208837363e-06,0.6518624424934387,4.154497853347233
1.0,4.94156952625739e-06,0.6515759229660034,4.194506645202637
1.0,4.490930447443586e-06,0.6510028839111328,4.233877684388842
1.0,4.0891943327093096e-06,0.6515759229660034,4.272813481943948
1.0,3.726332982539256e-06,0.6521490216255188,4.3111615266118735
1.0,3.3993847546582018e-06,0.6524355411529541,4.348629380975451
1.0,3.1076191081351983e-06,0.65329509973526,4.3857811604227335
1.0,2.84383430344368e-06,0.6530085802078247,4.42296245268413
1.0,2.604926962126814e-06,0.6530085802078247,4.459396575178419
1.0,2.3886871404095015e-06,0.6530085802078247,4.495530775615147
1.0,2.1922900776721254e-06,0.6530085802078247,4.531266927719116
1.0,2.013716076124983e-06,0.6530085802078247,4.567264037472861
1.0,1.8506079297115322e-06,0.6527220606803894,4.602510895047869
1.0,1.7024684087441326e-06,0.6524355411529541,4.637597152165005
1.0,1.567892559903195e-06,0.6521490216255188,4.672215555395399
1.0,1.4431906759557758e-06,0.6524355411529541,4.707025229930878
1.0,1.3304203629060345e-06,0.6527220606803894,4.741922370025089
1.0,1.2268804793559773e-06,0.6521490216255188,4.776043551308768
1.0,1.131846409210363e-06,0.6521490216255188,4.810450451714652
1.0,1.0440370262680316e-06,0.6527220606803894,4.8444003122193475
1.0,9.645141667941958e-07,0.6527220606803894,4.878451423985617
1.0,8.913891071658055e-07,0.6527220606803894,4.912142898355212
1.0,8.235418008860186e-07,0.6521490216255188,4.945661459650312
1.0,7.612286267089373e-07,0.6521490216255188,4.978924776826586
1.0,7.044277331907085e-07,0.6510028839111328,5.012579083442688
1.0,6.512502631578408e-07,0.6510028839111328,5.045415333339146
1.0,6.034241264549376e-07,0.6512894034385681,5.0785795620509555
1.0,5.582478893929859e-07,0.6515759229660034,5.111390709877014
1.0,5.173249281262354e-07,0.6515759229660034,5.144447471414294
1.0,4.792056602503746e-07,0.6515759229660034,5.177333550793784
1.0,4.442196077662236e-07,0.6512894034385681,5.209849842957088
1.0,4.1168593225672877e-07,0.6515759229660034,5.242449138845716
1.0,3.814435843457307e-07,0.6518624424934387,5.2749386089188715
1.0,3.5386597307725775e-07,0.6515759229660034,5.307503487382617
1.0,3.279135273514547e-07,0.6515759229660034,5.33968802860805
1.0,3.040401566870808e-07,0.6521490216255188,5.371681281498501
1.0,2.824508751146856e-07,0.6518624424934387,5.403887629508972
1.0,2.6195236124003577e-07,0.6524355411529541,5.435814908572605
1.0,2.431302986233566e-07,0.6524355411529541,5.467904720987592
1.0,2.2565525681095124e-07,0.6524355411529541,5.499481098992484
1.0,2.0980544603176042e-07,0.6524355411529541,5.531454375811985
1.0,1.948487588262887e-07,0.6527220606803894,5.563022979668209
1.0,1.8111465593586424e-07,0.6521490216255188,5.5943790674209595
1.0,1.6824441122674033e-07,0.6518624424934387,5.626367901052747
1.0,1.5653818851741078e-07,0.6518624424934387,5.657902657985687
1.0,1.4559333223661554e-07,0.6515759229660034,5.68914794921875
1.0,1.350877189997717e-07,0.6507163047790527,5.721022972038814
1.0,1.258047092922586e-07,0.6507163047790527,5.752028703689575
1.0,1.1707076415582759e-07,0.6501432657241821,5.783446363040379
1.0,1.0874678322372376e-07,0.6501432657241821,5.814065030642918
1.0,1.015648805114789e-07,0.6498567461967468,5.845715590885708
1.0,9.439028861764663e-08,0.6498567461967468,5.876536778041294
1.0,8.794047334769124e-08,0.6498567461967468,5.907251187733242
1.0,8.154189815213146e-08,0.6495702266693115,5.937491450990949
1.0,7.627076401178334e-08,0.6498567461967468,5.968887754849026
