acc,loss,val_acc,val_loss
0.584843099117279,1.3808827800707684,0.6346704959869385,0.6303624595914569
0.6745071411132812,0.5934830136043041,0.6636103391647339,0.6131520335163388
0.7935270071029663,0.4454031186110263,0.5587392449378967,0.997318548815591
0.8427808284759521,0.34740151831016436,0.6212034225463867,0.7831903142588479
0.917828381061554,0.21091210904464777,0.5959885120391846,1.3220239302941732
0.9528956413269043,0.13820359739971128,0.6283667683601379,1.1938331127166748
0.9537554383277893,0.12810962996598596,0.6106017231941223,1.1920916438102722
0.9661610126495361,0.09664060844829475,0.6031518578529358,1.1175794622727804
0.9785051941871643,0.06663591420226592,0.5830945372581482,1.5098267325333186
0.9892525672912598,0.03843567326729356,0.608022928237915,1.705736402954374
0.9980347752571106,0.011346363167347733,0.6100286245346069,2.0752547468457903
0.9995086789131165,0.00465911579706037,0.6143266558647156,2.3690693974494934
0.9998157620429993,0.002646321239376695,0.6151862740516663,2.642146463905062
0.9999386072158813,0.0015657546071763538,0.6186246275901794,2.7694496725286757
1.0,0.0009990521519078481,0.6169054508209229,2.8470294986452376
1.0,0.000613106824659201,0.6191977262496948,2.9446609871728078
1.0,0.0004053511925313854,0.6186246275901794,3.078101600919451
1.0,0.0002735908110819845,0.6163323521614075,3.220796457358769
1.0,0.00018738997014755226,0.6160458326339722,3.361111351421901
1.0,0.0001319314450033637,0.6143266558647156,3.492814932550703
1.0,9.659113962196558e-05,0.6154727935791016,3.6149396300315857
1.0,7.337175067313697e-05,0.6157593131065369,3.7277500884873525
1.0,5.702034449744336e-05,0.6148996949195862,3.8332226616995677
1.0,4.525770985963205e-05,0.6160458326339722,3.9269551634788513
1.0,3.685559063135176e-05,0.6180515885353088,4.0165722370147705
1.0,3.0362144187519233e-05,0.6169054508209229,4.099457008498056
1.0,2.5462725419249743e-05,0.6166189312934875,4.173904401915414
1.0,2.164015684290757e-05,0.6169054508209229,4.247189547334399
1.0,1.8446709722418966e-05,0.6148996949195862,4.315741292067936
1.0,1.5937085639309863e-05,0.6160458326339722,4.382944200720106
1.0,1.3816544036186053e-05,0.6154727935791016,4.448797481400626
1.0,1.2036819328327233e-05,0.6157593131065369,4.510545764650617
1.0,1.0530939979723514e-05,0.6154727935791016,4.570913323334286
1.0,9.301514720786609e-06,0.6157593131065369,4.628234531198229
1.0,8.198238989019992e-06,0.6154727935791016,4.683728039264679
1.0,7.285607118475297e-06,0.6146131753921509,4.738699895995004
1.0,6.479828815280477e-06,0.6143266558647156,4.792656898498535
1.0,5.767282929592651e-06,0.6146131753921509,4.8446814928736
1.0,5.1685550696043355e-06,0.6140401363372803,4.896438556058066
1.0,4.626879999594552e-06,0.6146131753921509,4.950050141130175
1.0,4.131783025686227e-06,0.6148996949195862,5.000538749354226
1.0,3.7022486932912538e-06,0.6148996949195862,5.051806143351963
1.0,3.3808939906401686e-06,0.6154727935791016,5.115610139710562
1.0,2.941271389298863e-06,0.6157593131065369,5.156089408057077
1.0,2.6699818447543456e-06,0.6154727935791016,5.200384472097669
1.0,2.420135816782066e-06,0.6154727935791016,5.243669501372746
1.0,2.1985400711959725e-06,0.6157593131065369,5.288143490042005
1.0,1.994030086374783e-06,0.6163323521614075,5.329977989196777
1.0,1.8178348395941962e-06,0.6151862740516663,5.373950481414795
1.0,1.6671903157406785e-06,0.6146131753921509,5.379355251789093
1.0,1.6588313615730242e-06,0.6137535572052002,5.452346393040249
1.0,1.570697223727164e-06,0.6174784898757935,5.419026809079306
1.0,2.371021103149916e-06,0.6160458326339722,5.592831867081778
0.8473254442214966,0.3102301325642187,0.5080229043960571,0.6928473604576928
0.5046367645263672,0.693475508129085,0.497707724571228,0.692855817931039
0.511146605014801,0.6928775618660986,0.5137535929679871,0.6925960417304721
0.5116379261016846,0.692575656894764,0.5237822532653809,0.6923604990754809
0.5191918015480042,0.6919715686592051,0.5501432418823242,0.6910798868962696
0.5699195265769958,0.6799298296365385,0.5876790881156921,0.6731340906449726
0.5981084704399109,0.6642401187848761,0.5945558547973633,0.6664195422615323
0.6095314025878906,0.6573453042355333,0.6005730628967285,0.6611375446830478
0.6159184575080872,0.6532725784882993,0.5991404056549072,0.6597805150917598
0.6168396472930908,0.6503097766053213,0.5982807874679565,0.6615962130682809
0.6407909989356995,0.6306225175003319,0.6071633100509644,0.698522259082113
0.7607934474945068,0.4904459228631957,0.5979942679405212,0.8891293300049645
0.8440091013908386,0.3525585408663344,0.5793696045875549,1.0067316123417445
0.8959650993347168,0.2516167081404265,0.5819483995437622,1.2851939690964562
0.9302340149879456,0.17332769360553205,0.5971346497535706,1.754202229636056
0.9598968029022217,0.11433701694053384,0.6020057201385498,2.2787622213363647
0.9831726551055908,0.05592570587321931,0.5885387063026428,2.370211090360369
0.9930602312088013,0.026458480408853492,0.5936962962150574,2.4830091978822435
0.994964063167572,0.020513228725571958,0.5856733322143555,2.3434063025883267
0.9973592162132263,0.01033201107586661,0.591977059841156,3.022685421364648
0.9994472861289978,0.00376922542796361,0.5856733322143555,3.7055442929267883
1.0,0.0011333158307158132,0.5810888409614563,3.7434568064553395
1.0,0.0005224033241577234,0.5862464308738708,3.860599900994982
1.0,0.00024335868371326634,0.5893982648849487,4.149168346609388
1.0,0.00014986614373816746,0.5885387063026428,4.36549722296851
1.0,0.00010367452069593931,0.5876790881156921,4.544163729463305
1.0,7.744172414317154e-05,0.5873925685882568,4.696662741047995
1.0,5.520652031339175e-05,0.5882521271705627,4.902889268738883
1.0,4.207957645824647e-05,0.5882521271705627,5.131553377423968
1.0,3.069071608540017e-05,0.5876790881156921,5.327427574566433
1.0,2.1555248862061427e-05,0.5879656076431274,5.495842678206308
1.0,1.6880632363408644e-05,0.5859599113464355,5.646777306284223
1.0,1.3439287411863363e-05,0.5868194699287415,5.783015012741089
1.0,1.0886794762929236e-05,0.5871059894561768,5.908467718533108
1.0,1.0628182019018343e-05,0.5871059894561768,6.024705026830945
1.0,8.793679329280199e-06,0.5868194699287415,6.13453597681863
1.0,6.425717633279814e-06,0.5879656076431274,6.23794412612915
1.0,5.464814205043472e-06,0.5873925685882568,6.328310915402004
1.0,4.751584380918485e-06,0.5862464308738708,6.41529289313725
1.0,4.137796607760437e-06,0.5862464308738708,6.500549537794931
1.0,3.624111706107376e-06,0.5859599113464355,6.581201621464321
1.0,3.1876594186455593e-06,0.5862464308738708,6.658453072820391
1.0,3.767535310447395e-06,0.5873925685882568,6.731674092156546
1.0,2.5172804772063574e-06,0.5868194699287415,6.8127332755497525
1.0,2.2235051738147775e-06,0.5871059894561768,6.880672744342259
1.0,1.988861258014978e-06,0.5868194699287415,6.946970462799072
1.0,1.7874921808339686e-06,0.5862464308738708,7.011017799377441
