epoch,scaling,scale,wavelength,sigma
0.0,0.10000000149011612,0.10000000149011612,0.10000000149011612,0.33000001311302185
1.0,0.09417011588811874,0.1063295304775238,0.09386254847049713,0.33990296721458435
2.0,0.1081826239824295,0.09273037314414978,0.10763666033744812,0.3273104727268219
3.0,0.1064310148358345,0.09575356543064117,0.10507069528102875,0.3311271667480469
4.0,0.09943442046642303,0.10439237952232361,0.0969499945640564,0.3410768508911133
5.0,0.10541507601737976,0.10203490406274796,0.10055249184370041,0.3393116295337677
6.0,0.11003009974956512,0.1013541966676712,0.10263059288263321,0.33834007382392883
7.0,0.11266310513019562,0.10385686904191971,0.10196292400360107,0.33989712595939636
8.0,0.11930958926677704,0.10337139666080475,0.10474764555692673,0.33902132511138916
9.0,0.12266391515731812,0.10613282024860382,0.10428015887737274,0.342746376991272
10.0,0.12279105186462402,0.11190270632505417,0.10062412917613983,0.34845325350761414
11.0,0.12813974916934967,0.11257254332304001,0.10242239385843277,0.3492155969142914
12.0,0.1369798183441162,0.10961627960205078,0.10776403546333313,0.3461650311946869
13.0,0.14686542749404907,0.10526616871356964,0.1144346296787262,0.3434455096721649
14.0,0.1521909236907959,0.10548226535320282,0.11640935391187668,0.3438902497291565
15.0,0.1590864211320877,0.10470951348543167,0.11958267539739609,0.3434861898422241
16.0,0.16334566473960876,0.10634246468544006,0.1202462837100029,0.34422120451927185
17.0,0.16965092718601227,0.10619897395372391,0.12287604808807373,0.3439340889453888
18.0,0.1744217723608017,0.10614582151174545,0.12480881065130234,0.34433260560035706
19.0,0.1815607100725174,0.10368380695581436,0.1292068362236023,0.34177830815315247
20.0,0.1868007630109787,0.10311246663331985,0.1316751092672348,0.34100407361984253
21.0,0.18704187870025635,0.1076091006398201,0.1289234459400177,0.34568172693252563
22.0,0.18786044418811798,0.10920429229736328,0.12828148901462555,0.3472391664981842
23.0,0.18997275829315186,0.10887283086776733,0.12934765219688416,0.34702563285827637
24.0,0.19291505217552185,0.10712145268917084,0.1316078156232834,0.3458956480026245
25.0,0.19463418424129486,0.1063193753361702,0.13280092179775238,0.3454846143722534
26.0,0.19509875774383545,0.10679949074983597,0.13269461691379547,0.34562426805496216
27.0,0.19742020964622498,0.10536552965641022,0.134516641497612,0.34397026896476746
28.0,0.19827039539813995,0.10568910092115402,0.1346810758113861,0.3440002501010895
29.0,0.19948284327983856,0.10555185377597809,0.13526202738285065,0.34447577595710754
30.0,0.20067670941352844,0.10537903010845184,0.13585537672042847,0.34437641501426697
31.0,0.20545074343681335,0.10127343982458115,0.14030878245830536,0.3398723006248474
32.0,0.2035192996263504,0.10487689077854156,0.1373307853937149,0.3435116410255432
33.0,0.2078658640384674,0.10265061259269714,0.14039014279842377,0.34102413058280945
34.0,0.20658254623413086,0.10545574873685837,0.1381399929523468,0.3441225588321686
35.0,0.2081749588251114,0.1059495210647583,0.13843068480491638,0.34305888414382935
36.0,0.20961765944957733,0.10515682399272919,0.13948847353458405,0.34218350052833557
37.0,0.2105599343776703,0.10474006086587906,0.14011533558368683,0.34248873591423035
38.0,0.2130788117647171,0.10268294811248779,0.14237815141677856,0.34101706743240356
39.0,0.21309594810009003,0.10328304022550583,0.14201676845550537,0.3418317437171936
40.0,0.21300815045833588,0.10363319516181946,0.14176496863365173,0.3422108292579651
41.0,0.2126522660255432,0.10430728644132614,0.14120803773403168,0.34301474690437317
42.0,0.21310698986053467,0.1040552482008934,0.14154234528541565,0.342890202999115
43.0,0.21192915737628937,0.10545467585325241,0.1402129828929901,0.3445375859737396
44.0,0.2155362367630005,0.10598527640104294,0.14110782742500305,0.34515905380249023
45.0,0.2162197083234787,0.1066134124994278,0.14098134636878967,0.3452899158000946
46.0,0.22040754556655884,0.10249839723110199,0.14515504240989685,0.34105485677719116
47.0,0.2187867909669876,0.10451803356409073,0.14327453076839447,0.3429991602897644
48.0,0.21770153939723969,0.10571536421775818,0.1421113759279251,0.34419146180152893
49.0,0.2165936529636383,0.1068837121129036,0.14095740020275116,0.345388263463974
50.0,0.2164078950881958,0.10707826912403107,0.1407647281885147,0.34559693932533264
51.0,0.2163282334804535,0.10716134309768677,0.14068226516246796,0.345661461353302
52.0,0.21626794338226318,0.10722286254167557,0.14062073826789856,0.3457297086715698
53.0,0.21628674864768982,0.10720391571521759,0.14063967764377594,0.34571748971939087
54.0,0.2161838412284851,0.10730869323015213,0.14053480327129364,0.3456920087337494
55.0,0.2160138040781021,0.10748138278722763,0.14036181569099426,0.34586670994758606
56.0,0.2160571962594986,0.10743775218725204,0.14040565490722656,0.3458236753940582
57.0,0.2160516381263733,0.10744352638721466,0.14039991796016693,0.345826655626297
58.0,0.2160864919424057,0.10740837454795837,0.14043524861335754,0.3457912504673004
59.0,0.21603073179721832,0.10746505856513977,0.1403784304857254,0.34585583209991455
60.0,0.21611358225345612,0.10738122463226318,0.14046256244182587,0.3457726836204529
61.0,0.21610938012599945,0.10738557577133179,0.14045827090740204,0.345773845911026
62.0,0.21608242392539978,0.10741288214921951,0.14043080806732178,0.3458009362220764
63.0,0.21613505482673645,0.10735957324504852,0.1404842883348465,0.3457461893558502
64.0,0.21612600982189178,0.1073688492178917,0.14047503471374512,0.34575268626213074
65.0,0.2161300629377365,0.10736480355262756,0.14047910273075104,0.34574374556541443
66.0,0.2161039412021637,0.10739151388406754,0.14045241475105286,0.34577786922454834
67.0,0.2161387801170349,0.1073562353849411,0.14048781991004944,0.34574267268180847
68.0,0.2161899358034134,0.10730455070734024,0.14053966104984283,0.3456852436065674
69.0,0.2161041796207428,0.10739166289567947,0.14045235514640808,0.345776230096817
70.0,0.2162100225687027,0.10728461295366287,0.14055964350700378,0.3456660807132721
71.0,0.21616260707378387,0.10733295977115631,0.14051136374473572,0.34571149945259094
72.0,0.21615813672542572,0.10733764618635178,0.140506774187088,0.34571436047554016
73.0,0.21619932353496552,0.10729598253965378,0.14054866135120392,0.3456697463989258
74.0,0.2161470204591751,0.10734925419092178,0.14049533009529114,0.34571725130081177
75.0,0.21612054109573364,0.10737629979848862,0.1404682844877243,0.34573882818222046
76.0,0.21615511178970337,0.10734141618013382,0.14050331711769104,0.34570762515068054
77.0,0.2160957306623459,0.10740167647600174,0.1404428631067276,0.3457692563533783
78.0,0.21608969569206238,0.1074078381061554,0.14043667912483215,0.34577205777168274
79.0,0.21613909304141998,0.1073579341173172,0.1404867023229599,0.3457256853580475
80.0,0.21610167622566223,0.10739589482545853,0.1404487043619156,0.3457639217376709
81.0,0.21615123748779297,0.1073458194732666,0.1404990553855896,0.34571611881256104
82.0,0.2161538153886795,0.10734336078166962,0.14050167798995972,0.34571364521980286
83.0,0.21614404022693634,0.10735341906547546,0.14049169421195984,0.3457266092300415
84.0,0.216155543923378,0.10734186321496964,0.1405034065246582,0.3457154631614685
85.0,0.21613892912864685,0.10735883563756943,0.1404864490032196,0.3457338213920593
86.0,0.21614715456962585,0.10735078155994415,0.14049449563026428,0.345721572637558
87.0,0.21613498032093048,0.10736322402954102,0.14048202335834503,0.34572741389274597
88.0,0.21612492203712463,0.10737340897321701,0.14047184586524963,0.34573307633399963
89.0,0.21613551676273346,0.10736270993947983,0.1404825896024704,0.34571772813796997
90.0,0.21370533108711243,0.11282587796449661,0.13629290461540222,0.35109958052635193
91.0,0.2126082181930542,0.11429689824581146,0.13497479259967804,0.3527156412601471
92.0,0.21297483146190643,0.11520648747682571,0.1345977783203125,0.35351479053497314
93.0,0.21294711530208588,0.11621451377868652,0.13399097323417664,0.355228990316391
94.0,0.21559450030326843,0.11662916839122772,0.13484333455562592,0.3568929135799408
95.0,0.2209092229604721,0.11364832520484924,0.13879676163196564,0.3580116927623749
96.0,0.22501517832279205,0.11188148707151413,0.14150698482990265,0.3562804162502289
97.0,0.22822871804237366,0.11054209619760513,0.14359794557094574,0.35585010051727295
98.0,0.23084622621536255,0.10967182368040085,0.14514435827732086,0.3561425805091858
99.0,0.23367922008037567,0.10968593508005142,0.14625822007656097,0.3536127209663391
100.0,0.23379887640476227,0.11161068826913834,0.14512021839618683,0.3556075990200043
