acc,loss,val_acc,val_loss
0.2879500091075897,2.089425655555725,0.3095000088214874,2.0076540512374685
0.437624990940094,1.716783418083191,0.4494999945163727,1.6931372548960433
0.5157250165939331,1.4971954216003418,0.5130000114440918,1.5213235722312444
0.5706750154495239,1.3457407526016236,0.5521000027656555,1.4150679352917248
0.6121500134468079,1.2363769199371337,0.5771999955177307,1.3495649959467635
0.6436750292778015,1.151168858718872,0.5824999809265137,1.3169692362411112
0.6679750084877014,1.0803738149642945,0.5867000222206116,1.3305384267734577
0.6901999711990356,1.0186233823776245,0.5976999998092651,1.2961013045492051
0.708424985408783,0.9660029386520386,0.5976999998092651,1.3178398201737223
0.7258750200271606,0.9179814994812012,0.5982000231742859,1.3718170591547518
0.7411500215530396,0.8747671970367432,0.5884000062942505,1.445093195649642
0.7550250291824341,0.833804420375824,0.5809000134468079,1.5445944523509545
0.7711499929428101,0.7927073165893554,0.5507000088691711,1.775449873525885
0.7831500172615051,0.756659502696991,0.5727999806404114,1.6290524549122098
0.7964749932289124,0.7231939898490906,0.5706999897956848,1.6704241142997258
0.8072249889373779,0.689428799200058,0.5640000104904175,1.7512185935732685
0.8189250230789185,0.6580204507827759,0.5802000164985657,1.753898696054386
0.827875018119812,0.6291136870861054,0.5522000193595886,1.9918048487433904
0.8371999859809875,0.6069936928272247,0.5652999877929688,1.8913566100446484
0.8465499877929688,0.580429105758667,0.5356000065803528,2.1552353297607807
0.8542749881744385,0.5610348693370819,0.5638999938964844,2.019674097435384
0.8590499758720398,0.5438165216445923,0.5525000095367432,2.1232525215873235
0.8649250268936157,0.5295127348899842,0.49900001287460327,2.7213629137111615
0.8707000017166138,0.5141470984458923,0.5249000191688538,2.430178631710101
0.8729749917984009,0.5044211707115174,0.5378999710083008,2.2622138608860065
0.8804500102996826,0.4827584629535675,0.49570000171661377,2.7555496028707
0.8837000131607056,0.47064608697891236,0.5175999999046326,2.671040450470357
0.8894749879837036,0.4583871761798859,0.5227000117301941,2.8929167457773715
0.8935499787330627,0.4501360878944397,0.510699987411499,2.8311073538623277
0.8972749710083008,0.43817087507247926,0.5216000080108643,2.7773161507860014
0.9001250267028809,0.4335295104980469,0.4943000078201294,3.120259976085228
0.9036999940872192,0.4220242862224579,0.5037999749183655,2.9671702505666997
0.9103000164031982,0.4089700713634491,0.4869000017642975,3.2967735362958304
0.9109249711036682,0.40224535284042356,0.5214999914169312,2.7759024568750887
0.910099983215332,0.4026934091567993,0.4544000029563904,3.689284575136402
0.9140750169754028,0.3940031843185425,0.49129998683929443,3.1448437624339816
0.9093499779701233,0.4041413976430893,0.4788999855518341,3.438851413847525
0.9216499924659729,0.3781072821855545,0.4828999936580658,3.2996679257742967
0.9272249937057495,0.3646708659410477,0.4625999927520752,3.6277493283718445
0.9309499859809875,0.3568674793720245,0.4812000095844269,3.5254104318498056
0.9271500110626221,0.3610492312669754,0.43959999084472656,3.8930164439768733
0.9267500042915344,0.3628073693752289,0.47679999470710754,3.831108422218999
0.9304500222206116,0.3547111110687256,0.5379999876022339,2.899060303651834
0.9296500086784363,0.3554153657913208,0.4521999955177307,4.195918412148198
0.9348999857902527,0.34330131402015684,0.5360999703407288,2.8767266364037236
0.9389749765396118,0.3355937275648117,0.5210000276565552,3.0700650848919833
0.9380000233650208,0.3372395056247711,0.5274999737739563,3.2566326932062077
0.9360250234603882,0.3406626975297928,0.4781999886035919,3.8110777275471746
0.9435250163078308,0.3245997971534729,0.5443999767303467,2.9527229297010202
0.9412000179290771,0.32735559928417207,0.5400999784469604,3.0643273697623723
0.9419500231742859,0.32840017693042756,0.511900007724762,3.3759927206401583
0.942550003528595,0.32571698355674744,0.5583000183105469,2.9736621591109262
0.9438750147819519,0.32324616322517397,0.4634000062942505,4.1255862411064435
0.9445250034332275,0.32320014090538024,0.5206000208854675,3.318744264071501
0.9474499821662903,0.31742754843235016,0.5321999788284302,3.2297605261018005
0.9475250244140625,0.3164406252384186,0.5228999853134155,3.155148222476621
0.9469000101089478,0.31638290286064147,0.5656999945640564,2.8446386373495756
0.9522749781608582,0.3055485999584198,0.5321000218391418,3.1525232972978037
0.9520249962806702,0.30603321380615234,0.5321999788284302,3.2416325611404226
0.9425250291824341,0.3273013694763184,0.5220000147819519,3.350600354279144
0.9500499963760376,0.31115758514404296,0.5109999775886536,3.5706611343576937
0.9563999772071838,0.29752833318710326,0.5421000123023987,3.376640389237223
0.9562000036239624,0.29501985421180726,0.5084999799728394,3.5379784680620023
0.9543499946594238,0.3010354521751404,0.5533999800682068,3.0476241866244544
0.9524750113487244,0.3032268699169159,0.4869000017642975,3.96697309047361
0.9513750076293945,0.30746970369815824,0.5598000288009644,3.042622342894349
0.9595749974250793,0.2882745486736298,0.5418999791145325,3.372121140926699
0.9560750126838684,0.29738331236839294,0.5087000131607056,3.932628329796127
0.9559999704360962,0.2970266585588455,0.5630999803543091,2.9643886964532395
0.9513499736785889,0.3107613577604294,0.5522000193595886,3.125980997387367
0.956125020980835,0.29772779970169067,0.527899980545044,3.5684258454962623
0.9627249836921692,0.28314460592269897,0.48590001463890076,4.169852567624442
0.9613749980926514,0.2883846692323685,0.5620999932289124,3.1990737281268156
0.9569249749183655,0.29472156176567077,0.5526000261306763,3.2314778732348093
0.9535250067710876,0.30513492953777316,0.5548999905586243,3.020667353762856
0.9569500088691711,0.2985637336730957,0.5616000294685364,3.079249870928028
0.9624500274658203,0.2865343710422516,0.5188999772071838,3.6569163829465454
0.9654750227928162,0.2776446385860443,0.5127999782562256,3.8341138453423222
0.9660750031471252,0.272891466999054,0.541100025177002,3.4391474753995483
0.9600250124931335,0.2906717576742172,0.5612999796867371,3.2556179022487206
0.9593999981880188,0.29263137125968935,0.5595999956130981,3.3234803857682627
0.9593750238418579,0.2906609474658966,0.529699981212616,3.656637550909308
0.9632999897003174,0.28338545258045195,0.5230000019073486,3.6962540119509155
0.9624999761581421,0.2840366663455963,0.5684999823570251,3.1809468993657752
0.9606249928474426,0.28840965423583986,0.5304999947547913,3.7270223339901696
0.9616000056266785,0.2860532777547836,0.5407999753952026,3.603404150733465
0.9544500112533569,0.3022664110660553,0.5375000238418579,3.470491536055939
0.9631249904632568,0.28705544538497924,0.546500027179718,3.229678784744649
0.9688000082969666,0.2697660121917725,0.5479000210762024,3.383995104439651
0.9681749939918518,0.27154467782974245,0.5270000100135803,3.7493009174926373
0.9633499979972839,0.2800765541315079,0.5218999981880188,3.833610833445682
0.9552249908447266,0.30239081492424014,0.5149999856948853,4.015926047216488
0.9554749727249146,0.30206167335510253,0.5400000214576721,3.4930804379378695
0.9600499868392944,0.2921901108503342,0.5645999908447266,3.1882484351532367
0.9679999947547913,0.272516210269928,0.5548999905586243,3.238094025020358
0.9690250158309937,0.2701992847442627,0.5322999954223633,3.527111732507054
0.9691500067710876,0.2696875909805298,0.5637000203132629,3.5556969099406954
0.9620000123977661,0.28553634204864503,0.5491999983787537,3.440165073056764
0.9611999988555908,0.28927476704120636,0.5196999907493591,3.9280508017238183
0.9584749937057495,0.2966834268093109,0.5640000104904175,3.1656289040287837
