acc,loss,val_acc,val_loss
0.28312501311302185,1.9827406669616698,0.39089998602867126,1.7145333697524252
0.4456000030040741,1.5897481115341185,0.4316999912261963,1.6363085840321794
0.5288749933242798,1.366831780052185,0.45100000500679016,1.6222986571396454
0.5802749991416931,1.2264467195510864,0.4932999908924103,1.5105523806584031
0.615149974822998,1.128437525177002,0.47760000824928284,1.587733891945851
0.6549249887466431,1.0186199082374572,0.4643999934196472,1.7185451124287858
0.6956499814987183,0.9008738377571106,0.4611999988555908,1.7963562404053122
0.725475013256073,0.8168419668197632,0.43459999561309814,1.9875863760332517
0.7588499784469604,0.7199276354789734,0.42640000581741333,2.149576843539371
0.7946749925613403,0.6081126181602478,0.4350000023841858,2.192017666901214
0.8193749785423279,0.5374372013807297,0.43130001425743103,2.3598960894572585
0.8291000127792358,0.4959598975658417,0.42739999294281006,2.540870138361484
0.8457750082015991,0.44628962931633,0.42170000076293945,2.5809695237799537
0.8600500226020813,0.4042198930978775,0.4262999892234802,2.8821154968648015
0.8954749703407288,0.30873085598945615,0.43059998750686646,2.9083667042889174
0.9074500203132629,0.2725246603488922,0.400299996137619,3.2534041284005855
0.9246000051498413,0.22912895149588586,0.41370001435279846,3.2134593800653386
0.9390249848365784,0.1843222833275795,0.4284999966621399,3.511196679706815
0.9495999813079834,0.1546221953868866,0.43230000138282776,3.745942568477196
0.9487749934196472,0.15402006739377974,0.43939998745918274,3.873876635032364
0.962149977684021,0.11496010709404945,0.42250001430511475,4.097699494301518
0.972350001335144,0.08687223499417306,0.4235999882221222,4.4195391316957116
0.9795250296592712,0.06575318903028965,0.41990000009536743,4.870510288431674
0.9849249720573425,0.05184283701628446,0.4178999960422516,5.135565362399137
0.9876499772071838,0.041158715654164554,0.41819998621940613,5.266946306711511
0.9910749793052673,0.029654092322289945,0.41999998688697815,5.521070486382593
0.9907249808311462,0.031868577076494695,0.41130000352859497,5.677888809880124
0.9907500147819519,0.02994808649085462,0.4124999940395355,5.6558807228184955
0.989425003528595,0.03159183127358556,0.4271000027656555,5.686969340602054
0.9892500042915344,0.03490697256624699,0.4228000044822693,5.877654570567457
0.9866499900817871,0.04179205434545875,0.41920000314712524,5.900819633580461
0.98294997215271,0.05053276889696717,0.4221000075340271,5.841824857494499
0.9841499924659729,0.04818318545520306,0.41990000009536743,6.015915037710456
0.9846749901771545,0.04618088222760707,0.42829999327659607,5.937308214887788
0.9852499961853027,0.04383151384666562,0.42719998955726624,6.118842619883863
0.9884999990463257,0.035608467099815605,0.4221000075340271,6.444970969912372
0.9893500208854675,0.032153098050132396,0.4250999987125397,6.462094512166856
0.9891999959945679,0.03287204113081098,0.4343999922275543,6.349834218809876
0.9894000291824341,0.03449879077915102,0.4262999892234802,6.636013894141475
0.9910249710083008,0.02816373901553452,0.4133000075817108,6.870282969897306
0.9924250245094299,0.024181491197645663,0.42419999837875366,6.87613620033747
0.9898999929428101,0.02981013817358762,0.41110000014305115,7.026336018043228
0.9901750087738037,0.02959364911429584,0.4223000109195709,6.761443506313276
0.9890249967575073,0.032337468622997405,0.40779998898506165,6.858702526816839
0.9905999898910522,0.027091741386428475,0.4187000095844269,6.927213264417045
0.9906749725341797,0.02912321603409946,0.41749998927116394,6.940042749235902
0.989175021648407,0.03312667179889977,0.4050000011920929,7.021790806251236
0.989175021648407,0.03336663123592734,0.4101000130176544,6.795196285730676
0.9912499785423279,0.02904003642462194,0.4131999909877777,7.063676194299625
0.9903249740600586,0.028990840791910888,0.41909998655319214,6.879276764543751
0.9944000244140625,0.016790703502809628,0.41760000586509705,7.4487238232093524
0.9952499866485596,0.014300270979385823,0.41190001368522644,7.504000241243387
0.9954500198364258,0.014366271296329796,0.39800000190734863,7.736264210713061
0.9935250282287598,0.019136320410016925,0.42089998722076416,7.51600527461571
0.9925000071525574,0.02088085104948841,0.42640000581741333,7.674606830258913
0.991599977016449,0.023882287076301873,0.414900004863739,7.603823462619057
0.9915000200271606,0.025110831141192468,0.4239000082015991,7.2907096705859225
0.9911749958992004,0.027171117194648833,0.4097999930381775,7.554847693141503
0.9917250275611877,0.024554383024480195,0.4178999960422516,7.4305193092249615
0.9941499829292297,0.01848435554956086,0.42260000109672546,7.517335276060466
0.9950000047683716,0.015032105366350152,0.4174000024795532,7.75562990164455
0.9935749769210815,0.01965066242637113,0.4203999936580658,7.9300015183943735
0.9942749738693237,0.016850481424923056,0.4169999957084656,7.841697698907007
0.9968000054359436,0.010016855100914835,0.4293000102043152,8.12302890004991
0.9940500259399414,0.018702513952669687,0.4242999851703644,8.278829640980009
0.9943000078201294,0.018289194894675165,0.41850000619888306,8.33374465869952
0.9951500296592712,0.01499344393676147,0.4251999855041504,8.490550892262519
0.9944999814033508,0.016771187340468167,0.4196999967098236,8.30163734170455
0.9942749738693237,0.017785639816569165,0.4113999903202057,8.396567423132401
0.9922000169754028,0.025112364607304333,0.414900004863739,8.097999319245544
0.9932500123977661,0.021010161178465932,0.41659998893737793,8.333301477794405
0.9926000237464905,0.0236953122700681,0.42170000076293945,8.434102963797654
0.9945250153541565,0.017315389816230164,0.41200000047683716,8.417574846291844
0.9951500296592712,0.01500929218014935,0.4129999876022339,8.288553243950952
0.9947999715805054,0.01659651367068291,0.4196000099182129,8.518652571907527
0.994700014591217,0.01662317871802952,0.4106000065803528,8.229705496679378
0.9969000220298767,0.00905727732941741,0.41659998893737793,8.709070682525635
0.9959499835968018,0.013367022636928596,0.41839998960494995,9.04943842223928
0.9932249784469604,0.020561502761486918,0.4226999878883362,8.553695811501033
0.9958500266075134,0.013296949734236113,0.41519999504089355,8.869360537468632
0.9938750267028809,0.018153791527426803,0.4271000027656555,8.917717209345177
0.9932500123977661,0.02277593591781333,0.4189999997615814,8.529359093195275
0.9924499988555908,0.0251343900385662,0.41990000009536743,8.560718071611621
0.994225025177002,0.01703618632047437,0.41830000281333923,8.674895515924767
0.9932249784469604,0.022188245727005413,0.4174000024795532,8.178860054740422
0.9953749775886536,0.012796574822097319,0.42910000681877136,8.552106567575962
0.9952499866485596,0.01530695158164599,0.4302999973297119,8.649109333376341
0.9961249828338623,0.01099288651746465,0.4246000051498413,8.449924885472164
0.9965749979019165,0.011347448849090142,0.42480000853538513,8.937496203410474
0.9984750151634216,0.004846693892776966,0.4212000072002411,8.721215018743202
0.9966250061988831,0.011538666419655784,0.43320000171661377,8.822859148435954
0.9961749911308289,0.011234460201329784,0.4268999993801117,8.891017956069753
0.9923999905586243,0.025453391444310546,0.40290001034736633,8.751165353799168
0.9926249980926514,0.02356988765336573,0.4230000078678131,8.94172799436352
0.9966750144958496,0.010830534220614935,0.42149999737739563,9.632188700422455
0.9951249957084656,0.01432654268539627,0.41839998960494995,9.288802207270756
0.9962499737739563,0.010911084894460509,0.4066999852657318,9.741785773748084
0.9969249963760376,0.009196295899484539,0.42309999465942383,9.382410942753658
0.9936249852180481,0.019062740882392973,0.42089998722076416,9.192344508593596
0.9958750009536743,0.013547707495931536,0.4259999990463257,8.982350536539585
