acc,loss,val_acc,val_loss
0.1441749930381775,2.4220628604888916,0.18559999763965607,2.1842338525796237
0.20720000565052032,2.127962604904175,0.26159998774528503,2.0243503428712675
0.26512500643730164,1.9688250644683838,0.26649999618530273,1.941084074068673
0.30867499113082886,1.8615368183135987,0.32829999923706055,1.7984638380098947
0.33662500977516174,1.8080087171554566,0.33219999074935913,1.842656369450726
0.3558500111103058,1.7597557256698608,0.33550000190734863,1.7827517820309988
0.3710249960422516,1.727720556640625,0.34850001335144043,1.766434993924974
0.38837501406669617,1.6859661849975587,0.3725000023841858,1.6947490399396872
0.40400001406669617,1.6488714687347412,0.39879998564720154,1.6474486800688732
0.4144749939441681,1.6283870979309083,0.40610000491142273,1.6339059389090236
0.420974999666214,1.6128647487640382,0.3758000135421753,1.70863676071167
0.42294999957084656,1.6110530111312866,0.3952000141143799,1.6927619855615157
0.43127501010894775,1.588412540435791,0.3910999894142151,1.682228550126281
0.4465999901294708,1.5553043243408202,0.4262999892234802,1.5944731567479387
0.44977501034736633,1.5419492763519287,0.4212000072002411,1.6017370133460322
0.4564000070095062,1.5271418968200683,0.4002000093460083,1.643716401691678
0.4642750024795532,1.5090221313476562,0.44190001487731934,1.5466743073885953
0.4691999852657318,1.495099627304077,0.42980000376701355,1.5849367561219614
0.4724999964237213,1.4863302335739135,0.44830000400543213,1.537327173389966
0.4779999852180481,1.475649667739868,0.4390000104904175,1.5631668069694615
0.4796999990940094,1.464125738143921,0.4397999942302704,1.570632970785793
0.48867499828338623,1.4464669513702393,0.44339999556541443,1.5719571852985816
0.49459999799728394,1.4317118423461914,0.4438000023365021,1.5692252856266649
0.49387499690055847,1.4325565090179444,0.41609999537467957,1.6344371988803525
0.5020999908447266,1.4097770278930664,0.42800000309944153,1.6041378416592562
0.5062749981880188,1.399696262741089,0.4293999969959259,1.608728371089018
0.5109000205993652,1.3910049812316894,0.4205999970436096,1.648247913469242
0.513450026512146,1.380777659225464,0.42980000376701355,1.6198599444159978
0.5183249711990356,1.370826568222046,0.4307999908924103,1.617237380788296
0.5197499990463257,1.3657873584747315,0.42820000648498535,1.632206293601024
0.5191749930381775,1.3678355503082276,0.4041000008583069,1.7170343142521531
0.5205000042915344,1.3628359352111816,0.4237000048160553,1.6519881426533567
0.5231750011444092,1.3628924600601195,0.4108999967575073,1.6927596677707721
0.5244250297546387,1.3560493686676025,0.4339999854564667,1.6093422008466116
0.5298500061035156,1.3370038158416748,0.4408999979496002,1.607215689707406
0.533174991607666,1.3319977592468262,0.4415000081062317,1.5945564795143996
0.5346750020980835,1.3277352821350097,0.4383000135421753,1.6229521519021144
0.5310249924659729,1.3355624214172364,0.4490000009536743,1.5703534476364716
0.5414000153541565,1.3112586711883545,0.4422999918460846,1.6060442758511893
0.543874979019165,1.3027002502441407,0.44670000672340393,1.604750606832625
0.5413249731063843,1.31074028339386,0.4375,1.6332043846951256
0.542074978351593,1.3095003686904907,0.45829999446868896,1.5575923753690115
0.5444250106811523,1.3069123600006103,0.453900009393692,1.5650206245953524
0.5393499732017517,1.3180680780410767,0.4205000102519989,1.7373269328588172
0.5426999926567078,1.309312959098816,0.4081000089645386,1.8054735675642761
0.5363249778747559,1.3232610162734986,0.4397999942302704,1.646005609367467
0.5401999950408936,1.3094553092956542,0.44040000438690186,1.6354289537743678
0.5426499843597412,1.3056001539230346,0.4505000114440918,1.5866407578504538
0.5435000061988831,1.300302264213562,0.4562999904155731,1.5798109362397013
0.5437999963760376,1.2953543548583983,0.4239000082015991,1.688320279121399
0.5421500205993652,1.3042447864532472,0.4375,1.6481954915614068
0.5436750054359436,1.3013721271514893,0.4366999864578247,1.6640388905247556
0.5376750230789185,1.3191255180358887,0.43299999833106995,1.656105802028994
0.5374000072479248,1.3189747787475585,0.4235000014305115,1.702031568635868
0.5354250073432922,1.3215407314300538,0.4399000108242035,1.6446943660325641
0.5472999811172485,1.2906522201538086,0.43299999833106995,1.6856945119326627
0.5523750185966492,1.2781585550308228,0.436599999666214,1.671116439602043
0.5412499904632568,1.3001247578620911,0.427700012922287,1.723086234889453
0.5393499732017517,1.3124060806274414,0.43059998750686646,1.699131532560421
0.5423499941825867,1.301939728164673,0.43810001015663147,1.6501340669921682
0.5430499911308289,1.3039884910583497,0.43459999561309814,1.6624893040596684
0.5458250045776367,1.3020786962509154,0.44429999589920044,1.6231900272490103
0.5497499704360962,1.2892012378692628,0.4372999966144562,1.6589874421493918
0.5471749901771545,1.2929312427520752,0.4368000030517578,1.6694755539109436
0.555275022983551,1.2751642812728883,0.4334999918937683,1.6744556215744983
0.5601999759674072,1.2568711289405823,0.4334000051021576,1.6987903736814667
0.5698500275611877,1.2338634742736816,0.43970000743865967,1.67403521869756
0.5712500214576721,1.22548101978302,0.44839999079704285,1.6394622310807434
0.5765249729156494,1.2153016790390014,0.453900009393692,1.6144963593422612
0.579925000667572,1.2060514795303345,0.45249998569488525,1.6228728565988662
0.5787000060081482,1.210746071243286,0.45730000734329224,1.6076240524460998
0.5806499719619751,1.2027576664924622,0.4562999904155731,1.6128320980675612
0.5817000269889832,1.2031960262298584,0.4487000107765198,1.6234980987597116
0.5829749703407288,1.1994283659934997,0.45159998536109924,1.6295879400229152
0.5809000134468079,1.2021057517051696,0.44190001487731934,1.662312907508657
0.5705249905586243,1.224618252468109,0.43880000710487366,1.6781226245662835
0.5626500248908997,1.2503003286361694,0.42910000681877136,1.7102175015437453
0.5522000193595886,1.2681523578643799,0.4244999885559082,1.7195674995832806
0.555649995803833,1.2676805044174195,0.4203000068664551,1.7709205829644505
0.5553500056266785,1.269661434173584,0.42239999771118164,1.7495574724825123
0.5482500195503235,1.2884166017532348,0.38420000672340393,1.899150264414051
0.5480750203132629,1.283016244316101,0.4140999913215637,1.7603661531134496
0.5482000112533569,1.2910146686553956,0.39959999918937683,1.8467915782445594
0.5525000095367432,1.275305233001709,0.4025000035762787,1.8350743085523196
0.5570999979972839,1.263180995464325,0.41029998660087585,1.812750271604031
0.5599499940872192,1.2567993154525756,0.4059000015258789,1.8123002112666262
0.5633249878883362,1.247312156867981,0.4205999970436096,1.7288622539254683
0.55902498960495,1.2660660347938537,0.41830000281333923,1.7679937942118584
0.5534499883651733,1.277146527004242,0.44190001487731934,1.674389967435523
0.556850016117096,1.2644984023094177,0.4205999970436096,1.77424334876145
0.5665000081062317,1.246297384929657,0.41510000824928284,1.7993362085728706
0.5669749975204468,1.2426252563476563,0.4187999963760376,1.7796453826035126
0.5623999834060669,1.2452190757751465,0.4083000123500824,1.8144116160235828
0.5718749761581421,1.222998780441284,0.4027000069618225,1.850178685369371
0.5733749866485596,1.2172711813926698,0.40799999237060547,1.8348940942860856
0.572825014591217,1.2209420066833496,0.4221999943256378,1.7991002420835858
0.5629500150680542,1.2485051434516907,0.4327000081539154,1.7231468007534365
0.5547999739646912,1.2725091440200806,0.44200000166893005,1.6877009174491786
0.5563499927520752,1.2678491481781007,0.43810001015663147,1.6975808505770527
0.5564249753952026,1.263789988231659,0.40619999170303345,1.7889891485624676
