acc,loss,val_acc,val_loss
0.20252500474452972,2.1211222791671753,0.2773999869823456,1.954235614100589
0.3185499906539917,1.8430999546051026,0.36070001125335693,1.7423803247982943
0.3719249963760376,1.7044421592712402,0.3628000020980835,1.7158359440067146
0.40652498602867126,1.631509536743164,0.4027999937534332,1.6329225437550605
0.43117499351501465,1.5739040813446046,0.4036000072956085,1.6184899112846278
0.4611000120639801,1.5035865447998047,0.43970000743865967,1.5461747585972654
0.48317500948905945,1.450996174621582,0.4456000030040741,1.5279118743123887
0.5036500096321106,1.3953269706726075,0.45249998569488525,1.5245253903956353
0.5198500156402588,1.3559194185256958,0.45100000500679016,1.5271063665800457
0.5283750295639038,1.330044803237915,0.42739999294281006,1.6085259959667544
0.5461249947547913,1.281061365890503,0.42890000343322754,1.6306634432152858
0.5632749795913696,1.2345324724197388,0.44760000705718994,1.560346106939678
0.5835999846458435,1.1843852454185486,0.4675000011920929,1.543228185629543
0.5950250029563904,1.1505599914550781,0.4742000102996826,1.5441300295576263
0.6144750118255615,1.098952025604248,0.4779999852180481,1.5515914355652243
0.6225000023841858,1.0765534735679627,0.4668000042438507,1.6169896684115446
0.6398249864578247,1.0273845975875855,0.4560999870300293,1.6689216336117516
0.6586750149726868,0.9768846819877625,0.45899999141693115,1.7034426957746096
0.6811000108718872,0.9188456888198853,0.4542999863624573,1.7277344238908985
0.676675021648407,0.9215238569259644,0.43479999899864197,1.8142718469040304
0.6930500268936157,0.8780525797843933,0.450300008058548,1.8568522899965696
0.7025250196456909,0.8547943065166473,0.4413999915122986,1.9720141827305662
0.7002249956130981,0.8548911500930786,0.43149998784065247,2.0085841507851323
0.7233250141143799,0.7958646008491516,0.42649999260902405,2.1975716035577317
0.7461000084877014,0.7350995219230652,0.39640000462532043,2.3400110383576984
0.772225022315979,0.6647200846195221,0.41179999709129333,2.2810276897647714
0.7767249941825867,0.6508976269245148,0.43230000138282776,2.2506489270850074
0.7724499702453613,0.6503611354827881,0.43059998750686646,2.3976974608022954
0.7742499709129333,0.6451564484119415,0.4253999888896942,2.355499916438815
0.7862250208854675,0.618658099746704,0.41819998621940613,2.362335656262651
0.8064500093460083,0.5623754193305969,0.41679999232292175,2.465478800520112
0.830049991607666,0.4971858130216599,0.4120999872684479,2.749365275419211
0.841825008392334,0.45899990379810335,0.42260000109672546,2.9121416429930096
0.8564749956130981,0.4172586888313293,0.4223000109195709,3.0570720358739925
0.8633999824523926,0.3912880982279778,0.4262000024318695,3.1358120441436768
0.8610749840736389,0.39978300651311877,0.41110000014305115,3.1855538163004042
0.8697999715805054,0.37166852922439575,0.41929998993873596,3.2379118822797945
0.885325014591217,0.33052555205821993,0.41679999232292175,3.2604180861123
0.8944249749183655,0.3092872260808945,0.40549999475479126,3.433700573595264
0.8964750170707703,0.29521503251791,0.39660000801086426,3.7522279582446134
0.8929250240325928,0.30878926832675935,0.39820000529289246,3.706081502045257
0.9039750099182129,0.28254761662483213,0.3955000042915344,3.7583075384550457
0.9206749796867371,0.2337634764432907,0.37380000948905945,3.907271342941477
0.939424991607666,0.18194766499996184,0.35749998688697815,4.268355146239076
0.9406999945640564,0.17611742963790894,0.3513000011444092,4.8130389678327345
0.9489750266075134,0.15445098224878312,0.36730000376701355,4.728003806705717
0.9563500285148621,0.1337917223751545,0.39430001378059387,4.751139824903464
0.9554749727249146,0.13272166361808777,0.4115000069141388,4.892974449109428
0.9502249956130981,0.1484671514749527,0.39730000495910645,5.083720735356778
0.9564999938011169,0.13131954026818277,0.3880000114440918,5.31112658524815
0.9567000269889832,0.12870156913399697,0.3831999897956848,5.378849832317497
0.9603999853134155,0.11614891310334205,0.3749000132083893,5.44040460224393
0.9543250203132629,0.13597415001392366,0.37709999084472656,5.501365426220471
0.9483500123023987,0.15139475348591805,0.3765999972820282,5.5474031454400174
0.9496750235557556,0.15001554107666015,0.4056999981403351,5.144189001638678
0.9668499827384949,0.09814005897641181,0.39719998836517334,5.456357937824877
0.9753749966621399,0.07467536895275116,0.38690000772476196,5.385865163199509
0.9795250296592712,0.06442556535899639,0.3912999927997589,5.568322966370402
0.9817249774932861,0.05614682999700308,0.39079999923706055,5.773466605174391
0.9854750037193298,0.04601942111775279,0.4117000102996826,5.985991411571261
0.9859750270843506,0.04288708778992295,0.3991999924182892,6.194005072871341
0.9873250126838684,0.038223687770497054,0.4052000045776367,6.312761282619042
0.9862750172615051,0.04233261324614286,0.4058000147342682,6.563957932629163
0.9861999750137329,0.04182861962579191,0.4117000102996826,6.441293076623844
0.9891499876976013,0.03454243030771613,0.4147000014781952,6.844471122645125
0.9899250268936157,0.030042868413031103,0.41449999809265137,6.820784629145755
0.9899500012397766,0.030986746303364635,0.4147999882698059,7.0884957011741925
0.9884999990463257,0.035731342238932845,0.413100004196167,7.012710698043244
0.987725019454956,0.03564307112861425,0.41370001435279846,7.123978681202177
0.9865750074386597,0.03932132643610239,0.4041999876499176,7.34200149246409
0.9870749711990356,0.03885082325860858,0.40700000524520874,7.336155921598024
0.9870749711990356,0.039178427093476055,0.4180999994277954,7.307154184655298
0.9864749908447266,0.04066916576772928,0.4075999855995178,7.438600763489928
0.986175000667572,0.04025331721454859,0.4081000089645386,7.3198799845538565
0.9908999800682068,0.02784900292791426,0.4113999903202057,7.574365996107271
0.9877499938011169,0.03631239040568471,0.41359999775886536,7.956310048888001
0.988349974155426,0.03401142098754644,0.40720000863075256,7.799383097057101
0.9891999959945679,0.03326197771001607,0.4081999957561493,7.738349196277087
0.9890750050544739,0.034239391940832135,0.40639999508857727,7.53763321381581
0.9907500147819519,0.027753843592107297,0.4124000072479248,7.677384298059005
0.9908249974250793,0.027868967925198378,0.4047999978065491,7.69321120539798
0.9901750087738037,0.03013220805041492,0.4081999957561493,7.8744468809683115
0.9903249740600586,0.028201719975098967,0.4120999872684479,7.969475824621659
0.9889749884605408,0.032729203769564626,0.4131999909877777,8.08261326294911
0.9887250065803528,0.03499591557141393,0.41190001368522644,7.9864440145371836
0.9893249869346619,0.03164970781635493,0.41290000081062317,7.763595900958097
0.9916750192642212,0.025370602099597454,0.40310001373291016,8.029896211020555
0.9875500202178955,0.04090141509454697,0.4074000120162964,7.93361792986906
0.990149974822998,0.03064040819918737,0.4154999852180481,7.970159609106522
0.9909999966621399,0.02722994106002152,0.41280001401901245,8.016821975949444
0.9919499754905701,0.024815567221306265,0.4122999906539917,8.358652187299125
0.9901000261306763,0.02955773268006742,0.4072999954223633,8.021282998821404
0.9872999787330627,0.04054737566821277,0.40959998965263367,7.705288410186768
0.9900000095367432,0.031457567982375624,0.41110000014305115,7.916045798531061
0.9901250004768372,0.029355035018734633,0.41179999709129333,8.142732620239258
0.9917250275611877,0.024618252081796528,0.4212999939918518,8.389027317868003
0.991100013256073,0.026935338895581664,0.41600000858306885,8.340253829956055
0.9914000034332275,0.024791292642802,0.4120999872684479,8.62273197536227
0.9919750094413757,0.02415696813762188,0.4140999913215637,8.47200127492977
0.9917250275611877,0.02490146985761821,0.41179999709129333,8.560556490210038
