epoch,scaling,scale,wavelength,sigma
0.0,0.10000000149011612,0.10000000149011612,0.10000000149011612,0.33000001311302185
1.0,0.16313348710536957,-0.029312696307897568,0.22014008462429047,0.19522538781166077
2.0,0.14695599675178528,-0.0497279092669487,0.23929744958877563,0.17876406013965607
3.0,0.14900383353233337,-0.05209707096219063,0.2431178241968155,0.1741991937160492
4.0,0.14980269968509674,-0.054217997938394547,0.2462397664785385,0.1751859188079834
5.0,0.15243788063526154,-0.05603126436471939,0.2495983988046646,0.17101413011550903
6.0,0.15853191912174225,-0.05287136137485504,0.2474721521139145,0.1781434863805771
7.0,0.15553876757621765,-0.060231782495975494,0.2563808858394623,0.17152579128742218
8.0,0.16748230159282684,-0.05470868945121765,0.2533152103424072,0.17246030271053314
9.0,0.17915360629558563,-0.04674845188856125,0.24675694108009338,0.171372190117836
10.0,0.18510380387306213,-0.045088522136211395,0.2467111200094223,0.17498765885829926
11.0,0.18995054066181183,-0.04402989149093628,0.24705660343170166,0.17570899426937103
12.0,0.19155430793762207,-0.05174741521477699,0.25827574729919434,0.17179085314273834
13.0,0.19759446382522583,-0.048030123114585876,0.2554682493209839,0.17098480463027954
14.0,0.1983761191368103,-0.05017976090312004,0.2587330639362335,0.17012041807174683
15.0,0.20282697677612305,-0.05174076184630394,0.26221203804016113,0.16775499284267426
16.0,0.21120837330818176,-0.0446779802441597,0.2555563747882843,0.16992482542991638
17.0,0.21413089334964752,-0.0445486456155777,0.25637030601501465,0.16822543740272522
18.0,0.2180740237236023,-0.04399149492383003,0.25693729519844055,0.16825589537620544
19.0,0.22278490662574768,-0.040412791073322296,0.25370103120803833,0.16848959028720856
20.0,0.2254534214735031,-0.041181229054927826,0.2555961012840271,0.16798850893974304
21.0,0.22784020006656647,-0.04305683448910713,0.2588397264480591,0.16789397597312927
22.0,0.2255192995071411,-0.04900278151035309,0.265972375869751,0.16301332414150238
23.0,0.24006301164627075,-0.040865931659936905,0.2596764862537384,0.16795262694358826
24.0,0.24354714155197144,-0.03876625373959541,0.25799259543418884,0.16877105832099915
25.0,0.2481747269630432,-0.037172432988882065,0.2572597563266754,0.16537047922611237
26.0,0.24933838844299316,-0.03751122206449509,0.2580513656139374,0.16494645178318024
27.0,0.2554927170276642,-0.03324917331337929,0.254299521446228,0.16338464617729187
28.0,0.2598631680011749,-0.03153020516037941,0.2533479630947113,0.1683008074760437
29.0,0.26204320788383484,-0.03126725181937218,0.2536237835884094,0.169900581240654
30.0,0.2663334608078003,-0.03305577114224434,0.25703468918800354,0.16506944596767426
31.0,0.2681872248649597,-0.03421179577708244,0.2590305805206299,0.16365303099155426
32.0,0.27624818682670593,-0.02770392969250679,0.252847284078598,0.1686672419309616
33.0,0.27991339564323425,-0.03335701301693916,0.2607901990413666,0.16242721676826477
34.0,0.2816314101219177,-0.03633152320981026,0.26487547159194946,0.15908300876617432
35.0,0.2945438623428345,-0.033553607761859894,0.26446473598480225,0.15910544991493225
36.0,0.3016473352909088,-0.029724664986133575,0.26130422949790955,0.1626114398241043
37.0,0.3174873888492584,-0.023095861077308655,0.2565637528896332,0.15706685185432434
38.0,0.32301169633865356,-0.020042313262820244,0.2539319396018982,0.16061697900295258
39.0,0.32630863785743713,-0.01870148256421089,0.2529658377170563,0.15913330018520355
40.0,0.32321590185165405,-0.025995267555117607,0.2611958086490631,0.15345340967178345
41.0,0.3324120044708252,-0.01979314349591732,0.2554819881916046,0.15904374420642853
42.0,0.33579838275909424,-0.018550125882029533,0.2545941174030304,0.16125380992889404
43.0,0.33798739314079285,-0.018122421577572823,0.2544642686843872,0.15946102142333984
44.0,0.34076863527297974,-0.02122591622173786,0.25857484340667725,0.15799950063228607
45.0,0.34766489267349243,-0.01786603033542633,0.25569868087768555,0.16432425379753113
46.0,0.3489018976688385,-0.023517275229096413,0.26248252391815186,0.16274908185005188
47.0,0.35255590081214905,-0.023564860224723816,0.2631014585494995,0.16109196841716766
48.0,0.3663298487663269,-0.026331909000873566,0.26872631907463074,0.15576434135437012
49.0,0.37616074085235596,-0.020716307684779167,0.2639104127883911,0.15991422533988953
50.0,0.37769457697868347,-0.020956410095095634,0.26445239782333374,0.16056855022907257
51.0,0.3776131570339203,-0.023676959797739983,0.26768064498901367,0.15686218440532684
52.0,0.3862455487251282,-0.014653809368610382,0.25839439034461975,0.16650088131427765
53.0,0.3882051110267639,-0.0231858491897583,0.26880788803100586,0.1614617109298706
54.0,0.394000768661499,-0.027787597849965096,0.27519145607948303,0.1605069637298584
55.0,0.406970739364624,-0.023172665387392044,0.27194923162460327,0.16475628316402435
56.0,0.4114740490913391,-0.021681277081370354,0.270860880613327,0.16435682773590088
57.0,0.4109165370464325,-0.02374809980392456,0.2732430398464203,0.16173946857452393
58.0,0.4127679467201233,-0.02447064034640789,0.27440202236175537,0.168021559715271
59.0,0.41035857796669006,-0.029065560549497604,0.2795245051383972,0.16223974525928497
60.0,0.41536596417427063,-0.028132641687989235,0.2792396545410156,0.16603879630565643
61.0,0.4232492744922638,-0.026287341490387917,0.27823105454444885,0.16567862033843994
62.0,0.4234245717525482,-0.028192810714244843,0.2805473804473877,0.1618792861700058
63.0,0.41674187779426575,-0.03659334033727646,0.2895088493824005,0.1627398431301117
64.0,0.42786189913749695,-0.03454906865954399,0.2889806926250458,0.16281475126743317
65.0,0.4423777759075165,-0.025324810296297073,0.28048205375671387,0.17148876190185547
66.0,0.43728315830230713,-0.03387424722313881,0.2899429202079773,0.16508008539676666
67.0,0.44372570514678955,-0.03060608170926571,0.287157267332077,0.16542448103427887
68.0,0.4498436152935028,-0.03111300803720951,0.28884226083755493,0.16378560662269592
69.0,0.4611707627773285,-0.023883657529950142,0.2821137011051178,0.16550229489803314
70.0,0.46331003308296204,-0.024962252005934715,0.2837640345096588,0.1635105311870575
71.0,0.4643959701061249,-0.02654338628053665,0.2858300805091858,0.16022737324237823
72.0,0.4700157046318054,-0.025252047926187515,0.2852051556110382,0.16318118572235107
73.0,0.47413066029548645,-0.027633683755993843,0.28871598839759827,0.16189806163311005
74.0,0.4824174642562866,-0.024571003392338753,0.28636863827705383,0.16677002608776093
75.0,0.5030726790428162,-0.015443668700754642,0.2793177664279938,0.17265842854976654
76.0,0.5041968822479248,-0.019998418167233467,0.28507375717163086,0.16673748195171356
77.0,0.5081546306610107,-0.028230369091033936,0.29563048481941223,0.16548269987106323
78.0,0.5107595920562744,-0.029122043401002884,0.29716548323631287,0.1636476069688797
79.0,0.5172669887542725,-0.02681613527238369,0.29547300934791565,0.1619427651166916
80.0,0.5227349996566772,-0.025678066536784172,0.29500359296798706,0.16569478809833527
81.0,0.5311412811279297,-0.019061893224716187,0.2883618474006653,0.16922885179519653
82.0,0.5293445587158203,-0.02331460639834404,0.2931818664073944,0.163710355758667
83.0,0.5329977869987488,-0.023113910108804703,0.2934986352920532,0.16206711530685425
84.0,0.5409849286079407,-0.017778927460312843,0.28830358386039734,0.167724609375
85.0,0.5471811890602112,-0.015663785859942436,0.286556601524353,0.1650673896074295
86.0,0.5549706220626831,-0.01412118598818779,0.28564634919166565,0.1641387790441513
87.0,0.5662720799446106,-0.013201845809817314,0.28563570976257324,0.16268391907215118
88.0,0.5751091241836548,-0.011946250684559345,0.2850944995880127,0.16310405731201172
89.0,0.5839207172393799,-0.014291134662926197,0.28877684473991394,0.16558769345283508
90.0,0.593153178691864,-0.011582446284592152,0.28652313351631165,0.17033742368221283
91.0,0.59433513879776,-0.017158174887299538,0.2931172549724579,0.16388781368732452
92.0,0.614629864692688,-0.015225771814584732,0.292752742767334,0.16788767278194427
93.0,0.6151875257492065,-0.019116073846817017,0.29753419756889343,0.16587597131729126
94.0,0.6380035877227783,-0.011224628426134586,0.2904677391052246,0.16444464027881622
95.0,0.6443678140640259,-0.00976569950580597,0.2893252372741699,0.16574382781982422
96.0,0.6513306498527527,-0.010154688730835915,0.29036733508110046,0.1670018881559372
97.0,0.6678686738014221,-0.013288209214806557,0.29547959566116333,0.1644553393125534
98.0,0.6956802010536194,-0.013633893802762032,0.3000916540622711,0.1670396775007248
99.0,0.7037521600723267,-0.009541019797325134,0.2958541512489319,0.16813862323760986
100.0,0.7082928419113159,-0.009139242582023144,0.2957693040370941,0.16811774671077728
