epoch,scaling,scale,wavelength,sigma
0.0,0.10000000149011612,0.10000000149011612,0.10000000149011612,0.33000001311302185
1.0,0.09948664158582687,0.09960581362247467,0.10014214366674423,0.31023678183555603
2.0,0.1242312416434288,-0.06317532807588577,0.23306944966316223,0.14198170602321625
3.0,0.08216646313667297,-0.10580020397901535,0.27096015214920044,0.11376643925905228
4.0,0.10530144721269608,-0.09091843664646149,0.26061058044433594,0.13625448942184448
5.0,0.10802312940359116,-0.09071866422891617,0.26160743832588196,0.1437610536813736
6.0,0.082613505423069,-0.1195036992430687,0.2916323244571686,0.11845206469297409
7.0,0.09417855739593506,-0.11103256046772003,0.2846215069293976,0.12982796132564545
8.0,0.0966821163892746,-0.1101624146103859,0.2844405174255371,0.13168635964393616
9.0,0.09822669625282288,-0.11095203459262848,0.2863011360168457,0.13033756613731384
10.0,0.09775344282388687,-0.11339539289474487,0.28978732228279114,0.1303175985813141
11.0,0.10777308791875839,-0.10859356820583344,0.2882465422153473,0.13975195586681366
12.0,0.11930377036333084,-0.09860225021839142,0.27912309765815735,0.14815765619277954
13.0,0.10344383120536804,-0.11853861063718796,0.3009544312953949,0.12717652320861816
14.0,0.11583425104618073,-0.1076570525765419,0.2909453213214874,0.13618841767311096
15.0,0.11707374453544617,-0.10748596489429474,0.29137906432151794,0.1391759216785431
16.0,0.11932370811700821,-0.10701977461576462,0.2919755280017853,0.1373504400253296
17.0,0.12371822446584702,-0.10375382006168365,0.28936856985092163,0.1400071531534195
18.0,0.12544482946395874,-0.10388112813234329,0.290574848651886,0.13861992955207825
19.0,0.13397246599197388,-0.0965595543384552,0.2839929461479187,0.14616906642913818
20.0,0.13248763978481293,-0.10023946315050125,0.2889527678489685,0.14385895431041718
21.0,0.13391880691051483,-0.10022224485874176,0.2897118330001831,0.14449062943458557
22.0,0.13439695537090302,-0.10122997313737869,0.29155346751213074,0.136276975274086
23.0,0.13050596415996552,-0.10665730386972427,0.29780328273773193,0.1287287324666977
24.0,0.14101704955101013,-0.09736600518226624,0.2893359363079071,0.1387181580066681
25.0,0.14836251735687256,-0.09056321531534195,0.2829931974411011,0.13828805088996887
26.0,0.15813371539115906,-0.08286110311746597,0.27664005756378174,0.14970672130584717
27.0,0.15238933265209198,-0.09149058908224106,0.28671929240226746,0.1427440047264099
28.0,0.1588178128004074,-0.08626314997673035,0.2821715474128723,0.14320184290409088
29.0,0.150351420044899,-0.09689649194478989,0.2937990725040436,0.13358908891677856
30.0,0.16578061878681183,-0.0845034047961235,0.28291913866996765,0.15717728435993195
31.0,0.15940482914447784,-0.0930044949054718,0.2924748659133911,0.1549340933561325
32.0,0.15043269097805023,-0.10367433726787567,0.3039124310016632,0.1464506834745407
33.0,0.15473274886608124,-0.1003234013915062,0.30104008316993713,0.15006621181964874
34.0,0.1448625773191452,-0.11121614277362823,0.3124403655529022,0.1387569010257721
35.0,0.15054894983768463,-0.10774917900562286,0.31010761857032776,0.13975799083709717
36.0,0.16032621264457703,-0.09986595064401627,0.30323559045791626,0.14669795334339142
37.0,0.1684362143278122,-0.09229035675525665,0.29597365856170654,0.15516002476215363
38.0,0.1563987135887146,-0.10679122060537338,0.3117842674255371,0.14558224380016327
39.0,0.17425309121608734,-0.093641497194767,0.30129775404930115,0.1587001085281372
40.0,0.16601109504699707,-0.10429737716913223,0.3132414221763611,0.15142619609832764
41.0,0.16685862839221954,-0.10410498082637787,0.3133906424045563,0.15357379615306854
42.0,0.16705136001110077,-0.10573194921016693,0.31590309739112854,0.14871738851070404
43.0,0.17120464146137238,-0.10353890061378479,0.3147679269313812,0.148706316947937
44.0,0.17450031638145447,-0.10064374655485153,0.3120999038219452,0.14963600039482117
45.0,0.17942291498184204,-0.09632164239883423,0.30811724066734314,0.15041108429431915
46.0,0.17703869938850403,-0.10001774877309799,0.31257185339927673,0.144526869058609
47.0,0.1897323727607727,-0.08663724362850189,0.2988598942756653,0.15333439409732819
48.0,0.18698184192180634,-0.09100381284952164,0.30416691303253174,0.15072421729564667
49.0,0.18721149861812592,-0.09246058762073517,0.3065494894981384,0.1497592180967331
50.0,0.18506404757499695,-0.09788182377815247,0.31372377276420593,0.14418019354343414
51.0,0.19108909368515015,-0.09470955282449722,0.31204360723495483,0.13955959677696228
52.0,0.20546187460422516,-0.07938314229249954,0.2962397038936615,0.15244650840759277
53.0,0.2100042700767517,-0.0754874125123024,0.29277750849723816,0.15525445342063904
54.0,0.20869509875774384,-0.07905760407447815,0.29756101965904236,0.14661109447479248
55.0,0.2078503966331482,-0.08116183429956436,0.30033010244369507,0.14790326356887817
56.0,0.21228383481502533,-0.07715053856372833,0.2965589165687561,0.15225377678871155
57.0,0.21146495640277863,-0.0790518969297409,0.29900577664375305,0.148292675614357
58.0,0.20931614935398102,-0.08847980946302414,0.31134462356567383,0.13338163495063782
59.0,0.21773478388786316,-0.08029035478830338,0.30321136116981506,0.1399858593940735
60.0,0.221614271402359,-0.07621090859174728,0.2990131974220276,0.14271357655525208
61.0,0.22347082197666168,-0.07441674917936325,0.29724353551864624,0.1443490833044052
62.0,0.22324082255363464,-0.07493522018194199,0.29790979623794556,0.14348922669887543
63.0,0.22558066248893738,-0.07251659780740738,0.29544490575790405,0.14526818692684174
64.0,0.22127744555473328,-0.07764392346143723,0.3009958863258362,0.13993774354457855
65.0,0.2253788411617279,-0.07371117919683456,0.2971397638320923,0.14414119720458984
66.0,0.2343197613954544,-0.06716438382863998,0.2918073832988739,0.14993587136268616
67.0,0.2318815290927887,-0.07057403773069382,0.2956843376159668,0.14741994440555573
68.0,0.23162466287612915,-0.07167720794677734,0.2971874475479126,0.14467695355415344
69.0,0.23527513444423676,-0.06814810633659363,0.2937053442001343,0.14693652093410492
70.0,0.2354142814874649,-0.06934287399053574,0.2955203652381897,0.1452912837266922
71.0,0.2301473617553711,-0.07615623623132706,0.30305755138397217,0.13905787467956543
72.0,0.23515614867210388,-0.0720076709985733,0.2992897629737854,0.13965779542922974
73.0,0.24143783748149872,-0.0661005899310112,0.29354730248451233,0.14559325575828552
74.0,0.2401609569787979,-0.06918931007385254,0.2974322438240051,0.14118613302707672
75.0,0.24150605499744415,-0.06927548348903656,0.29815199971199036,0.13843008875846863
76.0,0.2393074482679367,-0.07411108165979385,0.3041035830974579,0.13259214162826538
77.0,0.2525523602962494,-0.06139056384563446,0.2915795147418976,0.14121310412883759
78.0,0.25677141547203064,-0.058960046619176865,0.2899012267589569,0.14083583652973175
79.0,0.25841024518013,-0.05902501568198204,0.29066529870033264,0.14212143421173096
80.0,0.2377147078514099,-0.08310656249523163,0.31585565209388733,0.1179361492395401
81.0,0.26155421137809753,-0.06548097729682922,0.30000004172325134,0.1344383805990219
82.0,0.266480416059494,-0.06113350763916969,0.2957882881164551,0.13834582269191742
83.0,0.2665254473686218,-0.061186328530311584,0.29587480425834656,0.13658539950847626
84.0,0.272087037563324,-0.056050702929496765,0.2908145487308502,0.14140743017196655
85.0,0.27175578474998474,-0.05680716037750244,0.29172754287719727,0.13958539068698883
86.0,0.27542388439178467,-0.05329136922955513,0.2882172465324402,0.143687441945076
87.0,0.27375829219818115,-0.055313095450401306,0.2903904914855957,0.14046931266784668
88.0,0.277230441570282,-0.052220579236745834,0.2873896062374115,0.14229339361190796
89.0,0.2782577872276306,-0.05152511224150658,0.28680357336997986,0.14526285231113434
90.0,0.27307459712028503,-0.057513706386089325,0.2931514084339142,0.14153452217578888
91.0,0.2700134217739105,-0.06106330081820488,0.2969125509262085,0.1364864706993103
92.0,0.2734169661998749,-0.05924015864729881,0.29561054706573486,0.14007888734340668
93.0,0.2713393568992615,-0.062177956104278564,0.29888245463371277,0.14000819623470306
94.0,0.273023396730423,-0.06167297810316086,0.2987785339355469,0.13768072426319122
95.0,0.2891049385070801,-0.048122819513082504,0.28602510690689087,0.14679309725761414
96.0,0.2843431234359741,-0.055011648684740067,0.2937238812446594,0.14037920534610748
97.0,0.28680768609046936,-0.054325398057699203,0.29364970326423645,0.14284449815750122
98.0,0.29139721393585205,-0.052590031176805496,0.292842298746109,0.1431116908788681
99.0,0.29271218180656433,-0.0535692423582077,0.2946183979511261,0.13972999155521393
100.0,0.29759481549263,-0.05037069320678711,0.2919577956199646,0.14460071921348572
