epoch,scaling,scale,wavelength,sigma
0.0,0.10000000149011612,0.10000000149011612,0.10000000149011612,0.33000001311302185
1.0,0.13155151903629303,0.0603349506855011,0.13682524859905243,0.2682207226753235
2.0,0.11547388136386871,-0.07726716250181198,0.2462814450263977,0.11625344306230545
3.0,0.11298561841249466,-0.08432938158512115,0.25511953234672546,0.11904510855674744
4.0,0.10349550098180771,-0.09775233268737793,0.27008163928985596,0.11354080587625504
5.0,0.10709936916828156,-0.0973433256149292,0.2710118591785431,0.12263944745063782
6.0,0.0976264700293541,-0.10839003324508667,0.2824162542819977,0.11492342501878738
7.0,0.10475966334342957,-0.10387955605983734,0.2793748378753662,0.12202213704586029
8.0,0.0914069265127182,-0.11869190633296967,0.294507771730423,0.11626686900854111
9.0,0.10562275350093842,-0.10779040306806564,0.2852442264556885,0.12551574409008026
10.0,0.08886543661355972,-0.12641413509845734,0.3044586479663849,0.11296205222606659
11.0,0.10372760146856308,-0.11307131499052048,0.29217538237571716,0.12946626543998718
12.0,0.10873402655124664,-0.10937110334634781,0.2893450856208801,0.1368883103132248
13.0,0.09320808947086334,-0.12744152545928955,0.3084854483604431,0.1220569834113121
14.0,0.1079551950097084,-0.11488496512174606,0.2971998155117035,0.13703830540180206
15.0,0.09691138565540314,-0.12850232422351837,0.31201860308647156,0.1316794902086258
16.0,0.09154387563467026,-0.1348872035741806,0.31884896755218506,0.1293562650680542
17.0,0.10424216091632843,-0.1250586360692978,0.3106052279472351,0.13585300743579865
18.0,0.11109994351863861,-0.1200227290391922,0.306606262922287,0.1448274701833725
19.0,0.10408829152584076,-0.1301977038383484,0.318511039018631,0.13200031220912933
20.0,0.10505740344524384,-0.13082686066627502,0.3199687898159027,0.13293664157390594
21.0,0.10553794354200363,-0.13223235309123993,0.32243505120277405,0.13234104216098785
22.0,0.115178182721138,-0.1239565759897232,0.3150855600833893,0.1433984786272049
23.0,0.11268142610788345,-0.12892623245716095,0.3214433193206787,0.1370364874601364
24.0,0.1235671266913414,-0.12030373513698578,0.3143829107284546,0.1515921950340271
25.0,0.12379246205091476,-0.12258762866258621,0.3180619776248932,0.14797274768352509
26.0,0.11502746492624283,-0.13321194052696228,0.3296893239021301,0.13870009779930115
27.0,0.12429475039243698,-0.12510651350021362,0.32229214906692505,0.14613394439220428
28.0,0.12226162850856781,-0.12847356498241425,0.32645493745803833,0.14136840403079987
29.0,0.12474457174539566,-0.12986037135124207,0.3300263583660126,0.1476951390504837
30.0,0.12076850235462189,-0.13464155793190002,0.3352528214454651,0.14288710057735443
31.0,0.12131607532501221,-0.13531126081943512,0.3366585671901703,0.1421763151884079
32.0,0.1303558200597763,-0.12848101556301117,0.33109357953071594,0.1472741961479187
33.0,0.13411109149456024,-0.1257556825876236,0.3290039300918579,0.14836619794368744
34.0,0.14041124284267426,-0.12055560946464539,0.3245392143726349,0.15273863077163696
35.0,0.13776832818984985,-0.12509112060070038,0.33015403151512146,0.14795628190040588
36.0,0.1349952518939972,-0.12899470329284668,0.3347027897834778,0.1378551572561264
37.0,0.15235136449337006,-0.1107049435377121,0.3159172236919403,0.15532000362873077
38.0,0.14744247496128082,-0.11825914680957794,0.3251833915710449,0.1418435424566269
39.0,0.13831797242164612,-0.12936633825302124,0.3374616205692291,0.12849533557891846
40.0,0.15067355334758759,-0.11895013600587845,0.3283412456512451,0.13541509211063385
41.0,0.15187397599220276,-0.11929886043071747,0.3296678066253662,0.13842931389808655
42.0,0.16553719341754913,-0.1068701520562172,0.3180217444896698,0.14102789759635925
43.0,0.1705150008201599,-0.10297856479883194,0.31488898396492004,0.14394399523735046
44.0,0.16983214020729065,-0.10550706088542938,0.31854814291000366,0.13974620401859283
45.0,0.17068997025489807,-0.10590630769729614,0.3196861445903778,0.13938648998737335
46.0,0.17875432968139648,-0.09868716448545456,0.31307610869407654,0.13907267153263092
47.0,0.18128152191638947,-0.09654736518859863,0.3112146258354187,0.1412803828716278
48.0,0.18058210611343384,-0.09833023697137833,0.31360387802124023,0.13806970417499542
49.0,0.18057744204998016,-0.09993693977594376,0.3161199688911438,0.13549351692199707
50.0,0.19150622189044952,-0.0894092246890068,0.3059414029121399,0.1422545164823532
51.0,0.1901814490556717,-0.09185481816530228,0.3090243935585022,0.14100514352321625
52.0,0.18790128827095032,-0.09683144837617874,0.31542879343032837,0.13491594791412354
53.0,0.1960897445678711,-0.09034863859415054,0.3099516034126282,0.14078685641288757
54.0,0.19707272946834564,-0.09168184548616409,0.3124896287918091,0.14130516350269318
55.0,0.2025689333677292,-0.08730073273181915,0.30870604515075684,0.14227931201457977
56.0,0.20055101811885834,-0.091178297996521,0.3135622441768646,0.14065133035182953
57.0,0.20337502658367157,-0.09000587463378906,0.31325915455818176,0.14273808896541595
58.0,0.19207391142845154,-0.1037297397851944,0.3281612992286682,0.12648122012615204
59.0,0.21095626056194305,-0.08887144923210144,0.3153507113456726,0.13940955698490143
60.0,0.2026180922985077,-0.09856178611516953,0.32570135593414307,0.1259271651506424
61.0,0.21338936686515808,-0.08992617577314377,0.3180776834487915,0.13374893367290497
62.0,0.22176077961921692,-0.08196302503347397,0.31031885743141174,0.13634468615055084
63.0,0.2258213758468628,-0.07845605164766312,0.3070983290672302,0.13995549082756042
64.0,0.21889537572860718,-0.08733879029750824,0.31697985529899597,0.1341317743062973
65.0,0.22956670820713043,-0.07728768140077591,0.30724847316741943,0.14730843901634216
66.0,0.22853344678878784,-0.07973812520503998,0.3103753924369812,0.14514005184173584
67.0,0.22794164717197418,-0.0834244042634964,0.31555190682411194,0.1397760957479477
68.0,0.23368462920188904,-0.07880669832229614,0.31144508719444275,0.14667874574661255
69.0,0.2306848019361496,-0.08356883376836777,0.3170548677444458,0.14210738241672516
70.0,0.23481804132461548,-0.0824117362499237,0.3173527717590332,0.14567360281944275
71.0,0.24497298896312714,-0.07426945865154266,0.3101238012313843,0.15476451814174652
72.0,0.22899675369262695,-0.09238932281732559,0.32933372259140015,0.13510268926620483
73.0,0.23625007271766663,-0.08652934432029724,0.32408982515335083,0.1404532641172409
74.0,0.24148453772068024,-0.0836196318268776,0.3223048150539398,0.14446766674518585
75.0,0.23933571577072144,-0.08671113848686218,0.3258524537086487,0.14147980511188507
76.0,0.23735928535461426,-0.09010668098926544,0.32994046807289124,0.13648539781570435
77.0,0.24648764729499817,-0.08283299207687378,0.32350772619247437,0.14063550531864166
78.0,0.24532414972782135,-0.085268534719944,0.3265683650970459,0.13654272258281708
79.0,0.2502080798149109,-0.08202319592237473,0.3240969777107239,0.14262516796588898
80.0,0.2531520128250122,-0.08187492936849594,0.325218141078949,0.1398516297340393
81.0,0.2514863908290863,-0.08500467985868454,0.3290356993675232,0.13993646204471588
82.0,0.2514200806617737,-0.08727535605430603,0.33233070373535156,0.13681571185588837
83.0,0.2673488259315491,-0.07202165573835373,0.3173099160194397,0.14293603599071503
84.0,0.26263561844825745,-0.07987881451845169,0.3266259431838989,0.13339902460575104
85.0,0.2645784616470337,-0.07924860715866089,0.32658320665359497,0.1339188665151596
86.0,0.2675190567970276,-0.08254241198301315,0.3322088420391083,0.12424849718809128
87.0,0.28156885504722595,-0.069137804210186,0.3189598321914673,0.1354905068874359
88.0,0.2863713800907135,-0.06418293714523315,0.3139035105705261,0.13838300108909607
89.0,0.2862491309642792,-0.06454107165336609,0.3143673837184906,0.13954977691173553
90.0,0.2880077064037323,-0.0628497451543808,0.3126959502696991,0.14336134493350983
91.0,0.29000595211982727,-0.061910513788461685,0.31221312284469604,0.1444074660539627
92.0,0.2848753333091736,-0.06848748028278351,0.3194364905357361,0.13907314836978912
93.0,0.286980003118515,-0.06692598015069962,0.31809160113334656,0.14016716182231903
94.0,0.28964340686798096,-0.06562568247318268,0.3173448145389557,0.14392735064029694
95.0,0.2964579164981842,-0.0591667965054512,0.3109855055809021,0.15047909319400787
96.0,0.2807738184928894,-0.07706187665462494,0.3298929035663605,0.132473424077034
97.0,0.296636164188385,-0.06351276487112045,0.3171491324901581,0.1396133303642273
98.0,0.29888665676116943,-0.06303863227367401,0.3173961639404297,0.14466194808483124
99.0,0.2933517396450043,-0.06943374872207642,0.32416263222694397,0.1415213793516159
100.0,0.2900349497795105,-0.07452930510044098,0.329959511756897,0.13566654920578003
