epoch,scaling,scale,wavelength,sigma
0.0,0.10000000149011612,0.10000000149011612,0.10000000149011612,0.33000001311302185
1.0,0.1645047664642334,0.0043926904909312725,0.18931707739830017,0.23874755203723907
2.0,0.17184363305568695,-0.008402385748922825,0.2023095041513443,0.22345119714736938
3.0,0.18297339975833893,0.0017763602081686258,0.19265641272068024,0.23037514090538025
4.0,0.1917351633310318,-0.011273075826466084,0.2076992392539978,0.21481457352638245
5.0,0.1992410123348236,-0.009913090616464615,0.20688243210315704,0.21338456869125366
6.0,0.2076406180858612,-0.008593810722231865,0.20620132982730865,0.21435175836086273
7.0,0.21553348004817963,-0.008936470374464989,0.20741833746433258,0.21168456971645355
8.0,0.2642560303211212,0.008017889223992825,0.19312946498394012,0.22824367880821228
9.0,0.2786269783973694,-0.004937374964356422,0.2089948207139969,0.21287503838539124
10.0,0.2848198413848877,-0.0016483493382111192,0.205550417304039,0.21446102857589722
11.0,0.29410380125045776,-0.0032369745895266533,0.2081669718027115,0.2147306352853775
12.0,0.301003098487854,-0.0015093572437763214,0.20664794743061066,0.21459832787513733
13.0,0.3154242932796478,-0.001912453561089933,0.20804162323474884,0.2123149186372757
14.0,0.3264704644680023,-0.0014682912733405828,0.2082718312740326,0.21095959842205048
15.0,0.33991092443466187,0.003640672191977501,0.20297496020793915,0.2124154418706894
16.0,0.35869354009628296,0.005673902574926615,0.201506569981575,0.2140446901321411
17.0,0.3944079279899597,0.004400587175041437,0.2043178230524063,0.21435730159282684
18.0,0.4274201989173889,0.004802729468792677,0.20525293052196503,0.21473203599452972
19.0,0.4553314447402954,0.005707606673240662,0.2054780274629593,0.21198445558547974
20.0,0.4778992831707001,0.007018951699137688,0.20439550280570984,0.21138982474803925
21.0,0.5293293595314026,0.006804142612963915,0.20496128499507904,0.21085311472415924
22.0,0.5544471740722656,0.007755217142403126,0.2040315568447113,0.20947571098804474
23.0,0.5680696368217468,0.008304149843752384,0.20366185903549194,0.21342666447162628
24.0,0.5843385457992554,0.007650200743228197,0.20492945611476898,0.2134445458650589
25.0,0.6035097241401672,0.0065854210406541824,0.20665304362773895,0.21274812519550323
26.0,0.620925784111023,0.007837091572582722,0.20550455152988434,0.2124486118555069
27.0,0.6418207287788391,0.006687110289931297,0.20722997188568115,0.21055811643600464
28.0,0.6685764789581299,0.0076854950748384,0.20613810420036316,0.21031613647937775
29.0,0.6948580145835876,0.00897264201194048,0.2045222818851471,0.2106959968805313
30.0,0.7153517603874207,0.009359946474432945,0.2041304111480713,0.21082405745983124
31.0,0.7379899024963379,0.00859290175139904,0.20523449778556824,0.21082478761672974
32.0,0.7514885663986206,0.010467556305229664,0.2024727612733841,0.21164557337760925
33.0,0.7756543159484863,0.008359604515135288,0.20560726523399353,0.2109355926513672
34.0,0.7909849286079407,0.009615293703973293,0.20369860529899597,0.2119206339120865
35.0,0.8183982372283936,0.00939145777374506,0.20439012348651886,0.21262507140636444
36.0,0.8557841181755066,0.007789494935423136,0.20611369609832764,0.21069377660751343
37.0,0.8629182577133179,0.00988187175244093,0.20227603614330292,0.2112203985452652
38.0,0.8813124895095825,0.00790149625390768,0.20481650531291962,0.21101166307926178
39.0,0.8936439156532288,0.007896983996033669,0.2040519416332245,0.21082252264022827
40.0,0.9598671793937683,0.0038192435167729855,0.2059115171432495,0.2094689905643463
41.0,0.9846495389938354,0.0037672859616577625,0.21118897199630737,0.20585615932941437
42.0,0.9892238974571228,0.0025407581124454737,0.21087276935577393,0.20466157793998718
43.0,0.992887020111084,0.001682897680439055,0.21221239864826202,0.20505081117153168
44.0,0.9965358376502991,0.0008033228223212063,0.21062345802783966,0.20688194036483765
45.0,0.997587263584137,0.0005433299811556935,0.20877380669116974,0.20832344889640808
46.0,0.9985807538032532,0.000319445418426767,0.20900647342205048,0.20729760825634003
47.0,0.999131441116333,0.00019058147154282779,0.20706580579280853,0.2088164985179901
48.0,0.9999145269393921,2.2132397134555504e-05,0.21051830053329468,0.20757628977298737
49.0,1.0000016689300537,1.2338561816704896e-07,0.2093685269355774,0.20785968005657196
50.0,1.0000011920928955,-2.4777529361585948e-08,0.20547467470169067,0.20938463509082794
51.0,0.9999992847442627,3.1602393590901556e-08,0.20973899960517883,0.2046917974948883
52.0,1.0000004768371582,2.6201179892382243e-08,0.2082870751619339,0.205423966050148
53.0,1.0000004768371582,2.6423338184144995e-08,0.2092740535736084,0.20611438155174255
54.0,1.0000004768371582,4.108743567599049e-08,0.21054396033287048,0.20441065728664398
55.0,1.0,1.203963595486357e-08,0.20624692738056183,0.2072513997554779
56.0,1.0,1.203963595486357e-08,0.2056429386138916,0.20550459623336792
57.0,1.0,1.203963595486357e-08,0.2071441411972046,0.20705333352088928
58.0,1.0,1.203963595486357e-08,0.20706823468208313,0.20699185132980347
59.0,1.0,1.203963595486357e-08,0.20991389453411102,0.20719744265079498
60.0,1.0,1.203963595486357e-08,0.20781490206718445,0.2069307565689087
61.0,1.0,1.203963595486357e-08,0.20886576175689697,0.20724700391292572
62.0,1.0,1.203963595486357e-08,0.20802581310272217,0.20698826014995575
63.0,1.0000016689300537,-2.8422041964404343e-07,0.2083520144224167,0.20830082893371582
64.0,1.0150282382965088,-0.006680878810584545,0.21384523808956146,0.2108956277370453
65.0,0.9985612034797668,-0.0011276260484009981,0.21549807488918304,0.20770491659641266
66.0,1.0012913942337036,-0.0004705465107690543,0.22219499945640564,0.20794765651226044
67.0,1.0052968263626099,-0.003601468401029706,0.2220875322818756,0.20701348781585693
68.0,0.9955639839172363,0.00365815288387239,0.22288364171981812,0.20779284834861755
69.0,0.999998152256012,-1.1830916264443658e-05,0.22287510335445404,0.20861302316188812
70.0,1.0000008344650269,-1.8076860897053848e-07,0.22005774080753326,0.2097964882850647
71.0,1.0,-1.260990103446602e-07,0.21838483214378357,0.2112945020198822
72.0,0.9999998211860657,5.765856414541304e-08,0.22616302967071533,0.20904147624969482
73.0,1.0,2.738526916346018e-08,0.22434481978416443,0.21031202375888824
74.0,1.0,2.7306146677119614e-08,0.2255096435546875,0.2095116525888443
75.0,1.0,2.7306146677119614e-08,0.22522538900375366,0.20942169427871704
76.0,1.0,2.7306146677119614e-08,0.22484786808490753,0.20944936573505402
77.0,1.0,2.7306146677119614e-08,0.22777852416038513,0.21034172177314758
78.0,1.0,2.7306146677119614e-08,0.22550645470619202,0.21059943735599518
79.0,1.0,2.7306146677119614e-08,0.2233811616897583,0.210331529378891
80.0,1.0,2.7306146677119614e-08,0.2217458039522171,0.21048817038536072
81.0,1.0,2.7306146677119614e-08,0.22338323295116425,0.21017540991306305
82.0,1.0,2.7306146677119614e-08,0.2202053815126419,0.21175682544708252
83.0,1.0,2.7306146677119614e-08,0.2259567379951477,0.21069063246250153
84.0,0.9999580383300781,2.7657551981974393e-05,0.22408942878246307,0.21149024367332458
85.0,0.9993288516998291,0.003123968606814742,0.22728917002677917,0.21107660233974457
86.0,0.9995101690292358,0.00046722282422706485,0.23007968068122864,0.2095489352941513
87.0,1.000077247619629,-7.314327376661822e-05,0.2285526543855667,0.20830222964286804
88.0,0.9999973177909851,3.2910675145103596e-06,0.22954361140727997,0.20711563527584076
89.0,0.9942480325698853,0.005242344923317432,0.23042377829551697,0.20998971164226532
90.0,1.0012305974960327,-0.0014520561089739203,0.23024746775627136,0.2098298817873001
91.0,0.9999555945396423,-1.2373243407637347e-05,0.23263627290725708,0.2088758498430252
92.0,0.9986710548400879,-0.0012917225249111652,0.2327074408531189,0.2092639058828354
93.0,1.0000889301300049,8.862938557285815e-05,0.22920504212379456,0.21108385920524597
94.0,0.9999890327453613,-1.1061417353630532e-05,0.22858406603336334,0.21012255549430847
95.0,0.999999463558197,4.000313538199407e-07,0.2300397753715515,0.2094985395669937
96.0,0.9999997019767761,3.2298450491907715e-07,0.23131608963012695,0.20914509892463684
97.0,0.999999463558197,-2.267048557769158e-07,0.2353108823299408,0.20853576064109802
98.0,0.9999999403953552,1.2532223081507254e-07,0.23137757182121277,0.20951461791992188
99.0,1.000001072883606,1.1449128578533418e-06,0.23174238204956055,0.2104959487915039
100.0,1.0000029802322388,-2.7077310278400546e-06,0.23098748922348022,0.20828917622566223
