epoch,scaling,scale,wavelength,sigma
0.0,0.10000000149011612,0.10000000149011612,0.10000000149011612,0.33000001311302185
1.0,0.08528728038072586,0.11451879888772964,0.08549444377422333,0.32397860288619995
2.0,0.13478845357894897,-0.042213451117277145,0.2185772806406021,0.16480886936187744
3.0,0.0396919846534729,-0.11321603506803513,0.2660720646381378,0.12267253547906876
4.0,0.03886228799819946,-0.12477899342775345,0.27747997641563416,0.11975174397230148
5.0,0.030192455276846886,-0.14107827842235565,0.2949155569076538,0.10891363769769669
6.0,0.05536612495779991,-0.12242677062749863,0.28054752945899963,0.13238388299942017
7.0,0.05149434506893158,-0.13259285688400269,0.2932213842868805,0.12538819015026093
8.0,0.056692708283662796,-0.1292446404695511,0.291205495595932,0.13348844647407532
9.0,0.05447148159146309,-0.13331513106822968,0.2961043417453766,0.13312093913555145
10.0,0.05085614323616028,-0.13894207775592804,0.30267849564552307,0.13008780777454376
11.0,0.061911460012197495,-0.13158069550991058,0.29709261655807495,0.13831572234630585
12.0,0.05568120256066322,-0.13955576717853546,0.3058575689792633,0.1356135606765747
13.0,0.06138269230723381,-0.13641759753227234,0.30381491780281067,0.13956108689308167
14.0,0.05794168636202812,-0.14138983190059662,0.30959707498550415,0.14027349650859833
15.0,0.09458830952644348,-0.10511765629053116,0.27409011125564575,0.1824207752943039
16.0,0.07431618869304657,-0.13276538252830505,0.30628544092178345,0.15331505239009857
17.0,0.06831229478120804,-0.13984012603759766,0.31376031041145325,0.14603117108345032
18.0,0.06648113578557968,-0.14202621579170227,0.3160652816295624,0.14432212710380554
19.0,0.06835296005010605,-0.14100849628448486,0.31545397639274597,0.1472509652376175
20.0,0.082625612616539,-0.12741687893867493,0.30233749747276306,0.1644860804080963
21.0,0.06892406940460205,-0.1435541808605194,0.3195725381374359,0.15008963644504547
22.0,0.06979445368051529,-0.14378537237644196,0.320269376039505,0.149855837225914
23.0,0.06594948470592499,-0.14887003600597382,0.32595396041870117,0.14720231294631958
24.0,0.06536326557397842,-0.15191510319709778,0.3301897346973419,0.1468077003955841
25.0,0.07480368763208389,-0.1448889970779419,0.3245203495025635,0.15078097581863403
26.0,0.07723724097013474,-0.1444777548313141,0.3252051770687103,0.1528816968202591
27.0,0.08719447255134583,-0.134797602891922,0.3158133924007416,0.16667479276657104
28.0,0.07380577176809311,-0.15109041333198547,0.3336092531681061,0.14783509075641632
29.0,0.08523903042078018,-0.14156776666641235,0.3251974284648895,0.15713448822498322
30.0,0.09263671189546585,-0.13623648881912231,0.32115674018859863,0.16923454403877258
31.0,0.09462925791740417,-0.13740070164203644,0.32415929436683655,0.17091484367847443
32.0,0.07548268139362335,-0.1593581587076187,0.347533255815506,0.1539463996887207
33.0,0.08874297142028809,-0.14769864082336426,0.33684128522872925,0.16413582861423492
34.0,0.08622869104146957,-0.15322129428386688,0.34416472911834717,0.16393189132213593
35.0,0.08572666347026825,-0.1546453833580017,0.34609735012054443,0.16268333792686462
36.0,0.08816071599721909,-0.15413154661655426,0.3467209041118622,0.1659597009420395
37.0,0.09327267855405807,-0.15019258856773376,0.343535453081131,0.17058336734771729
38.0,0.08768677711486816,-0.15720979869365692,0.35133621096611023,0.1677533984184265
39.0,0.08419567346572876,-0.16181135177612305,0.35643818974494934,0.15878525376319885
40.0,0.09594222903251648,-0.15228575468063354,0.3482128083705902,0.170820415019989
41.0,0.08348456770181656,-0.16672630608081818,0.3636549711227417,0.15561628341674805
42.0,0.092757947742939,-0.15892784297466278,0.3568028509616852,0.16318275034427643
43.0,0.08987485617399216,-0.16344505548477173,0.362192839384079,0.16097158193588257
44.0,0.09480439126491547,-0.15961702167987823,0.3590700328350067,0.16259755194187164
45.0,0.09221385419368744,-0.16431905329227448,0.36495304107666016,0.16047845780849457
46.0,0.10203752666711807,-0.15533411502838135,0.35654523968696594,0.16782736778259277
47.0,0.0923689603805542,-0.16665111482143402,0.3687790632247925,0.16351725161075592
48.0,0.09450018405914307,-0.16646666824817657,0.36966365575790405,0.16154077649116516
49.0,0.11045372486114502,-0.15256431698799133,0.35723182559013367,0.1727132946252823
50.0,0.10148024559020996,-0.16366538405418396,0.3695566654205322,0.1604214906692505
51.0,0.10736413300037384,-0.15886318683624268,0.36548131704330444,0.16360817849636078
52.0,0.11219041049480438,-0.15574568510055542,0.3634825348854065,0.1639421433210373
53.0,0.10955846309661865,-0.15987026691436768,0.3685748875141144,0.15785472095012665
54.0,0.123774953186512,-0.14583323895931244,0.3547897934913635,0.17014485597610474
55.0,0.10510048270225525,-0.1670866459608078,0.3775564134120941,0.14913956820964813
56.0,0.12071113288402557,-0.15253466367721558,0.3637946546077728,0.1649290919303894
57.0,0.1193174496293068,-0.1557348519563675,0.368218332529068,0.16211926937103271
58.0,0.1227811723947525,-0.1530901938676834,0.3661313056945801,0.16468334197998047
59.0,0.1241510808467865,-0.15279297530651093,0.36652815341949463,0.16724653542041779
60.0,0.12624172866344452,-0.15178926289081573,0.3661932945251465,0.16610479354858398
61.0,0.1214875727891922,-0.1585347205400467,0.37421032786369324,0.1611926108598709
62.0,0.12425339221954346,-0.1572650521993637,0.3738991320133209,0.16666695475578308
63.0,0.12107281386852264,-0.1638341099023819,0.38240212202072144,0.15955300629138947
64.0,0.12750458717346191,-0.15917900204658508,0.3787682056427002,0.15909768640995026
65.0,0.12933528423309326,-0.15788932144641876,0.3778630197048187,0.16052179038524628
66.0,0.13328394293785095,-0.15588338673114777,0.37724846601486206,0.16564339399337769
67.0,0.1338285207748413,-0.1558508425951004,0.3775433897972107,0.16480036079883575
68.0,0.136896550655365,-0.15489621460437775,0.3779791295528412,0.1678178906440735
69.0,0.13902108371257782,-0.1534312218427658,0.3769330680370331,0.17142607271671295
70.0,0.13323941826820374,-0.1602822095155716,0.3844376802444458,0.1611335128545761
71.0,0.1409274786710739,-0.1535508781671524,0.37841662764549255,0.16997572779655457
72.0,0.14136025309562683,-0.15415626764297485,0.3796815276145935,0.16730955243110657
73.0,0.1492624133825302,-0.14694923162460327,0.37293708324432373,0.1729467660188675
74.0,0.14687718451023102,-0.15109124779701233,0.37827154994010925,0.17114627361297607
75.0,0.1407664269208908,-0.1591832935810089,0.3875610828399658,0.16591019928455353
76.0,0.14135757088661194,-0.15914958715438843,0.3879011869430542,0.16884908080101013
77.0,0.13841386139392853,-0.16328033804893494,0.3927499055862427,0.16726258397102356
78.0,0.1435139924287796,-0.15959705412387848,0.38995277881622314,0.17119479179382324
79.0,0.1420520693063736,-0.1639561653137207,0.39604800939559937,0.16755667328834534
80.0,0.14194199442863464,-0.16466110944747925,0.39714500308036804,0.16573242843151093
81.0,0.14765311777591705,-0.15960372984409332,0.39254093170166016,0.17228008806705475
82.0,0.14541950821876526,-0.16274069249629974,0.3962830901145935,0.16851064562797546
83.0,0.1452096849679947,-0.16372142732143402,0.3977660834789276,0.17264465987682343
84.0,0.14576126635074615,-0.16424493491649628,0.39896294474601746,0.17063482105731964
85.0,0.14659711718559265,-0.16611644625663757,0.40266919136047363,0.16667889058589935
86.0,0.1496025025844574,-0.16356880962848663,0.4004272520542145,0.16978305578231812
87.0,0.15307633578777313,-0.16079089045524597,0.3981267809867859,0.1728077083826065
88.0,0.15056070685386658,-0.16430005431175232,0.4022797644138336,0.171052023768425
89.0,0.14866268634796143,-0.1673978716135025,0.40618786215782166,0.16852006316184998
90.0,0.14498184621334076,-0.17193037271499634,0.4112410545349121,0.16052564978599548
91.0,0.14297130703926086,-0.17544721066951752,0.41572579741477966,0.16533763706684113
92.0,0.14876829087734222,-0.17209193110466003,0.41390886902809143,0.16204695403575897
93.0,0.15852443873882294,-0.16404281556606293,0.40709275007247925,0.16687074303627014
94.0,0.16055446863174438,-0.16236943006515503,0.40567609667778015,0.16805337369441986
95.0,0.1618748903274536,-0.1616925597190857,0.40546438097953796,0.17340929806232452
96.0,0.1592600792646408,-0.16537971794605255,0.4098643958568573,0.17411543428897858
97.0,0.15935459733009338,-0.16655687987804413,0.41186267137527466,0.17964714765548706
98.0,0.15754397213459015,-0.17057189345359802,0.4171598255634308,0.16638927161693573
99.0,0.16398876905441284,-0.1643790602684021,0.4111790955066681,0.1720360815525055
100.0,0.16322706639766693,-0.165876105427742,0.41319361329078674,0.17415335774421692
