epoch,scaling,scale,wavelength,sigma
0.0,0.10000000149011612,0.10000000149011612,0.10000000149011612,0.33000001311302185
1.0,0.09551990032196045,0.10212703794240952,0.09683089703321457,0.31844887137413025
2.0,0.13871929049491882,-0.006949722301214933,0.18259385228157043,0.19677415490150452
3.0,0.09698435664176941,-0.09312787652015686,0.24563537538051605,0.11438802629709244
4.0,0.08744321763515472,-0.10551854968070984,0.25793707370758057,0.1116449385881424
5.0,0.080169677734375,-0.11588774621486664,0.268656849861145,0.10807499289512634
6.0,0.09227705746889114,-0.10653099417686462,0.2609390914440155,0.12546388804912567
7.0,0.0528668537735939,-0.14716726541519165,0.30054518580436707,0.10667114704847336
8.0,0.07539832592010498,-0.1319318264722824,0.2891066372394562,0.12543313205242157
9.0,0.08023276925086975,-0.1288125365972519,0.28689488768577576,0.13282348215579987
10.0,0.07905162125825882,-0.13394396007061005,0.2939382791519165,0.1361686736345291
11.0,0.07724233716726303,-0.13771909475326538,0.29851385951042175,0.13723960518836975
12.0,0.07586029917001724,-0.1415911167860031,0.3034000098705292,0.13444794714450836
13.0,0.07445833086967468,-0.14525239169597626,0.30818355083465576,0.13410894572734833
14.0,0.08070892095565796,-0.1419956535100937,0.30674809217453003,0.14313918352127075
15.0,0.07587125897407532,-0.14869709312915802,0.3143123984336853,0.13827179372310638
16.0,0.08174251019954681,-0.14499004185199738,0.3118470013141632,0.14208272099494934
17.0,0.08571477979421616,-0.14262066781520844,0.310371071100235,0.14219388365745544
18.0,0.08878268301486969,-0.14184103906154633,0.3108840882778168,0.14562192559242249
19.0,0.08812520653009415,-0.14512303471565247,0.3155996799468994,0.14103777706623077
20.0,0.09608685970306396,-0.13817933201789856,0.30944979190826416,0.14682501554489136
21.0,0.09786546975374222,-0.1381980925798416,0.3106032907962799,0.14697980880737305
22.0,0.09790099412202835,-0.13962389528751373,0.31299489736557007,0.14925740659236908
23.0,0.09250988811254501,-0.14635330438613892,0.32053643465042114,0.14878319203853607
24.0,0.0913674458861351,-0.1507956087589264,0.326515793800354,0.14216478168964386
25.0,0.08949750661849976,-0.15587124228477478,0.3334144949913025,0.1339140385389328
26.0,0.10196148604154587,-0.14511574804782867,0.32383641600608826,0.14386968314647675
27.0,0.1056603267788887,-0.14261437952518463,0.32212725281715393,0.14861305058002472
28.0,0.10763734579086304,-0.14131230115890503,0.32128214836120605,0.15173573791980743
29.0,0.10635595768690109,-0.14425811171531677,0.3251998722553253,0.14776431024074554
30.0,0.11108964681625366,-0.14008066058158875,0.3214496970176697,0.14884163439273834
31.0,0.10904088616371155,-0.14433038234710693,0.3270457983016968,0.14939729869365692
32.0,0.11816629022359848,-0.13846774399280548,0.3233756422996521,0.15687203407287598
33.0,0.10636817663908005,-0.15154598653316498,0.33719155192375183,0.14781077206134796
34.0,0.11009858548641205,-0.1488305926322937,0.33510658144950867,0.1504017412662506
35.0,0.11202771961688995,-0.14786389470100403,0.33476346731185913,0.15438975393772125
36.0,0.1018841341137886,-0.15839210152626038,0.34543582797050476,0.1458989530801773
37.0,0.10946366935968399,-0.15259873867034912,0.3406713604927063,0.15176400542259216
38.0,0.10335779190063477,-0.1594233214855194,0.34785687923431396,0.14844971895217896
39.0,0.1168699711561203,-0.14772294461727142,0.33734503388404846,0.16190551221370697
40.0,0.10794966667890549,-0.15757855772972107,0.34771594405174255,0.15359346568584442
41.0,0.11340003460645676,-0.1546233743429184,0.3462318778038025,0.14915984869003296
42.0,0.12196128070354462,-0.1487913280725479,0.34210261702537537,0.15448293089866638
43.0,0.11976318806409836,-0.15176308155059814,0.3455561697483063,0.15141257643699646
44.0,0.12332089990377426,-0.1503966599702835,0.3456007242202759,0.15214033424854279
45.0,0.1299217790365219,-0.14462803304195404,0.34042277932167053,0.15801577270030975
46.0,0.1207764521241188,-0.15879535675048828,0.35741838812828064,0.14678917825222015
47.0,0.12543979287147522,-0.1544153094291687,0.3532644212245941,0.15076863765716553
48.0,0.12690046429634094,-0.15356239676475525,0.3528035879135132,0.15381388366222382
49.0,0.12940798699855804,-0.1512635350227356,0.3506649434566498,0.15972085297107697
50.0,0.12180469185113907,-0.15909305214881897,0.3585412800312042,0.15288689732551575
51.0,0.11972472816705704,-0.16221097111701965,0.36223602294921875,0.1493244469165802
52.0,0.13252827525138855,-0.1501355618238449,0.3507060706615448,0.15906865894794464
53.0,0.1316816210746765,-0.1556907743215561,0.35884854197502136,0.15325063467025757
54.0,0.12876710295677185,-0.15865853428840637,0.3618364632129669,0.15045064687728882
55.0,0.1278393268585205,-0.15968802571296692,0.36292320489883423,0.14803548157215118
56.0,0.12381140142679214,-0.16385257244110107,0.3671630322933197,0.1468326300382614
57.0,0.1335597038269043,-0.15486513078212738,0.35865843296051025,0.15263915061950684
58.0,0.13592050969600677,-0.15278927981853485,0.3567692041397095,0.15590563416481018
59.0,0.14910998940467834,-0.14022116363048553,0.34460896253585815,0.17100201547145844
60.0,0.13789944350719452,-0.1541014462709427,0.36032164096832275,0.15783868730068207
61.0,0.13598500192165375,-0.15625108778476715,0.36260953545570374,0.15657378733158112
62.0,0.1338932365179062,-0.1586189866065979,0.36513036489486694,0.15530695021152496
63.0,0.13572831451892853,-0.15736603736877441,0.3642442524433136,0.15781988203525543
64.0,0.13680154085159302,-0.15720349550247192,0.36462461948394775,0.15795916318893433
65.0,0.13347269594669342,-0.16119469702243805,0.3690064549446106,0.15109659731388092
66.0,0.13670091331005096,-0.1588645726442337,0.3672471046447754,0.1535656750202179
67.0,0.1419573426246643,-0.1545606106519699,0.3635835647583008,0.15895165503025055
68.0,0.1463433802127838,-0.15132752060890198,0.3610796630382538,0.16103796660900116
69.0,0.14179012179374695,-0.15735027194023132,0.368071973323822,0.15463055670261383
70.0,0.14455312490463257,-0.1554977148771286,0.36682984232902527,0.16123820841312408
71.0,0.14896707236766815,-0.15183790028095245,0.36365848779678345,0.1602136790752411
72.0,0.14905740320682526,-0.15271900594234467,0.3651866316795349,0.15647269785404205
73.0,0.15016989409923553,-0.1527523249387741,0.3660075068473816,0.1546006202697754
74.0,0.15355154871940613,-0.15018108487129211,0.3639891445636749,0.16166871786117554
75.0,0.1427088975906372,-0.16311535239219666,0.3781893253326416,0.15159548819065094
76.0,0.1531735360622406,-0.1544276475906372,0.3706508278846741,0.15535466372966766
77.0,0.1584099531173706,-0.1501002311706543,0.3669825792312622,0.15554426610469818
78.0,0.157596156001091,-0.15190450847148895,0.3694727420806885,0.1545151174068451
79.0,0.15850704908370972,-0.15291160345077515,0.37177348136901855,0.1522388905286789
80.0,0.1590137481689453,-0.1534748673439026,0.37307336926460266,0.15642093122005463
81.0,0.15495890378952026,-0.1586155742406845,0.3788672387599945,0.15343444049358368
82.0,0.15655535459518433,-0.15806980431079865,0.37898921966552734,0.15679016709327698
83.0,0.1474858969449997,-0.16772186756134033,0.38895827531814575,0.15677085518836975
84.0,0.1557324230670929,-0.16113784909248352,0.3833782970905304,0.16168004274368286
85.0,0.1569911688566208,-0.16075967252254486,0.3835699260234833,0.16251717507839203
86.0,0.15470008552074432,-0.1643405258655548,0.38798168301582336,0.15946176648139954
87.0,0.16108882427215576,-0.15995179116725922,0.3848872184753418,0.16111409664154053
88.0,0.1586691439151764,-0.16321559250354767,0.3887139558792114,0.15577638149261475
89.0,0.15468257665634155,-0.1680702418088913,0.3941352665424347,0.1603429764509201
90.0,0.15439842641353607,-0.16934840381145477,0.39601945877075195,0.15600982308387756
91.0,0.1686776578426361,-0.15690547227859497,0.384890615940094,0.15957067906856537
92.0,0.16623549163341522,-0.15984947979450226,0.38816389441490173,0.15652552247047424
93.0,0.17012101411819458,-0.15677718818187714,0.3856387734413147,0.15926969051361084
94.0,0.1680956929922104,-0.1596570461988449,0.38908371329307556,0.16133810579776764
95.0,0.15879042446613312,-0.16985169053077698,0.39982396364212036,0.15463870763778687
96.0,0.16286464035511017,-0.16727258265018463,0.39820054173469543,0.15126565098762512
97.0,0.1705365628004074,-0.16281765699386597,0.39579522609710693,0.15813037753105164
98.0,0.17467612028121948,-0.15930402278900146,0.3926917314529419,0.16318947076797485
99.0,0.17230306565761566,-0.16259874403476715,0.39658209681510925,0.16646526753902435
100.0,0.1597498506307602,-0.1752306967973709,0.4092170000076294,0.15181127190589905
